9
Coordinates from ORCA-job opt
  C   1.14926738626756      0.22562212520514     -0.05170734359624
  O   0.38280623851331     -0.30987158215011     -0.82282388082444
  N   2.37381957495077     -0.24741942257954      0.28659603983398
  C   3.28558561009555      0.40253027141573      1.20318740262287
  H   0.91268980633628      1.17630903117167      0.46083867891546
  H   2.64713767958932     -1.11407960899979     -0.15097024325888
  H   3.50075228083873     -0.22560535669296      2.06987416751470
  H   2.82716386631598      1.32392469430639      1.56003469059768
  H   4.22767755709218      0.66052984832342      0.71563048819478
