
                                 *****************
                                 * O   R   C   A *
                                 *****************

                                            #,                                       
                                            ###                                      
                                            ####                                     
                                            #####                                    
                                            ######                                   
                                           ########,                                 
                                     ,,################,,,,,                         
                               ,,#################################,,                 
                          ,,##########################################,,             
                       ,#########################################, ''#####,          
                    ,#############################################,,   '####,        
                  ,##################################################,,,,####,       
                ,###########''''           ''''###############################       
              ,#####''   ,,,,##########,,,,          '''####'''          '####       
            ,##' ,,,,###########################,,,                        '##       
           ' ,,###''''                  '''############,,,                           
         ,,##''                                '''############,,,,        ,,,,,,###''
      ,#''                                            '''#######################'''  
     '                                                          ''''####''''         
             ,#######,   #######,   ,#######,      ##                                
            ,#'     '#,  ##    ##  ,#'     '#,    #''#        ######   ,####,        
            ##       ##  ##   ,#'  ##            #'  '#       #        #'  '#        
            ##       ##  #######   ##           ,######,      #####,   #    #        
            '#,     ,#'  ##    ##  '#,     ,#' ,#      #,         ##   #,  ,#        
             '#######'   ##     ##  '#######'  #'      '#     #####' # '####'        



                  #######################################################
                  #                        -***-                        #
                  #          Department of theory and spectroscopy      #
                  #    Directorship and core code : Frank Neese         #
                  #        Max Planck Institute fuer Kohlenforschung    #
                  #                Kaiser Wilhelm Platz 1               #
                  #                 D-45470 Muelheim/Ruhr               #
                  #                      Germany                        #
                  #                                                     #
                  #                  All rights reserved                #
                  #                        -***-                        #
                  #######################################################


                         Program Version 5.0.3 -  RELEASE  -


 With contributions from (in alphabetic order):
   Daniel Aravena         : Magnetic Suceptibility
   Michael Atanasov       : Ab Initio Ligand Field Theory (pilot matlab implementation)
   Alexander A. Auer      : GIAO ZORA, VPT2 properties, NMR spectrum
   Ute Becker             : Parallelization
   Giovanni Bistoni       : ED, misc. LED, open-shell LED, HFLD
   Martin Brehm           : Molecular dynamics
   Dmytro Bykov           : SCF Hessian
   Vijay G. Chilkuri      : MRCI spin determinant printing, contributions to CSF-ICE
   Dipayan Datta          : RHF DLPNO-CCSD density
   Achintya Kumar Dutta   : EOM-CC, STEOM-CC
   Dmitry Ganyushin       : Spin-Orbit,Spin-Spin,Magnetic field MRCI
   Miquel Garcia          : C-PCM and meta-GGA Hessian, CC/C-PCM, Gaussian charge scheme
   Yang Guo               : DLPNO-NEVPT2, F12-NEVPT2, CIM, IAO-localization
   Andreas Hansen         : Spin unrestricted coupled pair/coupled cluster methods
   Benjamin Helmich-Paris : MC-RPA, TRAH-SCF, COSX integrals
   Lee Huntington         : MR-EOM, pCC
   Robert Izsak           : Overlap fitted RIJCOSX, COSX-SCS-MP3, EOM
   Marcus Kettner         : VPT2
   Christian Kollmar      : KDIIS, OOCD, Brueckner-CCSD(T), CCSD density, CASPT2, CASPT2-K
   Simone Kossmann        : Meta GGA functionals, TD-DFT gradient, OOMP2, MP2 Hessian
   Martin Krupicka        : Initial AUTO-CI
   Lucas Lang             : DCDCAS
   Marvin Lechner         : AUTO-CI (C++ implementation), FIC-MRCC
   Dagmar Lenk            : GEPOL surface, SMD
   Dimitrios Liakos       : Extrapolation schemes; Compound Job, initial MDCI parallelization
   Dimitrios Manganas     : Further ROCIS development; embedding schemes
   Dimitrios Pantazis     : SARC Basis sets
   Anastasios Papadopoulos: AUTO-CI, single reference methods and gradients
   Taras Petrenko         : DFT Hessian,TD-DFT gradient, ASA, ECA, R-Raman, ABS, FL, XAS/XES, NRVS
   Peter Pinski           : DLPNO-MP2, DLPNO-MP2 Gradient
   Christoph Reimann      : Effective Core Potentials
   Marius Retegan         : Local ZFS, SOC
   Christoph Riplinger    : Optimizer, TS searches, QM/MM, DLPNO-CCSD(T), (RO)-DLPNO pert. Triples
   Tobias Risthaus        : Range-separated hybrids, TD-DFT gradient, RPA, STAB
   Michael Roemelt        : Original ROCIS implementation
   Masaaki Saitow         : Open-shell DLPNO-CCSD energy and density
   Barbara Sandhoefer     : DKH picture change effects
   Avijit Sen             : IP-ROCIS
   Kantharuban Sivalingam : CASSCF convergence, NEVPT2, FIC-MRCI
   Bernardo de Souza      : ESD, SOC TD-DFT
   Georgi Stoychev        : AutoAux, RI-MP2 NMR, DLPNO-MP2 response
   Willem Van den Heuvel  : Paramagnetic NMR
   Boris Wezisla          : Elementary symmetry handling
   Frank Wennmohs         : Technical directorship


 We gratefully acknowledge several colleagues who have allowed us to
 interface, adapt or use parts of their codes:
   Stefan Grimme, W. Hujo, H. Kruse, P. Pracht,  : VdW corrections, initial TS optimization,
                  C. Bannwarth, S. Ehlert          DFT functionals, gCP, sTDA/sTD-DF
   Ed Valeev, F. Pavosevic, A. Kumar             : LibInt (2-el integral package), F12 methods
   Garnet Chan, S. Sharma, J. Yang, R. Olivares  : DMRG
   Ulf Ekstrom                                   : XCFun DFT Library
   Mihaly Kallay                                 : mrcc  (arbitrary order and MRCC methods)
   Jiri Pittner, Ondrej Demel                    : Mk-CCSD
   Frank Weinhold                                : gennbo (NPA and NBO analysis)
   Christopher J. Cramer and Donald G. Truhlar   : smd solvation model
   Lars Goerigk                                  : TD-DFT with DH, B97 family of functionals
   V. Asgeirsson, H. Jonsson                     : NEB implementation
   FAccTs GmbH                                   : IRC, NEB, NEB-TS, DLPNO-Multilevel, CI-OPT
                                                   MM, QMMM, 2- and 3-layer-ONIOM, Crystal-QMMM,
                                                   LR-CPCM, SF, NACMEs, symmetry and pop. for TD-DFT,
                                                   nearIR, NL-DFT gradient (VV10), updates on ESD,
                                                   ML-optimized integration grids
   S Lehtola, MJT Oliveira, MAL Marques          : LibXC Library
   Liviu Ungur et al                             : ANISO software


 Your calculation uses the libint2 library for the computation of 2-el integrals
 For citations please refer to: http://libint.valeyev.net

 Your ORCA version has been built with support for libXC version: 5.1.0
 For citations please refer to: https://tddft.org/programs/libxc/

 This ORCA versions uses:
   CBLAS   interface :  Fast vector & matrix operations
   LAPACKE interface :  Fast linear algebra routines
   SCALAPACK package :  Parallel linear algebra routines
   Shared memory     :  Shared parallel matrices
   BLAS/LAPACK       :  OpenBLAS 0.3.15  USE64BITINT DYNAMIC_ARCH NO_AFFINITY Zen SINGLE_THREADED
        Core in use  :  Zen
   Copyright (c) 2011-2014, The OpenBLAS Project




***************************************
The coordinates will be read from file: geom.xyz
***************************************



Warning: The global flag for chemical shieldings has been found
         but shieldings for certain elements have also been explicitly requested in the EPRNMR block
         ==>> only the requested shieldings will be calculated

================================================================================

----- Orbital basis set information -----
Your calculation utilizes the basis: def2-TZVPP
   F. Weigend and R. Ahlrichs, Phys. Chem. Chem. Phys. 7, 3297 (2005).

----- AuxJ basis set information -----
Your calculation utilizes the auxiliary basis: def2/J
   F. Weigend, Phys. Chem. Chem. Phys. 8, 1057 (2006).

================================================================================
                                        WARNINGS
                       Please study these warnings very carefully!
================================================================================


INFO   : the flag for use of the SHARK integral package has been found!

================================================================================
                                       INPUT FILE
================================================================================
NAME = nmr.com
|  1> ! B3LYP def2-TZVPP def2/J RIJCOSX NMR
|  2> 
|  3> * xyzFILE 0 1 geom.xyz
|  4> 
|  5> %MaxCore 32000
|  6> 
|  7> %pal nprocs 8
|  8> end
|  9> 
| 10> %EPRNMR
| 11>      NUCLEI = ALL {SHIFT}
| 12> END
| 13> 
| 14>                          ****END OF INPUT****
================================================================================

                       ****************************
                       * Single Point Calculation *
                       ****************************

---------------------------------
CARTESIAN COORDINATES (ANGSTROEM)
---------------------------------
  C      0.986284    0.069622    0.071056
  C      2.513186    0.069598    0.071056
  H      0.589165    0.341760   -0.908308
  H      0.589159    0.781680    0.796425
  H      0.589169   -0.914610    0.325060
  H      2.910301    1.053830   -0.182947
  H      2.910311   -0.642459   -0.654313
  H      2.910305   -0.202541    1.050420

----------------------------
CARTESIAN COORDINATES (A.U.)
----------------------------
  NO LB      ZA    FRAG     MASS         X           Y           Z
   0 C     6.0000    0    12.011    1.863807    0.131566    0.134276
   1 C     6.0000    0    12.011    4.749233    0.131521    0.134277
   2 H     1.0000    0     1.008    1.113360    0.645833   -1.716453
   3 H     1.0000    0     1.008    1.113350    1.477161    1.505024
   4 H     1.0000    0     1.008    1.113368   -1.728363    0.614275
   5 H     1.0000    0     1.008    5.499672    1.991451   -0.345720
   6 H     1.0000    0     1.008    5.499690   -1.214072   -1.236472
   7 H     1.0000    0     1.008    5.499679   -0.382746    1.985007

--------------------------------
INTERNAL COORDINATES (ANGSTROEM)
--------------------------------
 C      0   0   0     0.000000000000     0.00000000     0.00000000
 C      1   0   0     1.526901568058     0.00000000     0.00000000
 H      1   2   0     1.091291332608   111.34006497     0.00000000
 H      1   2   3     1.091280960198   111.34094646   239.99799434
 H      1   2   3     1.091297969920   111.33857309   119.99949097
 H      2   1   3     1.091297972293   111.33857256    60.00055269
 H      2   1   3     1.091280979275   111.34094660   300.00204039
 H      2   1   3     1.091291342834   111.34006305   180.00003884

---------------------------
INTERNAL COORDINATES (A.U.)
---------------------------
 C      0   0   0     0.000000000000     0.00000000     0.00000000
 C      1   0   0     2.885425797084     0.00000000     0.00000000
 H      1   2   0     2.062241750951   111.34006497     0.00000000
 H      1   2   3     2.062222149936   111.34094646   239.99799434
 H      1   2   3     2.062254293653   111.33857309   119.99949097
 H      2   1   3     2.062254298137   111.33857256    60.00055269
 H      2   1   3     2.062222185987   111.34094660   300.00204039
 H      2   1   3     2.062241770275   111.34006305   180.00003884

---------------------
BASIS SET INFORMATION
---------------------
There are 2 groups of distinct atoms

 Group   1 Type C   : 11s6p2d1f contracted to 5s3p2d1f pattern {62111/411/11/1}
 Group   2 Type H   : 5s2p1d contracted to 3s2p1d pattern {311/11/1}

Atom   0C    basis set group =>   1
Atom   1C    basis set group =>   1
Atom   2H    basis set group =>   2
Atom   3H    basis set group =>   2
Atom   4H    basis set group =>   2
Atom   5H    basis set group =>   2
Atom   6H    basis set group =>   2
Atom   7H    basis set group =>   2
---------------------------------
AUXILIARY/J BASIS SET INFORMATION
---------------------------------
There are 2 groups of distinct atoms

 Group   1 Type C   : 12s5p4d2f1g contracted to 6s4p3d1f1g pattern {711111/2111/211/2/1}
 Group   2 Type H   : 5s2p1d contracted to 3s1p1d pattern {311/2/1}

Atom   0C    basis set group =>   1
Atom   1C    basis set group =>   1
Atom   2H    basis set group =>   2
Atom   3H    basis set group =>   2
Atom   4H    basis set group =>   2
Atom   5H    basis set group =>   2
Atom   6H    basis set group =>   2
Atom   7H    basis set group =>   2


           ************************************************************
           *        Program running with 8 parallel MPI-processes     *
           *              working on a common directory               *
           ************************************************************
------------------------------------------------------------------------------
                           ORCA GTO INTEGRAL CALCULATION
                           -- RI-GTO INTEGRALS CHOSEN --
------------------------------------------------------------------------------
------------------------------------------------------------------------------
                   ___                                                        
                  /   \      - P O W E R E D   B Y -                         
                 /     \                                                     
                 |  |  |   _    _      __       _____    __    __             
                 |  |  |  | |  | |    /  \     |  _  \  |  |  /  |          
                  \  \/   | |  | |   /    \    | | | |  |  | /  /          
                 / \  \   | |__| |  /  /\  \   | |_| |  |  |/  /          
                |  |  |   |  __  | /  /__\  \  |    /   |      \           
                |  |  |   | |  | | |   __   |  |    \   |  |\   \          
                \     /   | |  | | |  |  |  |  | |\  \  |  | \   \       
                 \___/    |_|  |_| |__|  |__|  |_| \__\ |__|  \__/        
                                                                              
                      - O R C A' S   B I G   F R I E N D -                    
                                      &                                       
                       - I N T E G R A L  F E E D E R -                       
                                                                              
 v1 FN, 2020, v2 2021                                                         
------------------------------------------------------------------------------


Reading SHARK input file nmr.SHARKINP.tmp ... ok
----------------------
SHARK INTEGRAL PACKAGE
----------------------

Number of atoms                             ...      8
Number of basis functions                   ...    146
Number of shells                            ...     58
Maximum angular momentum                    ...      3
Integral batch strategy                     ... SHARK/LIBINT Hybrid
RI-J (if used) integral strategy            ... SPLIT-RIJ (Revised 2003 algorithm where possible)
Printlevel                                  ...      1
Contraction scheme used                     ... SEGMENTED contraction
Coulomb Range Separation                    ... NOT USED
Exchange Range Separation                   ... NOT USED
Finite Nucleus Model                        ... NOT USED
Auxiliary Coulomb fitting basis             ... AVAILABLE
   # of basis functions in Aux-J            ...    164
   # of shells in Aux-J                     ...     60
   Maximum angular momentum in Aux-J        ...      4
Auxiliary J/K fitting basis                 ... NOT available
Auxiliary Correlation fitting basis         ... NOT available
Auxiliary 'external' fitting basis          ... NOT available
Integral threshold                          ...     1.000000e-10
Primitive cut-off                           ...     1.000000e-11
Primitive pair pre-selection threshold      ...     1.000000e-11

Calculating pre-screening integrals         ... done (  0.0 sec) Dimension = 58
Organizing shell pair data                  ... done (  0.0 sec)
Shell pair information
Total number of shell pairs                 ...      1711
Shell pairs after pre-screening             ...      1710
Total number of primitive shell pairs       ...      3978
Primitive shell pairs kept                  ...      3610
          la=0 lb=0:    405 shell pairs
          la=1 lb=0:    504 shell pairs
          la=1 lb=1:    171 shell pairs
          la=2 lb=0:    280 shell pairs
          la=2 lb=1:    180 shell pairs
          la=2 lb=2:     55 shell pairs
          la=3 lb=0:     56 shell pairs
          la=3 lb=1:     36 shell pairs
          la=3 lb=2:     20 shell pairs
          la=3 lb=3:      3 shell pairs

Calculating one electron integrals          ... done (  0.0 sec)
Calculating RI/J V-Matrix + Cholesky decomp.... done (  0.0 sec)
Calculating Nuclear repulsion               ... done (  0.0 sec) ENN=     42.258869881711 Eh

SHARK setup successfully completed in   0.1 seconds

Maximum memory used throughout the entire GTOINT-calculation: 15.2 MB


           ************************************************************
           *        Program running with 8 parallel MPI-processes     *
           *              working on a common directory               *
           ************************************************************
-------------------------------------------------------------------------------
                                 ORCA SCF
-------------------------------------------------------------------------------

------------
SCF SETTINGS
------------
Hamiltonian:
 Density Functional     Method          .... DFT(GTOs)
 Exchange Functional    Exchange        .... B88
   X-Alpha parameter    XAlpha          ....  0.666667
   Becke's b parameter  XBeta           ....  0.004200
 Correlation Functional Correlation     .... LYP
 LDA part of GGA corr.  LDAOpt          .... VWN-5
 Gradients option       PostSCFGGA      .... off
 Hybrid DFT is turned on
   Fraction HF Exchange ScalHFX         ....  0.200000
   Scaling of DF-GGA-X  ScalDFX         ....  0.720000
   Scaling of DF-GGA-C  ScalDFC         ....  0.810000
   Scaling of DF-LDA-C  ScalLDAC        ....  1.000000
   Perturbative correction              ....  0.000000
   Density functional embedding theory  .... OFF
   NL short-range parameter             ....  4.800000
 RI-approximation to the Coulomb term is turned on
   Number of AuxJ basis functions       .... 164
   RIJ-COSX (HFX calculated with COS-X)).... on


General Settings:
 Integral files         IntName         .... nmr
 Hartree-Fock type      HFTyp           .... RHF
 Total Charge           Charge          ....    0
 Multiplicity           Mult            ....    1
 Number of Electrons    NEL             ....   18
 Basis Dimension        Dim             ....  146
 Nuclear Repulsion      ENuc            ....     42.2588698817 Eh

Convergence Acceleration:
 DIIS                   CNVDIIS         .... on
   Start iteration      DIISMaxIt       ....    12
   Startup error        DIISStart       ....  0.200000
   # of expansion vecs  DIISMaxEq       ....     5
   Bias factor          DIISBfac        ....   1.050
   Max. coefficient     DIISMaxC        ....  10.000
 Trust-Rad. Augm. Hess. CNVTRAH         .... auto
   Auto Start mean grad. ratio tolernc. ....  1.125000
   Auto Start start iteration           ....    20
   Auto Start num. interpolation iter.  ....    10
   Max. Number of Micro iterations      ....    16
   Max. Number of Macro iterations      .... Maxiter - #DIIS iter
   Number of Davidson start vectors     ....     2
   Converg. threshold I  (grad. norm)   ....   5.000e-05
   Converg. threshold II (energy diff.) ....   1.000e-06
   Grad. Scal. Fac. for Micro threshold ....   0.100
   Minimum threshold for Micro iter.    ....   0.010
   NR start threshold (gradient norm)   ....   0.001
   Initial trust radius                 ....   0.400
   Minimum AH scaling param. (alpha)    ....   1.000
   Maximum AH scaling param. (alpha)    .... 1000.000
   Orbital update algorithm             .... Taylor
   White noise on init. David. guess    .... on
   Maximum white noise                  ....   0.010
   Quad. conv. algorithm                .... NR
 SOSCF                  CNVSOSCF        .... on
   Start iteration      SOSCFMaxIt      ....   150
   Startup grad/error   SOSCFStart      ....  0.003300
 Level Shifting         CNVShift        .... on
   Level shift para.    LevelShift      ....    0.2500
   Turn off err/grad.   ShiftErr        ....    0.0010
 Zerner damping         CNVZerner       .... off
 Static damping         CNVDamp         .... on
   Fraction old density DampFac         ....    0.7000
   Max. Damping (<1)    DampMax         ....    0.9800
   Min. Damping (>=0)   DampMin         ....    0.0000
   Turn off err/grad.   DampErr         ....    0.1000
 Fernandez-Rico         CNVRico         .... off

SCF Procedure:
 Maximum # iterations   MaxIter         ....   125
 SCF integral mode      SCFMode         .... Direct
   Integral package                     .... SHARK and LIBINT hybrid scheme
 Reset frequency        DirectResetFreq ....    20
 Integral Threshold     Thresh          ....  1.000e-10 Eh
 Primitive CutOff       TCut            ....  1.000e-11 Eh

Convergence Tolerance:
 Convergence Check Mode ConvCheckMode   .... Total+1el-Energy
 Convergence forced     ConvForced      .... 0
 Energy Change          TolE            ....  1.000e-06 Eh
 1-El. energy change                    ....  1.000e-03 Eh
 Orbital Gradient       TolG            ....  5.000e-05
 Orbital Rotation angle TolX            ....  5.000e-05
 DIIS Error             TolErr          ....  1.000e-06


Diagonalization of the overlap matrix:
Smallest eigenvalue                        ... 4.045e-04
Time for diagonalization                   ...    0.002 sec
Threshold for overlap eigenvalues          ... 1.000e-08
Number of eigenvalues below threshold      ... 0
Time for construction of square roots      ...    0.001 sec
Total time needed                          ...    0.004 sec

Time for model grid setup =    0.017 sec

------------------------------
INITIAL GUESS: MODEL POTENTIAL
------------------------------
Loading Hartree-Fock densities                     ... done
Calculating cut-offs                               ... done
Initializing the effective Hamiltonian             ... done
Setting up the integral package (SHARK)            ... done
Starting the Coulomb interaction                   ... done (   0.0 sec)
Reading the grid                                   ... done
Mapping shells                                     ... done
Starting the XC term evaluation                    ... done (   0.0 sec)
  promolecular density results
     # of electrons  =     17.997874972
     EX              =    -12.047870979
     EC              =     -0.544512591
     EX+EC           =    -12.592383570
Transforming the Hamiltonian                       ... done (   0.0 sec)
Diagonalizing the Hamiltonian                      ... done (   0.0 sec)
Back transforming the eigenvectors                 ... done (   0.0 sec)
Now organizing SCF variables                       ... done
                      ------------------
                      INITIAL GUESS DONE (   0.0 sec)
                      ------------------
-------------------
DFT GRID GENERATION
-------------------

General Integration Accuracy     IntAcc      ... 4.388
Radial Grid Type                 RadialGrid  ... OptM3 with GC (2021)
Angular Grid (max. ang.)         AngularGrid ... 4 (Lebedev-302)
Angular grid pruning method      GridPruning ... 4 (adaptive)
Weight generation scheme         WeightScheme... Becke
Basis function cutoff            BFCut       ... 1.0000e-10
Integration weight cutoff        WCut        ... 1.0000e-14
Angular grids for H and He will be reduced by one unit
Partially contracted basis set               ... off
Rotationally invariant grid construction     ... off

Total number of grid points                  ...    31678
Total number of batches                      ...      500
Average number of points per batch           ...       63
Average number of grid points per atom       ...     3960
Time for grid setup =    0.107 sec

--------------------
COSX GRID GENERATION
--------------------

GRIDX 1
-------
General Integration Accuracy     IntAcc      ... 3.816
Radial Grid Type                 RadialGrid  ... OptM3 with GC (2021)
Angular Grid (max. ang.)         AngularGrid ... 1 (Lebedev-50)
Angular grid pruning method      GridPruning ... 4 (adaptive)
Weight generation scheme         WeightScheme... Becke
Basis function cutoff            BFCut       ... 1.0000e-10
Integration weight cutoff        WCut        ... 1.0000e-14
Angular grids for H and He will be reduced by one unit
Partially contracted basis set               ... on
Rotationally invariant grid construction     ... off

Total number of grid points                  ...     4118
Total number of batches                      ...       68
Average number of points per batch           ...       60
Average number of grid points per atom       ...      515
UseSFitting                                  ... on

GRIDX 2
-------
General Integration Accuracy     IntAcc      ... 4.020
Radial Grid Type                 RadialGrid  ... OptM3 with GC (2021)
Angular Grid (max. ang.)         AngularGrid ... 2 (Lebedev-110)
Angular grid pruning method      GridPruning ... 4 (adaptive)
Weight generation scheme         WeightScheme... Becke
Basis function cutoff            BFCut       ... 1.0000e-10
Integration weight cutoff        WCut        ... 1.0000e-14
Angular grids for H and He will be reduced by one unit
Partially contracted basis set               ... on
Rotationally invariant grid construction     ... off

Total number of grid points                  ...     8392
Total number of batches                      ...      136
Average number of points per batch           ...       61
Average number of grid points per atom       ...     1049
UseSFitting                                  ... on

GRIDX 3
-------
General Integration Accuracy     IntAcc      ... 4.338
Radial Grid Type                 RadialGrid  ... OptM3 with GC (2021)
Angular Grid (max. ang.)         AngularGrid ... 3 (Lebedev-194)
Angular grid pruning method      GridPruning ... 4 (adaptive)
Weight generation scheme         WeightScheme... Becke
Basis function cutoff            BFCut       ... 1.0000e-10
Integration weight cutoff        WCut        ... 1.0000e-14
Angular grids for H and He will be reduced by one unit
Partially contracted basis set               ... on
Rotationally invariant grid construction     ... off

Total number of grid points                  ...    18452
Total number of batches                      ...      293
Average number of points per batch           ...       62
Average number of grid points per atom       ...     2306
UseSFitting                                  ... on

Time for X-Grid setup             =    0.076 sec

--------------
SCF ITERATIONS
--------------
ITER       Energy         Delta-E        Max-DP      RMS-DP      [F,P]     Damp
               ***  Starting incremental Fock matrix formation  ***
  0    -79.6772983948   0.000000000000 0.03867102  0.00104722  0.2027987 0.7000
  1    -79.7359161746  -0.058617779813 0.02369346  0.00076015  0.1042118 0.7000
                               ***Turning on DIIS***
  2    -79.7590159028  -0.023099728262 0.03518809  0.00128392  0.0376164 0.0000
  3    -79.7903589770  -0.031343074162 0.01518876  0.00048844  0.0587646 0.0000
  4    -79.8006492860  -0.010290308982 0.00338561  0.00015759  0.0128358 0.0000
                      *** Initiating the SOSCF procedure ***
                           *** Shutting down DIIS ***
                      *** Re-Reading the Fockian *** 
                      *** Removing any level shift *** 
ITER      Energy       Delta-E        Grad      Rot      Max-DP    RMS-DP
  5    -79.80120599  -0.0005567084  0.000924  0.000924  0.001488  0.000064
               *** Restarting incremental Fock matrix formation ***
  6    -79.80124985  -0.0000438570  0.000362  0.000882  0.001265  0.000047
  7    -79.80125034  -0.0000004843  0.000309  0.000233  0.000291  0.000009
  8    -79.80125238  -0.0000020398  0.000048  0.000060  0.000067  0.000003
                 **** Energy Check signals convergence ****
              ***Rediagonalizing the Fockian in SOSCF/NRSCF***

               *****************************************************
               *                     SUCCESS                       *
               *           SCF CONVERGED AFTER   9 CYCLES          *
               *****************************************************

Old exchange energy                            =     -2.498524182 Eh
New exchange energy                            =     -2.498519166 Eh
Exchange energy change after final integration =      0.000005016 Eh
Total energy after final integration           =    -79.801247382 Eh
Final COS-X integration done in                =     0.270 sec

----------------
TOTAL SCF ENERGY
----------------

Total Energy       :          -79.80124738 Eh           -2171.50234 eV

Components:
Nuclear Repulsion  :           42.25886988 Eh            1149.92231 eV
Electronic Energy  :         -122.06011726 Eh           -3321.42465 eV
One Electron Energy:         -189.35811156 Eh           -5152.69617 eV
Two Electron Energy:           67.29799430 Eh            1831.27152 eV
Max COSX asymmetry :            0.00000094 Eh               0.00003 eV

Virial components:
Potential Energy   :         -159.15756579 Eh           -4330.89754 eV
Kinetic Energy     :           79.35631841 Eh            2159.39521 eV
Virial Ratio       :            2.00560672


DFT components:
N(Alpha)           :        8.999997124253 electrons
N(Beta)            :        8.999997124253 electrons
N(Total)           :       17.999994248505 electrons
E(X)               :       -9.892227276745 Eh       
E(C)               :       -0.654977541550 Eh       
E(XC)              :      -10.547204818295 Eh       
DFET-embed. en.    :        0.000000000000 Eh       

---------------
SCF CONVERGENCE
---------------

  Last Energy change         ...   -2.3076e-08  Tolerance :   1.0000e-06
  Last MAX-Density change    ...    1.6306e-16  Tolerance :   1.0000e-05
  Last RMS-Density change    ...    5.1332e-18  Tolerance :   1.0000e-06
  Last Orbital Gradient      ...    1.5845e-05  Tolerance :   5.0000e-05
  Last Orbital Rotation      ...    1.7793e-05  Tolerance :   5.0000e-05

             **** THE GBW FILE WAS UPDATED (nmr.gbw) ****
             **** DENSITY nmr.scfp WAS UPDATED ****
             **** ENERGY FILE WAS UPDATED (nmr.en.tmp) ****
             **** THE GBW FILE WAS UPDATED (nmr.gbw) ****
             **** DENSITY nmr.scfp WAS UPDATED ****
----------------
ORBITAL ENERGIES
----------------

  NO   OCC          E(Eh)            E(eV) 
   0   2.0000     -10.155587      -276.3476 
   1   2.0000     -10.155369      -276.3416 
   2   2.0000      -0.750995       -20.4356 
   3   2.0000      -0.614259       -16.7148 
   4   2.0000      -0.433648       -11.8002 
   5   2.0000      -0.433635       -11.7998 
   6   2.0000      -0.367493       -10.0000 
   7   2.0000      -0.342352        -9.3159 
   8   2.0000      -0.342344        -9.3157 
   9   0.0000       0.042314         1.1514 
  10   0.0000       0.081296         2.2122 
  11   0.0000       0.112088         3.0501 
  12   0.0000       0.112089         3.0501 
  13   0.0000       0.125394         3.4122 
  14   0.0000       0.125397         3.4122 
  15   0.0000       0.191621         5.2143 
  16   0.0000       0.196640         5.3509 
  17   0.0000       0.232825         6.3355 
  18   0.0000       0.232830         6.3356 
  19   0.0000       0.244105         6.6424 
  20   0.0000       0.244106         6.6425 
  21   0.0000       0.402191        10.9442 
  22   0.0000       0.409384        11.1399 
  23   0.0000       0.425500        11.5785 
  24   0.0000       0.437799        11.9131 
  25   0.0000       0.437817        11.9136 
  26   0.0000       0.490761        13.3543 
  27   0.0000       0.490768        13.3545 
  28   0.0000       0.529151        14.3989 
  29   0.0000       0.543073        14.7778 
  30   0.0000       0.543090        14.7782 
  31   0.0000       0.562500        15.3064 
  32   0.0000       0.758585        20.6421 
  33   0.0000       0.758594        20.6424 
  34   0.0000       0.855421        23.2772 
  35   0.0000       0.895847        24.3772 
  36   0.0000       0.914172        24.8759 
  37   0.0000       0.914181        24.8761 
  38   0.0000       0.922271        25.0963 
  39   0.0000       1.018657        27.7191 
  40   0.0000       1.022726        27.8298 
  41   0.0000       1.022750        27.8305 
  42   0.0000       1.063552        28.9407 
  43   0.0000       1.063570        28.9412 
  44   0.0000       1.146031        31.1851 
  45   0.0000       1.174910        31.9709 
  46   0.0000       1.174931        31.9715 
  47   0.0000       1.243751        33.8442 
  48   0.0000       1.352622        36.8067 
  49   0.0000       1.374357        37.3982 
  50   0.0000       1.374369        37.3985 
  51   0.0000       1.420865        38.6637 
  52   0.0000       1.420898        38.6646 
  53   0.0000       1.427779        38.8518 
  54   0.0000       1.458795        39.6958 
  55   0.0000       1.458806        39.6961 
  56   0.0000       1.534297        41.7504 
  57   0.0000       1.534331        41.7513 
  58   0.0000       1.560609        42.4663 
  59   0.0000       1.566995        42.6401 
  60   0.0000       1.930204        52.5235 
  61   0.0000       1.930232        52.5243 
  62   0.0000       2.024838        55.0986 
  63   0.0000       2.083607        56.6978 
  64   0.0000       2.083628        56.6984 
  65   0.0000       2.455977        66.8305 
  66   0.0000       2.493812        67.8601 
  67   0.0000       2.503402        68.1210 
  68   0.0000       2.503411        68.1213 
  69   0.0000       2.528700        68.8094 
  70   0.0000       2.528713        68.8098 
  71   0.0000       2.542893        69.1956 
  72   0.0000       2.770987        75.4024 
  73   0.0000       2.835625        77.1613 
  74   0.0000       2.835636        77.1616 
  75   0.0000       2.855006        77.6887 
  76   0.0000       2.855021        77.6891 
  77   0.0000       2.858208        77.7758 
  78   0.0000       2.940208        80.0071 
  79   0.0000       2.940214        80.0073 
  80   0.0000       2.960605        80.5622 
  81   0.0000       3.053452        83.0886 
  82   0.0000       3.053489        83.0897 
  83   0.0000       3.078655        83.7745 
  84   0.0000       3.080576        83.8267 
  85   0.0000       3.080578        83.8268 
  86   0.0000       3.195467        86.9531 
  87   0.0000       3.195493        86.9538 
  88   0.0000       3.315253        90.2126 
  89   0.0000       3.348129        91.1072 
  90   0.0000       3.457432        94.0815 
  91   0.0000       3.457508        94.0836 
  92   0.0000       3.502645        95.3118 
  93   0.0000       3.509119        95.4880 
  94   0.0000       3.509179        95.4896 
  95   0.0000       3.580531        97.4312 
  96   0.0000       3.580547        97.4316 
  97   0.0000       3.643494        99.1445 
  98   0.0000       3.756490       102.2193 
  99   0.0000       3.756511       102.2199 
 100   0.0000       3.791633       103.1756 
 101   0.0000       3.867436       105.2383 
 102   0.0000       3.920949       106.6944 
 103   0.0000       3.932956       107.0212 
 104   0.0000       3.932980       107.0218 
 105   0.0000       3.980825       108.3238 
 106   0.0000       3.980848       108.3244 
 107   0.0000       4.013435       109.2111 
 108   0.0000       4.013446       109.2114 
 109   0.0000       4.069566       110.7385 
 110   0.0000       4.069607       110.7396 
 111   0.0000       4.084254       111.1382 
 112   0.0000       4.151417       112.9658 
 113   0.0000       4.244822       115.5075 
 114   0.0000       4.316849       117.4674 
 115   0.0000       4.316859       117.4677 
 116   0.0000       4.324813       117.6842 
 117   0.0000       4.324826       117.6845 
 118   0.0000       4.349004       118.3424 
 119   0.0000       4.529871       123.2641 
 120   0.0000       4.603104       125.2568 
 121   0.0000       4.629726       125.9813 
 122   0.0000       4.629741       125.9817 
 123   0.0000       4.717771       128.3771 
 124   0.0000       4.818463       131.1170 
 125   0.0000       4.865653       132.4012 
 126   0.0000       4.865685       132.4020 
 127   0.0000       4.977501       135.4447 
 128   0.0000       4.977634       135.4483 
 129   0.0000       5.214760       141.9008 
 130   0.0000       5.309755       144.4858 
 131   0.0000       5.318312       144.7186 
 132   0.0000       5.318333       144.7192 
 133   0.0000       5.328670       145.0005 
 134   0.0000       5.332332       145.1001 
 135   0.0000       5.354364       145.6997 
 136   0.0000       5.354378       145.7000 
 137   0.0000       5.499147       149.6394 
 138   0.0000       5.499174       149.6401 
 139   0.0000       5.500842       149.6855 
 140   0.0000       5.694662       154.9596 
 141   0.0000       5.694689       154.9604 
 142   0.0000       5.703101       155.1893 
 143   0.0000       5.703132       155.1901 
 144   0.0000      23.574288       641.4890 
 145   0.0000      23.588679       641.8806 

                    ********************************
                    * MULLIKEN POPULATION ANALYSIS *
                    ********************************

-----------------------
MULLIKEN ATOMIC CHARGES
-----------------------
   0 C :   -0.244460
   1 C :   -0.244460
   2 H :    0.081558
   3 H :    0.081347
   4 H :    0.081555
   5 H :    0.081560
   6 H :    0.081340
   7 H :    0.081562
Sum of atomic charges:   -0.0000000

--------------------------------
MULLIKEN REDUCED ORBITAL CHARGES
--------------------------------
  0 C s       :     3.217135  s :     3.217135
      pz      :     1.026473  p :     2.954579
      px      :     0.901617
      py      :     1.026488
      dz2     :     0.008502  d :     0.069164
      dxz     :     0.021722
      dyz     :     0.008259
      dx2y2   :     0.008957
      dxy     :     0.021724
      f0      :     0.000468  f :     0.003582
      f+1     :     0.000508
      f-1     :     0.000314
      f+2     :     0.000613
      f-2     :     0.000112
      f+3     :     0.000771
      f-3     :     0.000796
  1 C s       :     3.217141  s :     3.217141
      pz      :     1.026471  p :     2.954572
      px      :     0.901614
      py      :     1.026487
      dz2     :     0.008503  d :     0.069165
      dxz     :     0.021721
      dyz     :     0.008259
      dx2y2   :     0.008957
      dxy     :     0.021724
      f0      :     0.000468  f :     0.003582
      f+1     :     0.000508
      f-1     :     0.000314
      f+2     :     0.000613
      f-2     :     0.000112
      f+3     :     0.000771
      f-3     :     0.000796
  2 H s       :     0.883858  s :     0.883858
      pz      :     0.012183  p :     0.032998
      px      :     0.010604
      py      :     0.010211
      dz2     :     0.000386  d :     0.001586
      dxz     :     0.000405
      dyz     :     0.000505
      dx2y2   :     0.000202
      dxy     :     0.000088
  3 H s       :     0.884044  s :     0.884044
      pz      :     0.011229  p :     0.033022
      px      :     0.010605
      py      :     0.011189
      dz2     :     0.000581  d :     0.001587
      dxz     :     0.000250
      dyz     :     0.000092
      dx2y2   :     0.000422
      dxy     :     0.000243
  4 H s       :     0.883857  s :     0.883857
      pz      :     0.010192  p :     0.033003
      px      :     0.010605
      py      :     0.012205
      dz2     :     0.000134  d :     0.001586
      dxz     :     0.000084
      dyz     :     0.000523
      dx2y2   :     0.000437
      dxy     :     0.000408
  5 H s       :     0.883852  s :     0.883852
      pz      :     0.010192  p :     0.033002
      px      :     0.010605
      py      :     0.012205
      dz2     :     0.000134  d :     0.001586
      dxz     :     0.000084
      dyz     :     0.000523
      dx2y2   :     0.000437
      dxy     :     0.000408
  6 H s       :     0.884052  s :     0.884052
      pz      :     0.011229  p :     0.033021
      px      :     0.010603
      py      :     0.011189
      dz2     :     0.000581  d :     0.001587
      dxz     :     0.000250
      dyz     :     0.000092
      dx2y2   :     0.000422
      dxy     :     0.000243
  7 H s       :     0.883854  s :     0.883854
      pz      :     0.012182  p :     0.032999
      px      :     0.010605
      py      :     0.010211
      dz2     :     0.000386  d :     0.001586
      dxz     :     0.000405
      dyz     :     0.000505
      dx2y2   :     0.000202
      dxy     :     0.000088


                     *******************************
                     * LOEWDIN POPULATION ANALYSIS *
                     *******************************

----------------------
LOEWDIN ATOMIC CHARGES
----------------------
   0 C :   -0.015356
   1 C :   -0.015356
   2 H :    0.005121
   3 H :    0.005111
   4 H :    0.005124
   5 H :    0.005125
   6 H :    0.005110
   7 H :    0.005121

-------------------------------
LOEWDIN REDUCED ORBITAL CHARGES
-------------------------------
  0 C s       :     2.710772  s :     2.710772
      pz      :     1.018042  p :     2.983266
      px      :     0.947180
      py      :     1.018043
      dz2     :     0.046484  d :     0.291834
      dxz     :     0.072963
      dyz     :     0.040020
      dx2y2   :     0.059404
      dxy     :     0.072963
      f0      :     0.003408  f :     0.029485
      f+1     :     0.004757
      f-1     :     0.002676
      f+2     :     0.004189
      f-2     :     0.004033
      f+3     :     0.005239
      f-3     :     0.005184
  1 C s       :     2.710772  s :     2.710772
      pz      :     1.018042  p :     2.983266
      px      :     0.947180
      py      :     1.018043
      dz2     :     0.046484  d :     0.291834
      dxz     :     0.072963
      dyz     :     0.040020
      dx2y2   :     0.059404
      dxy     :     0.072963
      f0      :     0.003408  f :     0.029485
      f+1     :     0.004757
      f-1     :     0.002676
      f+2     :     0.004189
      f-2     :     0.004033
      f+3     :     0.005239
      f-3     :     0.005184
  2 H s       :     0.816984  s :     0.816984
      pz      :     0.062521  p :     0.148631
      px      :     0.043691
      py      :     0.042418
      dz2     :     0.009365  d :     0.029264
      dxz     :     0.008009
      dyz     :     0.008215
      dx2y2   :     0.002193
      dxy     :     0.001481
  3 H s       :     0.816986  s :     0.816986
      pz      :     0.052688  p :     0.148639
      px      :     0.043696
      py      :     0.052254
      dz2     :     0.007827  d :     0.029265
      dxz     :     0.004816
      dyz     :     0.006438
      dx2y2   :     0.005509
      dxy     :     0.004675
  4 H s       :     0.816982  s :     0.816982
      pz      :     0.042201  p :     0.148631
      px      :     0.043691
      py      :     0.062738
      dz2     :     0.003375  d :     0.029263
      dxz     :     0.001411
      dyz     :     0.008292
      dx2y2   :     0.008106
      dxy     :     0.008079
  5 H s       :     0.816982  s :     0.816982
      pz      :     0.042201  p :     0.148630
      px      :     0.043691
      py      :     0.062738
      dz2     :     0.003375  d :     0.029263
      dxz     :     0.001411
      dyz     :     0.008292
      dx2y2   :     0.008106
      dxy     :     0.008079
  6 H s       :     0.816986  s :     0.816986
      pz      :     0.052688  p :     0.148639
      px      :     0.043696
      py      :     0.052254
      dz2     :     0.007827  d :     0.029265
      dxz     :     0.004816
      dyz     :     0.006438
      dx2y2   :     0.005509
      dxy     :     0.004675
  7 H s       :     0.816984  s :     0.816984
      pz      :     0.062521  p :     0.148631
      px      :     0.043691
      py      :     0.042419
      dz2     :     0.009365  d :     0.029264
      dxz     :     0.008009
      dyz     :     0.008215
      dx2y2   :     0.002193
      dxy     :     0.001481


                      *****************************
                      * MAYER POPULATION ANALYSIS *
                      *****************************

  NA   - Mulliken gross atomic population
  ZA   - Total nuclear charge
  QA   - Mulliken gross atomic charge
  VA   - Mayer's total valence
  BVA  - Mayer's bonded valence
  FA   - Mayer's free valence

  ATOM       NA         ZA         QA         VA         BVA        FA
  0 C      6.2445     6.0000    -0.2445     3.8973     3.8973    -0.0000
  1 C      6.2445     6.0000    -0.2445     3.8973     3.8973    -0.0000
  2 H      0.9184     1.0000     0.0816     0.9939     0.9939    -0.0000
  3 H      0.9187     1.0000     0.0813     0.9940     0.9940    -0.0000
  4 H      0.9184     1.0000     0.0816     0.9939     0.9939     0.0000
  5 H      0.9184     1.0000     0.0816     0.9939     0.9939     0.0000
  6 H      0.9187     1.0000     0.0813     0.9940     0.9940    -0.0000
  7 H      0.9184     1.0000     0.0816     0.9939     0.9939     0.0000

  Mayer bond orders larger than 0.100000
B(  0-C ,  1-C ) :   0.9413 B(  0-C ,  2-H ) :   0.9856 B(  0-C ,  3-H ) :   0.9857 
B(  0-C ,  4-H ) :   0.9857 B(  1-C ,  5-H ) :   0.9857 B(  1-C ,  6-H ) :   0.9857 
B(  1-C ,  7-H ) :   0.9856 

-------
TIMINGS
-------

Total SCF time: 0 days 0 hours 0 min 2 sec 

Total time                  ....       2.139 sec
Sum of individual times     ....       2.065 sec  ( 96.5%)

Fock matrix formation       ....       1.775 sec  ( 83.0%)
  Split-RI-J                ....       0.179 sec  ( 10.1% of F)
  Chain of spheres X        ....       1.250 sec  ( 70.4% of F)
  XC integration            ....       0.322 sec  ( 18.1% of F)
    Basis function eval.    ....       0.083 sec  ( 25.9% of XC)
    Density eval.           ....       0.072 sec  ( 22.2% of XC)
    XC-Functional eval.     ....       0.014 sec  (  4.4% of XC)
    XC-Potential eval.      ....       0.114 sec  ( 35.5% of XC)
Diagonalization             ....       0.027 sec  (  1.3%)
Density matrix formation    ....       0.005 sec  (  0.2%)
Population analysis         ....       0.006 sec  (  0.3%)
Initial guess               ....       0.021 sec  (  1.0%)
Orbital Transformation      ....       0.000 sec  (  0.0%)
Orbital Orthonormalization  ....       0.000 sec  (  0.0%)
DIIS solution               ....       0.021 sec  (  1.0%)
SOSCF solution              ....       0.012 sec  (  0.6%)
Grid generation             ....       0.199 sec  (  9.3%)

Maximum memory used throughout the entire SCF-calculation: 62.0 MB

-------------------------   --------------------
FINAL SINGLE POINT ENERGY       -79.801247382334
-------------------------   --------------------


                            ***************************************
                            *     ORCA property calculations      *
                            ***************************************

                                    ---------------------
                                    Active property flags
                                    ---------------------
   (+) Dipole Moment
   (+) Chemical Shifts
   (+) Nuclear properties (Hyperfine,Quadrupole)


------------------------------------------------------------------------------
                       ORCA ELECTRIC PROPERTIES CALCULATION
------------------------------------------------------------------------------

Dipole Moment Calculation                       ... on
Quadrupole Moment Calculation                   ... off
Polarizability Calculation                      ... off
GBWName                                         ... nmr.gbw
Electron density                                ... nmr.scfp
The origin for moment calculation is the CENTER OF MASS  = ( 3.306520,  0.131544  0.134277)

-------------
DIPOLE MOMENT
-------------
                                X             Y             Z
Electronic contribution:     -0.00000      -0.00000      -0.00000
Nuclear contribution   :     -0.00000      -0.00000       0.00000
                        -----------------------------------------
Total Dipole Moment    :     -0.00000      -0.00000      -0.00000
                        -----------------------------------------
Magnitude (a.u.)       :      0.00000
Magnitude (Debye)      :      0.00000



--------------------
Rotational spectrum 
--------------------
 
Rotational constants in cm-1:     2.697718     0.667049     0.667047 
Rotational constants in MHz : 80875.546140 19997.630199 19997.554789 

 Dipole components along the rotational axes: 
x,y,z [a.u.] :    -0.000001    -0.000000    -0.000000 
x,y,z [Debye]:    -0.000002    -0.000000    -0.000000 

 


           ************************************************************
           *        Program running with 8 parallel MPI-processes     *
           *              working on a common directory               *
           ************************************************************
------------------------------------------------------------------------------
                                ORCA EPR/NMR CALCULATION
------------------------------------------------------------------------------

GBWName                      ... nmr.gbw
Electron density             ... nmr.scfp
Spin density                 ... nmr.scfr
Treatment of gauge           ... GIAO (approximations 1/2el = 0,0)
Details of the CP(SCF) procedure:
       Solver   = POPLE   
       MaxIter  =    64   
       Tolerance=    1.000e-03
       COSX Grid=     1   
       Op-0     =   0-  8 =>   9-145
Multiplicity                 ... 1
g-tensor                     ... 0
NMR chemical shifts          ... 1
NMR spin-spin couplings      ... 0
NMR spectrum                 ... 0
Number of nuclei for epr/nmr ... 8
   Nucleus:   2H 
       Hyperfine : Isotope=    0 I=   0.000 P=   0.000
       Quadrupole: Isotope=    0 I=   0.000 Q=   0.000
       Spin-Orbit: Zeff=   1.000
       Nuclear Spin-Spin: Gn=   0.000
       EPRNMR Input: 
       rho(0)=N f(grad)=N a(iso)=N a(dip)=N a(orb)=N sigma(nmr)=Y spin-spin(nmr)=all-N,DSO-N,PSO-N,FC-N,SD-N
   Nucleus:   3H 
       Hyperfine : Isotope=    0 I=   0.000 P=   0.000
       Quadrupole: Isotope=    0 I=   0.000 Q=   0.000
       Spin-Orbit: Zeff=   1.000
       Nuclear Spin-Spin: Gn=   0.000
       EPRNMR Input: 
       rho(0)=N f(grad)=N a(iso)=N a(dip)=N a(orb)=N sigma(nmr)=Y spin-spin(nmr)=all-N,DSO-N,PSO-N,FC-N,SD-N
   Nucleus:   4H 
       Hyperfine : Isotope=    0 I=   0.000 P=   0.000
       Quadrupole: Isotope=    0 I=   0.000 Q=   0.000
       Spin-Orbit: Zeff=   1.000
       Nuclear Spin-Spin: Gn=   0.000
       EPRNMR Input: 
       rho(0)=N f(grad)=N a(iso)=N a(dip)=N a(orb)=N sigma(nmr)=Y spin-spin(nmr)=all-N,DSO-N,PSO-N,FC-N,SD-N
   Nucleus:   5H 
       Hyperfine : Isotope=    0 I=   0.000 P=   0.000
       Quadrupole: Isotope=    0 I=   0.000 Q=   0.000
       Spin-Orbit: Zeff=   1.000
       Nuclear Spin-Spin: Gn=   0.000
       EPRNMR Input: 
       rho(0)=N f(grad)=N a(iso)=N a(dip)=N a(orb)=N sigma(nmr)=Y spin-spin(nmr)=all-N,DSO-N,PSO-N,FC-N,SD-N
   Nucleus:   6H 
       Hyperfine : Isotope=    0 I=   0.000 P=   0.000
       Quadrupole: Isotope=    0 I=   0.000 Q=   0.000
       Spin-Orbit: Zeff=   1.000
       Nuclear Spin-Spin: Gn=   0.000
       EPRNMR Input: 
       rho(0)=N f(grad)=N a(iso)=N a(dip)=N a(orb)=N sigma(nmr)=Y spin-spin(nmr)=all-N,DSO-N,PSO-N,FC-N,SD-N
   Nucleus:   7H 
       Hyperfine : Isotope=    0 I=   0.000 P=   0.000
       Quadrupole: Isotope=    0 I=   0.000 Q=   0.000
       Spin-Orbit: Zeff=   1.000
       Nuclear Spin-Spin: Gn=   0.000
       EPRNMR Input: 
       rho(0)=N f(grad)=N a(iso)=N a(dip)=N a(orb)=N sigma(nmr)=Y spin-spin(nmr)=all-N,DSO-N,PSO-N,FC-N,SD-N
   Nucleus:   0C 
       Hyperfine : Isotope=    0 I=   0.000 P=   0.000
       Quadrupole: Isotope=    0 I=   0.000 Q=   0.000
       Spin-Orbit: Zeff=   3.600
       Nuclear Spin-Spin: Gn=   0.000
       EPRNMR Input: 
       rho(0)=N f(grad)=N a(iso)=N a(dip)=N a(orb)=N sigma(nmr)=Y spin-spin(nmr)=all-N,DSO-N,PSO-N,FC-N,SD-N
   Nucleus:   1C 
       Hyperfine : Isotope=    0 I=   0.000 P=   0.000
       Quadrupole: Isotope=    0 I=   0.000 Q=   0.000
       Spin-Orbit: Zeff=   3.600
       Nuclear Spin-Spin: Gn=   0.000
       EPRNMR Input: 
       rho(0)=N f(grad)=N a(iso)=N a(dip)=N a(orb)=N sigma(nmr)=Y spin-spin(nmr)=all-N,DSO-N,PSO-N,FC-N,SD-N
Forming RHS of the CP-SCF equations         ... 
Calculating right hand sides for GIAO treatment        ... 
  Entering RightHandSide GIAO. ScalHFX=    0.2000 NeedHFX=1
     -> 1-electron GIAO integrals will be done analytically
     -> RIJCOSX used in SCF. Same chosen for GIAO calculation.
     Making grid for GIAO integrations   ...

GRID GIAO
---------

General Integration Accuracy     IntAcc      ... 4.388
Radial Grid Type                 RadialGrid  ... OptM3 with GC (2021)
Angular Grid (max. ang.)         AngularGrid ... 4 (Lebedev-302)
Angular grid pruning method      GridPruning ... 4 (adaptive)
Weight generation scheme         WeightScheme... Becke
Basis function cutoff            BFCut       ... 1.0000e-10
Integration weight cutoff        WCut        ... 1.0000e-14
Angular grids for H and He will be reduced by one unit
Partially contracted basis set               ... off
Rotationally invariant grid construction     ... off

Total number of grid points                  ...    31678
Total number of batches                      ...      500
Average number of points per batch           ...       63
Average number of grid points per atom       ...     3960

  One-electron GIAO integrals (SHARK)     ... done
  Calculating G(B)[P]                     ... (RI-J: SHARK-ok) (COSX-ok) (add-J+K:ok) => dG/dB done
  DFT XC-terms                            ... done
  Extracting occupied and virtual blocks  ... 
  Operator  0  NO=   9 NV= 137 
  Transforming and RHS contribution       ... done
  Adding eps_i * S(B)_ai terms            ... done
  Projecting overlap derivatives          ... done
  Building G[dS/dB_ij] (COSX)             ... done
  Transforming to MO basis                ... done
  Summing G[dS/dB_ij] into RHS contribs.  ... done

  GIAO profiling information: 
    Total GIAO time               ...       0.9 sec
       GIAO 1-electron integrals  ...       0.0 sec (  1.2%)
       GIAO G(dS/dB) terms        ...       0.1 sec (  7.2%)
       GIAO RI-J                  ...       0.0 sec (  5.6%)
       GIAO COSX                  ...       0.2 sec ( 19.9%)
       GIAO XC-terms              ...       0.5 sec ( 53.7%)
       Right hand side assembly   ...       0.0 sec (  0.2%)

  GIAO right hand side done


------------------------------------------------------------------------------
                           ORCA CP-SCF CALCULATION
------------------------------------------------------------------------------

Input orbitals are from        ... nmr.gbw
Input Perturbation             ... nmr.pin.tmp
Wavefunction output            ... nmr.pout.tmp
Perturbation mode              ... Imaginary perturbation
Solver                         ... POPLE
Max. number of iterations      ... 64
Convergence tolerance          ... 1.000e-03
Integral handling              ... Direct
DFT GridXC                     ... 1
COSX GridX                     ... 1
COSX IntAccX                   ... 3.067
COSX Algorithm                 ... Auto
Number of perturbations        ... 3
Number of operators            ... 1
Orbital ranges used for CP-SCF:
 Operator 0:  Orbitals   0...  8  to   9...145
Variables per perturbation     ... 1233
DFT calculation                         ... on
XC functional terms                     ... off
Hybrid DFT                              ... on
   Exchange mixing (SCF)                ...  0.200
   Exchange mixing (CP-SCF)             ...  0.200
   GGA exch. scaling(SCF)               ...  0.720
   GGA exch. scaling (CP-SCF)           ...  0.720
   GGA corr. scaling (SCF)              ...  0.810
   GGA corr. scaling (CP-SCF)           ...  0.810

CP-SCF GRID
-----------

General Integration Accuracy     IntAcc      ... 3.467
Radial Grid Type                 RadialGrid  ... OptM3 with GC (2021)
Angular Grid (max. ang.)         AngularGrid ... 1 (Lebedev-50)
Angular grid pruning method      GridPruning ... 4 (adaptive)
Weight generation scheme         WeightScheme... Becke
Basis function cutoff            BFCut       ... 1.0000e-10
Integration weight cutoff        WCut        ... 1.0000e-14
Angular grids for H and He will be reduced by one unit
Partially contracted basis set               ... off
Rotationally invariant grid construction     ... off

Total number of grid points                  ...     4382
Total number of batches                      ...       74
Average number of points per batch           ...       59
Average number of grid points per atom       ...      548

CP-SCF GRIDX
------------

General Integration Accuracy     IntAcc      ... 3.067
Radial Grid Type                 RadialGrid  ... OptM3 with GC (2021)
Angular Grid (max. ang.)         AngularGrid ... 1 (Lebedev-50)
Angular grid pruning method      GridPruning ... 4 (adaptive)
Weight generation scheme         WeightScheme... Becke
Basis function cutoff            BFCut       ... 1.0000e-10
Integration weight cutoff        WCut        ... 1.0000e-14
Angular grids for H and He will be reduced by one unit
Partially contracted basis set               ... on
Rotationally invariant grid construction     ... off

Total number of grid points                  ...     2066
Total number of batches                      ...       38
Average number of points per batch           ...       54
Average number of grid points per atom       ...      258

Memory available               ... 31988.4 MB
Memory needed per perturbation ...   0.7 MB
Perturbations treated per batch... 3
Number of batches              ... 1
     CP-SCF ITERATION   0:   1.8522e-01 (   0.1 sec   0/  3 done)
     CP-SCF ITERATION   1:   1.5839e-03 (   0.1 sec   1/  3 done)
     CP-SCF ITERATION   2:   5.3279e-05 (   0.1 sec   3/  3 done)
                    *** THE CP-SCF HAS CONVERGED ***

Forming final perturbed densities           ... done
Transforming perturbed density to AO basis  ... done

Magnetic field perturbation calculated in  1.120 sec

---------------
CHEMICAL SHIFTS
---------------

Note: using conversion factor for au to ppm alpha^2/2 =   26.625677252 
GIAO: Analytic para- and diamagnetic shielding integrals (SHARK)       ...done
 --------------
 Nucleus   2H :
 --------------

Diamagnetic contribution to the shielding tensor (ppm) : 
            29.571         -1.570         5.294
            -0.794         27.076        -3.057
             2.850         -3.031        37.234

Paramagnetic contribution to the shielding tensor (ppm): 
             2.275          0.360        -0.942
            -0.089          0.292         1.322
             0.325          1.299        -4.109

Total shielding tensor (ppm): 
            31.847         -1.209         4.352
            -0.883         27.368        -1.735
             3.175         -1.732        33.126


 Diagonalized sT*s matrix:
 
 sDSO            26.234           28.694           38.954  iso=      31.294
 sPSO             0.653            0.030           -2.224  iso=      -0.514
        ---------------  ---------------  ---------------
 Total           26.886           28.724           36.730  iso=      30.780

 --------------
 Nucleus   3H :
 --------------

Diamagnetic contribution to the shielding tensor (ppm) : 
            29.398         -4.041        -4.117
            -2.071         32.070         5.899
            -2.110          5.900        32.289

Paramagnetic contribution to the shielding tensor (ppm): 
             2.450          0.877         0.893
            -0.236         -1.884        -2.541
            -0.240         -2.541        -1.979

Total shielding tensor (ppm): 
            31.847         -3.164        -3.224
            -2.307         30.185         3.359
            -2.350          3.359        30.310


 Diagonalized sT*s matrix:
 
 sDSO            26.278           28.468           39.009  iso=      31.252
 sPSO             0.610            0.256           -2.279  iso=      -0.471
        ---------------  ---------------  ---------------
 Total           26.888           28.725           36.730  iso=      30.781

 --------------
 Nucleus   4H :
 --------------

Diamagnetic contribution to the shielding tensor (ppm) : 
            29.571          5.322        -1.472
             2.864         37.343        -2.842
            -0.742         -2.866        26.967

Paramagnetic contribution to the shielding tensor (ppm): 
             2.275         -0.949         0.343
             0.327         -4.156         1.217
            -0.082          1.239         0.339

Total shielding tensor (ppm): 
            31.846          4.373        -1.129
             3.191         33.188        -1.625
            -0.824         -1.627        27.306


 Diagonalized sT*s matrix:
 
 sDSO            26.233           28.694           38.954  iso=      31.294
 sPSO             0.653            0.030           -2.224  iso=      -0.514
        ---------------  ---------------  ---------------
 Total           26.886           28.724           36.730  iso=      30.780

 --------------
 Nucleus   5H :
 --------------

Diamagnetic contribution to the shielding tensor (ppm) : 
            29.453          5.528        -1.329
             6.904         31.685        -2.419
            -1.782         -2.397        23.035

Paramagnetic contribution to the shielding tensor (ppm): 
             2.394         -1.154         0.200
            -3.714          1.500         0.795
             0.956          0.770         4.270

Total shielding tensor (ppm): 
            31.846          4.374        -1.128
             3.190         33.186        -1.624
            -0.826         -1.627        27.305


 Diagonalized sT*s matrix:
 
 sDSO            22.409           24.318           37.445  iso=      28.058
 sPSO             4.476            4.404           -0.716  iso=       2.721
        ---------------  ---------------  ---------------
 Total           26.885           28.722           36.729  iso=      30.779

 --------------
 Nucleus   6H :
 --------------

Diamagnetic contribution to the shielding tensor (ppm) : 
            29.635         -3.812        -3.883
            -4.995         27.248         4.969
            -5.090          4.969        27.432

Paramagnetic contribution to the shielding tensor (ppm): 
             2.213          0.648         0.659
             2.689          2.935        -1.611
             2.740         -1.611         2.875

Total shielding tensor (ppm): 
            31.848         -3.164        -3.223
            -2.306         30.183         3.358
            -2.350          3.358        30.307


 Diagonalized sT*s matrix:
 
 sDSO            22.370           24.548           37.396  iso=      28.105
 sPSO             4.516            4.176           -0.669  iso=       2.675
        ---------------  ---------------  ---------------
 Total           26.886           28.725           36.727  iso=      30.779

 --------------
 Nucleus   7H :
 --------------

Diamagnetic contribution to the shielding tensor (ppm) : 
            29.452         -1.431         5.503
            -1.910         23.127        -2.555
             6.870         -2.578        31.593

Paramagnetic contribution to the shielding tensor (ppm): 
             2.394          0.222        -1.151
             1.025          4.240         0.821
            -3.695          0.847         1.530

Total shielding tensor (ppm): 
            31.846         -1.209         4.352
            -0.885         27.367        -1.734
             3.174         -1.732        33.124


 Diagonalized sT*s matrix:
 
 sDSO            22.409           24.318           37.445  iso=      28.058
 sPSO             4.476            4.405           -0.716  iso=       2.722
        ---------------  ---------------  ---------------
 Total           26.886           28.722           36.729  iso=      30.779

 --------------
 Nucleus   0C :
 --------------

Diamagnetic contribution to the shielding tensor (ppm) : 
           252.548         -0.184        -0.187
            -0.005        241.923         0.007
            -0.006          0.008       241.924

Paramagnetic contribution to the shielding tensor (ppm): 
           -67.617          0.180         0.184
            -0.009        -72.378        -0.021
            -0.009         -0.022       -72.379

Total shielding tensor (ppm): 
           184.931         -0.004        -0.003
            -0.014        169.546        -0.013
            -0.015         -0.014       169.546


 Diagonalized sT*s matrix:
 
 sDSO           241.931          241.916          252.548  iso=     245.465
 sPSO           -72.399          -72.357          -67.618  iso=     -70.791
        ---------------  ---------------  ---------------
 Total          169.532          169.559          184.931  iso=     174.674

 --------------
 Nucleus   1C :
 --------------

Diamagnetic contribution to the shielding tensor (ppm) : 
           252.549          0.173         0.177
            -0.010        232.951        -0.015
            -0.012         -0.012       232.952

Paramagnetic contribution to the shielding tensor (ppm): 
           -67.620         -0.177        -0.180
             0.015        -63.427        -0.015
             0.019         -0.019       -63.427

Total shielding tensor (ppm): 
           184.929         -0.003        -0.003
             0.005        169.523        -0.030
             0.006         -0.030       169.525


 Diagonalized sT*s matrix:
 
 sDSO           232.938          232.964          252.549  iso=     239.484
 sPSO           -63.444          -63.410          -67.620  iso=     -64.825
        ---------------  ---------------  ---------------
 Total          169.494          169.554          184.929  iso=     174.659



--------------------------------
CHEMICAL SHIELDING SUMMARY (ppm)
--------------------------------


  Nucleus  Element    Isotropic     Anisotropy
  -------  -------  ------------   ------------
      2       H           30.780          8.925 
      3       H           30.781          8.923 
      4       H           30.780          8.925 
      5       H           30.779          8.925 
      6       H           30.779          8.922 
      7       H           30.779          8.925 
      0       C          174.674         15.385 
      1       C          174.659         15.405 



Maximum memory used throughout the entire EPRNMR-calculation: 16.3 MB

Timings for individual modules:

Sum of individual times         ...        4.215 sec (=   0.070 min)
GTO integral calculation        ...        0.343 sec (=   0.006 min)   8.1 %
SCF iterations                  ...        2.391 sec (=   0.040 min)  56.7 %
EPR/NMR calculation             ...        1.482 sec (=   0.025 min)  35.1 %
                             ****ORCA TERMINATED NORMALLY****
TOTAL RUN TIME: 0 days 0 hours 0 minutes 4 seconds 544 msec
