9
Coordinates from ORCA-job opt
  C   1.12584990205013     -0.01367535204505      0.03850131466136
  O   0.47077429108354     -0.39575783537859     -0.90691325779193
  N   2.48016131794821      0.00891455267577      0.09075350023195
  C   3.25623857996715      0.46977767048473      1.22197478437585
  H   0.66505340647689      0.36194330878815      0.97077790590512
  H   2.95780453164866     -0.32472494842036     -0.73253286960676
  H   2.57425830675265      0.79029114433336      2.00840793419648
  H   3.88817222495313      1.31902733855907      0.95507988996955
  H   3.88858743911965     -0.32385587899708      1.62461079805837
