9
Coordinates from ORCA-job opt
  C   1.53667122635831      0.19803038411495     -0.51050044487897
  O   1.97285193436890      1.11642961904800     -1.17222913680798
  N   2.03653234016450     -0.21581770514209      0.67901054276422
  C   3.19084840621639      0.39963655776273      1.30712435483816
  H   0.66105887845276     -0.39793126352831     -0.82336135944775
  H   1.59889365257402     -1.00549837683286      1.12096076973093
  H   3.04042851036825      0.46256917308995      2.38406439628214
  H   4.10696221574467     -0.16179703815399      1.10979894644023
  H   3.30725283575187      1.40069864964158      0.90015193107892
