9
Coordinates from ORCA-job opt
  C   1.28241396128180      0.29763359048578     -0.24048629924268
  O   1.04458239677667      1.48637032167164     -0.19871268176103
  N   2.30222168974916     -0.32473586955277      0.40063590254114
  C   3.26160321297413      0.37404678697604      1.23483428166704
  H   0.66718449265956     -0.41092539988928     -0.82267051978167
  H   2.39201227443012     -1.31840971027033      0.27656542987040
  H   2.94028263612077      1.40897925903237      1.31387167432051
  H   3.29950857188987     -0.06454322986223      2.23276974933935
  H   4.26169076411776      0.34790425140876      0.79821246304689
