9
Coordinates from ORCA-job opt
  C   1.60082276330508      0.11314123609973     -0.55055404543021
  O   2.21587747781824      0.82998525471441     -1.31245139906576
  N   1.97190996358069     -0.14848896631441      0.72355224615508
  C   3.17015876419390      0.42723850559163      1.30841300584029
  H   0.66496517855769     -0.40045810795171     -0.83401386724322
  H   1.38844672174275     -0.75054415512679      1.27687804259978
  H   3.25736451685355      0.09010106314059      2.33841895894117
  H   4.05727368018448      0.11890442857668      0.75448153482106
  H   3.12468093376328      1.51644074126982      1.29029552338171
