9
Coordinates from ORCA-job opt
  C   1.55463818778819      0.17666321509757     -0.52266143779533
  O   2.04468574786342      1.04290855864302     -1.21651926511996
  N   2.01492812295194     -0.19621643506582      0.69507680853920
  C   3.18504563609922      0.40669279040573      1.30678398586868
  H   0.66000867820046     -0.39593276018494     -0.82542554685505
  H   1.54208122708532     -0.94637050756191      1.16801581718326
  H   3.09539161567673      0.35861839727539      2.39038458843549
  H   4.10615715979540     -0.09668182636261      1.00406547593561
  H   3.24856362453898      1.44663856775353      0.99529957380802
