9
Coordinates from ORCA-job opt
  C   1.51517474022542      0.22010146890661     -0.49478509749186
  O   1.88440188115107      1.19725313475761     -1.11141035191293
  N   2.06919561844547     -0.24340336748301      0.65253845699538
  C   3.19797197205780      0.39241229504468      1.30557077171933
  H   0.66318622842269     -0.40166399358219     -0.82213399481409
  H   1.66134455034214     -1.06369840560278      1.06674579109283
  H   2.97817014829227      0.58219614601154      2.35656470842666
  H   4.09650926579372     -0.22433288013300      1.23872243025871
  H   3.38554559526911      1.33745560208049      0.80320728572589
