
                                 *****************
                                 * O   R   C   A *
                                 *****************

                                            #,                                       
                                            ###                                      
                                            ####                                     
                                            #####                                    
                                            ######                                   
                                           ########,                                 
                                     ,,################,,,,,                         
                               ,,#################################,,                 
                          ,,##########################################,,             
                       ,#########################################, ''#####,          
                    ,#############################################,,   '####,        
                  ,##################################################,,,,####,       
                ,###########''''           ''''###############################       
              ,#####''   ,,,,##########,,,,          '''####'''          '####       
            ,##' ,,,,###########################,,,                        '##       
           ' ,,###''''                  '''############,,,                           
         ,,##''                                '''############,,,,        ,,,,,,###''
      ,#''                                            '''#######################'''  
     '                                                          ''''####''''         
             ,#######,   #######,   ,#######,      ##                                
            ,#'     '#,  ##    ##  ,#'     '#,    #''#        ######   ,####,        
            ##       ##  ##   ,#'  ##            #'  '#       #        #'  '#        
            ##       ##  #######   ##           ,######,      #####,   #    #        
            '#,     ,#'  ##    ##  '#,     ,#' ,#      #,         ##   #,  ,#        
             '#######'   ##     ##  '#######'  #'      '#     #####' # '####'        



                  #######################################################
                  #                        -***-                        #
                  #          Department of theory and spectroscopy      #
                  #    Directorship and core code : Frank Neese         #
                  #        Max Planck Institute fuer Kohlenforschung    #
                  #                Kaiser Wilhelm Platz 1               #
                  #                 D-45470 Muelheim/Ruhr               #
                  #                      Germany                        #
                  #                                                     #
                  #                  All rights reserved                #
                  #                        -***-                        #
                  #######################################################


                         Program Version 5.0.3 -  RELEASE  -


 With contributions from (in alphabetic order):
   Daniel Aravena         : Magnetic Suceptibility
   Michael Atanasov       : Ab Initio Ligand Field Theory (pilot matlab implementation)
   Alexander A. Auer      : GIAO ZORA, VPT2 properties, NMR spectrum
   Ute Becker             : Parallelization
   Giovanni Bistoni       : ED, misc. LED, open-shell LED, HFLD
   Martin Brehm           : Molecular dynamics
   Dmytro Bykov           : SCF Hessian
   Vijay G. Chilkuri      : MRCI spin determinant printing, contributions to CSF-ICE
   Dipayan Datta          : RHF DLPNO-CCSD density
   Achintya Kumar Dutta   : EOM-CC, STEOM-CC
   Dmitry Ganyushin       : Spin-Orbit,Spin-Spin,Magnetic field MRCI
   Miquel Garcia          : C-PCM and meta-GGA Hessian, CC/C-PCM, Gaussian charge scheme
   Yang Guo               : DLPNO-NEVPT2, F12-NEVPT2, CIM, IAO-localization
   Andreas Hansen         : Spin unrestricted coupled pair/coupled cluster methods
   Benjamin Helmich-Paris : MC-RPA, TRAH-SCF, COSX integrals
   Lee Huntington         : MR-EOM, pCC
   Robert Izsak           : Overlap fitted RIJCOSX, COSX-SCS-MP3, EOM
   Marcus Kettner         : VPT2
   Christian Kollmar      : KDIIS, OOCD, Brueckner-CCSD(T), CCSD density, CASPT2, CASPT2-K
   Simone Kossmann        : Meta GGA functionals, TD-DFT gradient, OOMP2, MP2 Hessian
   Martin Krupicka        : Initial AUTO-CI
   Lucas Lang             : DCDCAS
   Marvin Lechner         : AUTO-CI (C++ implementation), FIC-MRCC
   Dagmar Lenk            : GEPOL surface, SMD
   Dimitrios Liakos       : Extrapolation schemes; Compound Job, initial MDCI parallelization
   Dimitrios Manganas     : Further ROCIS development; embedding schemes
   Dimitrios Pantazis     : SARC Basis sets
   Anastasios Papadopoulos: AUTO-CI, single reference methods and gradients
   Taras Petrenko         : DFT Hessian,TD-DFT gradient, ASA, ECA, R-Raman, ABS, FL, XAS/XES, NRVS
   Peter Pinski           : DLPNO-MP2, DLPNO-MP2 Gradient
   Christoph Reimann      : Effective Core Potentials
   Marius Retegan         : Local ZFS, SOC
   Christoph Riplinger    : Optimizer, TS searches, QM/MM, DLPNO-CCSD(T), (RO)-DLPNO pert. Triples
   Tobias Risthaus        : Range-separated hybrids, TD-DFT gradient, RPA, STAB
   Michael Roemelt        : Original ROCIS implementation
   Masaaki Saitow         : Open-shell DLPNO-CCSD energy and density
   Barbara Sandhoefer     : DKH picture change effects
   Avijit Sen             : IP-ROCIS
   Kantharuban Sivalingam : CASSCF convergence, NEVPT2, FIC-MRCI
   Bernardo de Souza      : ESD, SOC TD-DFT
   Georgi Stoychev        : AutoAux, RI-MP2 NMR, DLPNO-MP2 response
   Willem Van den Heuvel  : Paramagnetic NMR
   Boris Wezisla          : Elementary symmetry handling
   Frank Wennmohs         : Technical directorship


 We gratefully acknowledge several colleagues who have allowed us to
 interface, adapt or use parts of their codes:
   Stefan Grimme, W. Hujo, H. Kruse, P. Pracht,  : VdW corrections, initial TS optimization,
                  C. Bannwarth, S. Ehlert          DFT functionals, gCP, sTDA/sTD-DF
   Ed Valeev, F. Pavosevic, A. Kumar             : LibInt (2-el integral package), F12 methods
   Garnet Chan, S. Sharma, J. Yang, R. Olivares  : DMRG
   Ulf Ekstrom                                   : XCFun DFT Library
   Mihaly Kallay                                 : mrcc  (arbitrary order and MRCC methods)
   Jiri Pittner, Ondrej Demel                    : Mk-CCSD
   Frank Weinhold                                : gennbo (NPA and NBO analysis)
   Christopher J. Cramer and Donald G. Truhlar   : smd solvation model
   Lars Goerigk                                  : TD-DFT with DH, B97 family of functionals
   V. Asgeirsson, H. Jonsson                     : NEB implementation
   FAccTs GmbH                                   : IRC, NEB, NEB-TS, DLPNO-Multilevel, CI-OPT
                                                   MM, QMMM, 2- and 3-layer-ONIOM, Crystal-QMMM,
                                                   LR-CPCM, SF, NACMEs, symmetry and pop. for TD-DFT,
                                                   nearIR, NL-DFT gradient (VV10), updates on ESD,
                                                   ML-optimized integration grids
   S Lehtola, MJT Oliveira, MAL Marques          : LibXC Library
   Liviu Ungur et al                             : ANISO software


 Your calculation uses the libint2 library for the computation of 2-el integrals
 For citations please refer to: http://libint.valeyev.net

 Your ORCA version has been built with support for libXC version: 5.1.0
 For citations please refer to: https://tddft.org/programs/libxc/

 This ORCA versions uses:
   CBLAS   interface :  Fast vector & matrix operations
   LAPACKE interface :  Fast linear algebra routines
   SCALAPACK package :  Parallel linear algebra routines
   Shared memory     :  Shared parallel matrices
   BLAS/LAPACK       :  OpenBLAS 0.3.15  USE64BITINT DYNAMIC_ARCH NO_AFFINITY Zen SINGLE_THREADED
        Core in use  :  Zen
   Copyright (c) 2011-2014, The OpenBLAS Project




***************************************
The coordinates will be read from file: geom.xyz
***************************************



Warning: The global flag for chemical shieldings has been found
         but shieldings for certain elements have also been explicitly requested in the EPRNMR block
         ==>> only the requested shieldings will be calculated

================================================================================

----- Orbital basis set information -----
Your calculation utilizes the basis: def2-TZVPP
   F. Weigend and R. Ahlrichs, Phys. Chem. Chem. Phys. 7, 3297 (2005).

----- AuxJ basis set information -----
Your calculation utilizes the auxiliary basis: def2/J
   F. Weigend, Phys. Chem. Chem. Phys. 8, 1057 (2006).

================================================================================
                                        WARNINGS
                       Please study these warnings very carefully!
================================================================================

WARNING: Old DensityContainer found on disk!
         Will remove this file - 
         If you want to keep old densities, please start your calculation with a different basename. 


INFO   : the flag for use of the SHARK integral package has been found!

================================================================================
                                       INPUT FILE
================================================================================
NAME = nmr.com
|  1> ! B3LYP def2-TZVPP def2/J RIJCOSX NMR CPCM(DMSO)
|  2> 
|  3> * xyzFILE 0 1 geom.xyz
|  4> 
|  5> %MaxCore 32000
|  6> 
|  7> %pal nprocs 8
|  8> end
|  9> 
| 10> %EPRNMR
| 11>      NUCLEI = ALL {SHIFT}
| 12> END
| 13> 
| 14>                          ****END OF INPUT****
================================================================================

                       ****************************
                       * Single Point Calculation *
                       ****************************

---------------------------------
CARTESIAN COORDINATES (ANGSTROEM)
---------------------------------
  C      1.125850   -0.013675    0.038501
  O      0.470774   -0.395758   -0.906913
  N      2.480161    0.008915    0.090754
  C      3.256239    0.469778    1.221975
  H      0.665053    0.361943    0.970778
  H      2.957805   -0.324725   -0.732533
  H      2.574258    0.790291    2.008408
  H      3.888172    1.319027    0.955080
  H      3.888587   -0.323856    1.624611

----------------------------
CARTESIAN COORDINATES (A.U.)
----------------------------
  NO LB      ZA    FRAG     MASS         X           Y           Z
   0 C     6.0000    0    12.011    2.127548   -0.025843    0.072757
   1 O     8.0000    0    15.999    0.889634   -0.747874   -1.713818
   2 N     7.0000    0    14.007    4.686826    0.016846    0.171499
   3 C     6.0000    0    12.011    6.153399    0.887751    2.309198
   4 H     1.0000    0     1.008    1.256769    0.683974    1.834504
   5 H     1.0000    0     1.008    5.589441   -0.613641   -1.384287
   6 H     1.0000    0     1.008    4.864643    1.493434    3.795341
   7 H     1.0000    0     1.008    7.347581    2.492600    1.804839
   8 H     1.0000    0     1.008    7.348365   -0.611999    3.070069

--------------------------------
INTERNAL COORDINATES (ANGSTROEM)
--------------------------------
 C      0   0   0     0.000000000000     0.00000000     0.00000000
 O      1   0   0     1.211990013969     0.00000000     0.00000000
 N      1   2   0     1.355507287300   125.12360575     0.00000000
 C      3   1   2     1.447187729246   124.83615492   179.83462778
 H      1   2   3     1.105695451415   122.65311650   179.99530498
 H      3   1   2     1.008592486115   115.86025508   359.87792224
 H      4   3   1     1.089175412461   108.80402716   359.93181631
 H      4   3   1     1.091695019247   111.53388514   240.82291234
 H      4   3   1     1.091711981270   111.55558503   119.07289326

---------------------------
INTERNAL COORDINATES (A.U.)
---------------------------
 C      0   0   0     0.000000000000     0.00000000     0.00000000
 O      1   0   0     2.290329203449     0.00000000     0.00000000
 N      1   2   0     2.561537545532   125.12360575     0.00000000
 C      3   1   2     2.734788472646   124.83615492   179.83462778
 H      1   2   3     2.089461590697   122.65311650   179.99530498
 H      3   1   2     1.905963579488   115.86025508   359.87792224
 H      4   3   1     2.058243241352   108.80402716   359.93181631
 H      4   3   1     2.063004608144   111.53388514   240.82291234
 H      4   3   1     2.063036661721   111.55558503   119.07289326

---------------------
BASIS SET INFORMATION
---------------------
There are 4 groups of distinct atoms

 Group   1 Type C   : 11s6p2d1f contracted to 5s3p2d1f pattern {62111/411/11/1}
 Group   2 Type O   : 11s6p2d1f contracted to 5s3p2d1f pattern {62111/411/11/1}
 Group   3 Type N   : 11s6p2d1f contracted to 5s3p2d1f pattern {62111/411/11/1}
 Group   4 Type H   : 5s2p1d contracted to 3s2p1d pattern {311/11/1}

Atom   0C    basis set group =>   1
Atom   1O    basis set group =>   2
Atom   2N    basis set group =>   3
Atom   3C    basis set group =>   1
Atom   4H    basis set group =>   4
Atom   5H    basis set group =>   4
Atom   6H    basis set group =>   4
Atom   7H    basis set group =>   4
Atom   8H    basis set group =>   4
---------------------------------
AUXILIARY/J BASIS SET INFORMATION
---------------------------------
There are 4 groups of distinct atoms

 Group   1 Type C   : 12s5p4d2f1g contracted to 6s4p3d1f1g pattern {711111/2111/211/2/1}
 Group   2 Type O   : 12s5p4d2f1g contracted to 6s4p3d1f1g pattern {711111/2111/211/2/1}
 Group   3 Type N   : 12s5p4d2f1g contracted to 6s4p3d1f1g pattern {711111/2111/211/2/1}
 Group   4 Type H   : 5s2p1d contracted to 3s1p1d pattern {311/2/1}

Atom   0C    basis set group =>   1
Atom   1O    basis set group =>   2
Atom   2N    basis set group =>   3
Atom   3C    basis set group =>   1
Atom   4H    basis set group =>   4
Atom   5H    basis set group =>   4
Atom   6H    basis set group =>   4
Atom   7H    basis set group =>   4
Atom   8H    basis set group =>   4

Checking for AutoStart:
The File: nmr.gbw exists
Trying to determine its content:
     ... Fine, the file contains calculation information
     ... Fine, the calculation information was read
     ... Fine, the file contains a basis set
     ... Fine, the basis set was read
     ... Fine, the file contains a geometry
     ... Fine, the geometry was read
     ... Fine, the file contains a set of orbitals
     ... Fine, the orbitals can be read
     => possible old guess file was deleted
     => GBW file was renamed to GES file
     => GES file is set as startup file
     => Guess is set to MORead
     ... now leaving AutoStart



           ************************************************************
           *        Program running with 8 parallel MPI-processes     *
           *              working on a common directory               *
           ************************************************************
------------------------------------------------------------------------------
                           ORCA GTO INTEGRAL CALCULATION
                           -- RI-GTO INTEGRALS CHOSEN --
------------------------------------------------------------------------------
------------------------------------------------------------------------------
                   ___                                                        
                  /   \      - P O W E R E D   B Y -                         
                 /     \                                                     
                 |  |  |   _    _      __       _____    __    __             
                 |  |  |  | |  | |    /  \     |  _  \  |  |  /  |          
                  \  \/   | |  | |   /    \    | | | |  |  | /  /          
                 / \  \   | |__| |  /  /\  \   | |_| |  |  |/  /          
                |  |  |   |  __  | /  /__\  \  |    /   |      \           
                |  |  |   | |  | | |   __   |  |    \   |  |\   \          
                \     /   | |  | | |  |  |  |  | |\  \  |  | \   \       
                 \___/    |_|  |_| |__|  |__|  |_| \__\ |__|  \__/        
                                                                              
                      - O R C A' S   B I G   F R I E N D -                    
                                      &                                       
                       - I N T E G R A L  F E E D E R -                       
                                                                              
 v1 FN, 2020, v2 2021                                                         
------------------------------------------------------------------------------


Reading SHARK input file nmr.SHARKINP.tmp ... ok
----------------------
SHARK INTEGRAL PACKAGE
----------------------

Number of atoms                             ...      9
Number of basis functions                   ...    194
Number of shells                            ...     74
Maximum angular momentum                    ...      3
Integral batch strategy                     ... SHARK/LIBINT Hybrid
RI-J (if used) integral strategy            ... SPLIT-RIJ (Revised 2003 algorithm where possible)
Printlevel                                  ...      1
Contraction scheme used                     ... SEGMENTED contraction
Coulomb Range Separation                    ... NOT USED
Exchange Range Separation                   ... NOT USED
Finite Nucleus Model                        ... NOT USED
Auxiliary Coulomb fitting basis             ... AVAILABLE
   # of basis functions in Aux-J            ...    251
   # of shells in Aux-J                     ...     85
   Maximum angular momentum in Aux-J        ...      4
Auxiliary J/K fitting basis                 ... NOT available
Auxiliary Correlation fitting basis         ... NOT available
Auxiliary 'external' fitting basis          ... NOT available
Integral threshold                          ...     1.000000e-10
Primitive cut-off                           ...     1.000000e-11
Primitive pair pre-selection threshold      ...     1.000000e-11

Calculating pre-screening integrals         ... done (  0.0 sec) Dimension = 74
Organizing shell pair data                  ... done (  0.0 sec)
Shell pair information
Total number of shell pairs                 ...      2775
Shell pairs after pre-screening             ...      2672
Total number of primitive shell pairs       ...      7363
Primitive shell pairs kept                  ...      5914
          la=0 lb=0:    596 shell pairs
          la=1 lb=0:    746 shell pairs
          la=1 lb=1:    250 shell pairs
          la=2 lb=0:    435 shell pairs
          la=2 lb=1:    280 shell pairs
          la=2 lb=2:     87 shell pairs
          la=3 lb=0:    133 shell pairs
          la=3 lb=1:     85 shell pairs
          la=3 lb=2:     50 shell pairs
          la=3 lb=3:     10 shell pairs

Calculating one electron integrals          ... done (  0.0 sec)
Calculating RI/J V-Matrix + Cholesky decomp.... done (  0.0 sec)
Calculating Nuclear repulsion               ... done (  0.0 sec) ENN=    119.416721248389 Eh

SHARK setup successfully completed in   0.1 seconds

Maximum memory used throughout the entire GTOINT-calculation: 16.2 MB


           ************************************************************
           *        Program running with 8 parallel MPI-processes     *
           *              working on a common directory               *
           ************************************************************
-------------------------------------------------------------------------------
                                 ORCA SCF
-------------------------------------------------------------------------------

------------
SCF SETTINGS
------------
Hamiltonian:
 Density Functional     Method          .... DFT(GTOs)
 Exchange Functional    Exchange        .... B88
   X-Alpha parameter    XAlpha          ....  0.666667
   Becke's b parameter  XBeta           ....  0.004200
 Correlation Functional Correlation     .... LYP
 LDA part of GGA corr.  LDAOpt          .... VWN-5
 Gradients option       PostSCFGGA      .... off
 Hybrid DFT is turned on
   Fraction HF Exchange ScalHFX         ....  0.200000
   Scaling of DF-GGA-X  ScalDFX         ....  0.720000
   Scaling of DF-GGA-C  ScalDFC         ....  0.810000
   Scaling of DF-LDA-C  ScalLDAC        ....  1.000000
   Perturbative correction              ....  0.000000
   Density functional embedding theory  .... OFF
   NL short-range parameter             ....  4.800000
 RI-approximation to the Coulomb term is turned on
   Number of AuxJ basis functions       .... 251
   RIJ-COSX (HFX calculated with COS-X)).... on


General Settings:
 Integral files         IntName         .... nmr
 Hartree-Fock type      HFTyp           .... RHF
 Total Charge           Charge          ....    0
 Multiplicity           Mult            ....    1
 Number of Electrons    NEL             ....   32
 Basis Dimension        Dim             ....  194
 Nuclear Repulsion      ENuc            ....    119.4167212484 Eh

Convergence Acceleration:
 DIIS                   CNVDIIS         .... on
   Start iteration      DIISMaxIt       ....    12
   Startup error        DIISStart       ....  0.200000
   # of expansion vecs  DIISMaxEq       ....     5
   Bias factor          DIISBfac        ....   1.050
   Max. coefficient     DIISMaxC        ....  10.000
 Trust-Rad. Augm. Hess. CNVTRAH         .... auto
   Auto Start mean grad. ratio tolernc. ....  1.125000
   Auto Start start iteration           ....     1
   Auto Start num. interpolation iter.  ....    10
   Max. Number of Micro iterations      ....    16
   Max. Number of Macro iterations      .... Maxiter - #DIIS iter
   Number of Davidson start vectors     ....     2
   Converg. threshold I  (grad. norm)   ....   5.000e-05
   Converg. threshold II (energy diff.) ....   1.000e-06
   Grad. Scal. Fac. for Micro threshold ....   0.100
   Minimum threshold for Micro iter.    ....   0.010
   NR start threshold (gradient norm)   ....   0.001
   Initial trust radius                 ....   0.400
   Minimum AH scaling param. (alpha)    ....   1.000
   Maximum AH scaling param. (alpha)    .... 1000.000
   Orbital update algorithm             .... Taylor
   White noise on init. David. guess    .... on
   Maximum white noise                  ....   0.010
   Quad. conv. algorithm                .... NR
 SOSCF                  CNVSOSCF        .... on
   Start iteration      SOSCFMaxIt      ....   150
   Startup grad/error   SOSCFStart      ....  0.003300
 Level Shifting         CNVShift        .... on
   Level shift para.    LevelShift      ....    0.2500
   Turn off err/grad.   ShiftErr        ....    0.0010
 Zerner damping         CNVZerner       .... off
 Static damping         CNVDamp         .... on
   Fraction old density DampFac         ....    0.7000
   Max. Damping (<1)    DampMax         ....    0.9800
   Min. Damping (>=0)   DampMin         ....    0.0000
   Turn off err/grad.   DampErr         ....    0.1000
 Fernandez-Rico         CNVRico         .... off

SCF Procedure:
 Maximum # iterations   MaxIter         ....   125
 SCF integral mode      SCFMode         .... Direct
   Integral package                     .... SHARK and LIBINT hybrid scheme
 Reset frequency        DirectResetFreq ....    20
 Integral Threshold     Thresh          ....  1.000e-10 Eh
 Primitive CutOff       TCut            ....  1.000e-11 Eh

Convergence Tolerance:
 Convergence Check Mode ConvCheckMode   .... Total+1el-Energy
 Convergence forced     ConvForced      .... 0
 Energy Change          TolE            ....  1.000e-06 Eh
 1-El. energy change                    ....  1.000e-03 Eh
 Orbital Gradient       TolG            ....  5.000e-05
 Orbital Rotation angle TolX            ....  5.000e-05
 DIIS Error             TolErr          ....  1.000e-06


Diagonalization of the overlap matrix:
Smallest eigenvalue                        ... 4.522e-04
Time for diagonalization                   ...    0.004 sec
Threshold for overlap eigenvalues          ... 1.000e-08
Number of eigenvalues below threshold      ... 0
Time for construction of square roots      ...    0.003 sec
Total time needed                          ...    0.007 sec

---------------------
INITIAL GUESS: MOREAD
---------------------
Guess MOs are being read from file: nmr.ges
Input Geometry matches current geometry (good)
Input basis set matches current basis set (good)
MOs were renormalized
MOs were reorthogonalized (Cholesky)
                      ------------------
                      INITIAL GUESS DONE (   0.0 sec)
                      ------------------
-------------------
DFT GRID GENERATION
-------------------

General Integration Accuracy     IntAcc      ... 4.388
Radial Grid Type                 RadialGrid  ... OptM3 with GC (2021)
Angular Grid (max. ang.)         AngularGrid ... 4 (Lebedev-302)
Angular grid pruning method      GridPruning ... 4 (adaptive)
Weight generation scheme         WeightScheme... Becke
Basis function cutoff            BFCut       ... 1.0000e-10
Integration weight cutoff        WCut        ... 1.0000e-14
Angular grids for H and He will be reduced by one unit
Partially contracted basis set               ... off
Rotationally invariant grid construction     ... off

Total number of grid points                  ...    40586
Total number of batches                      ...      639
Average number of points per batch           ...       63
Average number of grid points per atom       ...     4510
Time for grid setup =    0.170 sec

--------------------
COSX GRID GENERATION
--------------------

GRIDX 1
-------
General Integration Accuracy     IntAcc      ... 3.816
Radial Grid Type                 RadialGrid  ... OptM3 with GC (2021)
Angular Grid (max. ang.)         AngularGrid ... 1 (Lebedev-50)
Angular grid pruning method      GridPruning ... 4 (adaptive)
Weight generation scheme         WeightScheme... Becke
Basis function cutoff            BFCut       ... 1.0000e-10
Integration weight cutoff        WCut        ... 1.0000e-14
Angular grids for H and He will be reduced by one unit
Partially contracted basis set               ... on
Rotationally invariant grid construction     ... off

Total number of grid points                  ...     5224
Total number of batches                      ...       87
Average number of points per batch           ...       60
Average number of grid points per atom       ...      580
UseSFitting                                  ... on

GRIDX 2
-------
General Integration Accuracy     IntAcc      ... 4.020
Radial Grid Type                 RadialGrid  ... OptM3 with GC (2021)
Angular Grid (max. ang.)         AngularGrid ... 2 (Lebedev-110)
Angular grid pruning method      GridPruning ... 4 (adaptive)
Weight generation scheme         WeightScheme... Becke
Basis function cutoff            BFCut       ... 1.0000e-10
Integration weight cutoff        WCut        ... 1.0000e-14
Angular grids for H and He will be reduced by one unit
Partially contracted basis set               ... on
Rotationally invariant grid construction     ... off

Total number of grid points                  ...    11308
Total number of batches                      ...      181
Average number of points per batch           ...       62
Average number of grid points per atom       ...     1256
UseSFitting                                  ... on

GRIDX 3
-------
General Integration Accuracy     IntAcc      ... 4.338
Radial Grid Type                 RadialGrid  ... OptM3 with GC (2021)
Angular Grid (max. ang.)         AngularGrid ... 3 (Lebedev-194)
Angular grid pruning method      GridPruning ... 4 (adaptive)
Weight generation scheme         WeightScheme... Becke
Basis function cutoff            BFCut       ... 1.0000e-10
Integration weight cutoff        WCut        ... 1.0000e-14
Angular grids for H and He will be reduced by one unit
Partially contracted basis set               ... on
Rotationally invariant grid construction     ... off

Total number of grid points                  ...    24892
Total number of batches                      ...      393
Average number of points per batch           ...       63
Average number of grid points per atom       ...     2766
UseSFitting                                  ... on

Time for X-Grid setup             =    0.134 sec


--------------------
CPCM SOLVATION MODEL
--------------------
CPCM parameters:
  Epsilon                                         ...      47.2000
  Refrac                                          ...       1.4790
  Rsolv                                           ...       1.3000
  Surface type                                    ... GAUSSIAN VDW
  Epsilon function type                           ...         CPCM
Radii:
 Radius for C  used is    3.8550 Bohr (=   2.0400 Ang.)
 Radius for O  used is    3.4469 Bohr (=   1.8240 Ang.)
 Radius for N  used is    3.5149 Bohr (=   1.8600 Ang.)
 Radius for H  used is    2.4944 Bohr (=   1.3200 Ang.)
Calculating surface                               ...        done! (  0.0s)
GEPOL surface points                              ...          574
GEPOL Volume                                      ...     552.6498
GEPOL Surface-area                                ...     364.4951
Calculating surface distance matrix               ...        done! (  0.0s)
Performing Cholesky decomposition & store         ...        done! (  0.0s)
Overall time for CPCM initialization              ...                 0.0s
--------------
SCF ITERATIONS
--------------
ITER       Energy         Delta-E        Max-DP      RMS-DP      [F,P]     Damp
               ***  Starting incremental Fock matrix formation  ***
  0   -209.1880790090   0.000000000000 0.00733436  0.00016313  0.0134408 0.7000
  1   -209.1887883649  -0.000709355918 0.00687572  0.00016640  0.0088857 0.7000
                               ***Turning on DIIS***
  2   -209.1892952654  -0.000506900494 0.01671578  0.00044603  0.0076174 0.0000
  3   -209.1905022850  -0.001207019560 0.00356154  0.00010394  0.0048697 0.0000
  4   -209.1905286299  -0.000026344927 0.00152420  0.00003720  0.0044854 0.0000
                      *** Initiating the SOSCF procedure ***
                           *** Shutting down DIIS ***
                      *** Re-Reading the Fockian *** 
                      *** Removing any level shift *** 
ITER      Energy       Delta-E        Grad      Rot      Max-DP    RMS-DP
  5   -209.19055985  -0.0000312201  0.000449  0.000449  0.000922  0.000027
               *** Restarting incremental Fock matrix formation ***
  6   -209.19056251  -0.0000026554  0.000089  0.000267  0.000370  0.000009
                 **** Energy Check signals convergence ****
              ***Rediagonalizing the Fockian in SOSCF/NRSCF***

               *****************************************************
               *                     SUCCESS                       *
               *           SCF CONVERGED AFTER   7 CYCLES          *
               *****************************************************

Old exchange energy                            =     -5.397532105 Eh
New exchange energy                            =     -5.397542821 Eh
Exchange energy change after final integration =     -0.000010715 Eh
Total energy after final integration           =   -209.190572979 Eh
Final COS-X integration done in                =     0.577 sec

----------------
TOTAL SCF ENERGY
----------------

Total Energy       :         -209.19057298 Eh           -5692.36489 eV

Components:
Nuclear Repulsion  :          119.41672125 Eh            3249.49419 eV
Electronic Energy  :         -328.60729423 Eh           -8941.85907 eV
One Electron Energy:         -520.01415299 Eh          -14150.30449 eV
Two Electron Energy:          191.40685877 Eh            5208.44542 eV
Max COSX asymmetry :            0.00000089 Eh               0.00002 eV
CPCM Dielectric    :           -0.01657447 Eh              -0.45101 eV

Virial components:
Potential Energy   :         -417.47950475 Eh          -11360.19487 eV
Kinetic Energy     :          208.28893177 Eh            5667.82998 eV
Virial Ratio       :            2.00432880


DFT components:
N(Alpha)           :       15.999995984864 electrons
N(Beta)            :       15.999995984864 electrons
N(Total)           :       31.999991969727 electrons
E(X)               :      -21.474553101852 Eh       
E(C)               :       -1.275059858022 Eh       
E(XC)              :      -22.749612959874 Eh       
DFET-embed. en.    :        0.000000000000 Eh       
CPCM Solvation Model Properties:
Surface-charge          :           -0.01770883
Charge-correction       :           -0.00019178 Eh              -0.00522 eV
Free-energy (cav+disp)  :  This term is not implemented in the current solvation scheme

---------------
SCF CONVERGENCE
---------------

  Last Energy change         ...    2.4158e-07  Tolerance :   1.0000e-06
  Last MAX-Density change    ...    6.6613e-16  Tolerance :   1.0000e-05
  Last RMS-Density change    ...    1.3776e-17  Tolerance :   1.0000e-06
  Last Orbital Gradient      ...    2.0917e-04  Tolerance :   5.0000e-05
  Last Orbital Rotation      ...    3.0603e-04  Tolerance :   5.0000e-05

             **** THE GBW FILE WAS UPDATED (nmr.gbw) ****
             **** DENSITY nmr.scfp WAS UPDATED ****
             **** ENERGY FILE WAS UPDATED (nmr.en.tmp) ****
             **** THE GBW FILE WAS UPDATED (nmr.gbw) ****
             **** DENSITY nmr.scfp WAS UPDATED ****
----------------
ORBITAL ENERGIES
----------------

  NO   OCC          E(Eh)            E(eV) 
   0   2.0000     -19.100104      -519.7403 
   1   2.0000     -14.340868      -390.2349 
   2   2.0000     -10.269473      -279.4466 
   3   2.0000     -10.198461      -277.5142 
   4   2.0000      -1.045342       -28.4452 
   5   2.0000      -0.924842       -25.1662 
   6   2.0000      -0.703797       -19.1513 
   7   2.0000      -0.621858       -16.9216 
   8   2.0000      -0.500576       -13.6214 
   9   2.0000      -0.485369       -13.2076 
  10   2.0000      -0.449656       -12.2358 
  11   2.0000      -0.421690       -11.4748 
  12   2.0000      -0.395036       -10.7495 
  13   2.0000      -0.391890       -10.6639 
  14   2.0000      -0.271936        -7.3998 
  15   2.0000      -0.261244        -7.1088 
  16   0.0000       0.014335         0.3901 
  17   0.0000       0.055208         1.5023 
  18   0.0000       0.070650         1.9225 
  19   0.0000       0.094537         2.5725 
  20   0.0000       0.118562         3.2262 
  21   0.0000       0.124755         3.3948 
  22   0.0000       0.144140         3.9223 
  23   0.0000       0.155250         4.2246 
  24   0.0000       0.182718         4.9720 
  25   0.0000       0.204778         5.5723 
  26   0.0000       0.256341         6.9754 
  27   0.0000       0.277318         7.5462 
  28   0.0000       0.282190         7.6788 
  29   0.0000       0.319091         8.6829 
  30   0.0000       0.365168         9.9367 
  31   0.0000       0.371106        10.0983 
  32   0.0000       0.395674        10.7668 
  33   0.0000       0.400833        10.9072 
  34   0.0000       0.428683        11.6651 
  35   0.0000       0.454785        12.3753 
  36   0.0000       0.455102        12.3840 
  37   0.0000       0.473030        12.8718 
  38   0.0000       0.486729        13.2446 
  39   0.0000       0.513421        13.9709 
  40   0.0000       0.514275        13.9941 
  41   0.0000       0.535637        14.5754 
  42   0.0000       0.557200        15.1622 
  43   0.0000       0.584153        15.8956 
  44   0.0000       0.652012        17.7422 
  45   0.0000       0.677594        18.4383 
  46   0.0000       0.703394        19.1403 
  47   0.0000       0.735016        20.0008 
  48   0.0000       0.759753        20.6739 
  49   0.0000       0.812415        22.1069 
  50   0.0000       0.865385        23.5483 
  51   0.0000       0.905084        24.6286 
  52   0.0000       0.940534        25.5932 
  53   0.0000       0.943519        25.6745 
  54   0.0000       0.956003        26.0142 
  55   0.0000       0.965224        26.2651 
  56   0.0000       1.010853        27.5067 
  57   0.0000       1.044165        28.4132 
  58   0.0000       1.047514        28.5043 
  59   0.0000       1.114816        30.3357 
  60   0.0000       1.139501        31.0074 
  61   0.0000       1.147468        31.2242 
  62   0.0000       1.215025        33.0625 
  63   0.0000       1.232095        33.5270 
  64   0.0000       1.253448        34.1081 
  65   0.0000       1.327995        36.1366 
  66   0.0000       1.367594        37.2141 
  67   0.0000       1.391496        37.8645 
  68   0.0000       1.423746        38.7421 
  69   0.0000       1.432485        38.9799 
  70   0.0000       1.441991        39.2386 
  71   0.0000       1.445684        39.3391 
  72   0.0000       1.489146        40.5217 
  73   0.0000       1.524785        41.4915 
  74   0.0000       1.537498        41.8374 
  75   0.0000       1.575879        42.8818 
  76   0.0000       1.576769        42.9061 
  77   0.0000       1.617032        44.0017 
  78   0.0000       1.725059        46.9412 
  79   0.0000       1.742675        47.4206 
  80   0.0000       1.798572        48.9416 
  81   0.0000       1.901662        51.7469 
  82   0.0000       1.942160        52.8489 
  83   0.0000       2.023303        55.0569 
  84   0.0000       2.033437        55.3326 
  85   0.0000       2.039220        55.4900 
  86   0.0000       2.113072        57.4996 
  87   0.0000       2.223168        60.4955 
  88   0.0000       2.273421        61.8629 
  89   0.0000       2.297918        62.5295 
  90   0.0000       2.409496        65.5657 
  91   0.0000       2.504753        68.1578 
  92   0.0000       2.560533        69.6756 
  93   0.0000       2.577965        70.1500 
  94   0.0000       2.629080        71.5409 
  95   0.0000       2.629434        71.5505 
  96   0.0000       2.701045        73.4992 
  97   0.0000       2.733524        74.3830 
  98   0.0000       2.758101        75.0517 
  99   0.0000       2.793649        76.0191 
 100   0.0000       2.818670        76.6999 
 101   0.0000       2.854052        77.6627 
 102   0.0000       2.877099        78.2898 
 103   0.0000       2.901796        78.9619 
 104   0.0000       2.903990        79.0216 
 105   0.0000       2.922836        79.5344 
 106   0.0000       2.961848        80.5960 
 107   0.0000       2.976852        81.0043 
 108   0.0000       2.999071        81.6089 
 109   0.0000       3.016074        82.0715 
 110   0.0000       3.061229        83.3003 
 111   0.0000       3.158841        85.9564 
 112   0.0000       3.163566        86.0850 
 113   0.0000       3.167764        86.1992 
 114   0.0000       3.260129        88.7126 
 115   0.0000       3.311584        90.1128 
 116   0.0000       3.317075        90.2622 
 117   0.0000       3.336776        90.7983 
 118   0.0000       3.389103        92.2222 
 119   0.0000       3.390294        92.2546 
 120   0.0000       3.400361        92.5285 
 121   0.0000       3.436324        93.5071 
 122   0.0000       3.470563        94.4388 
 123   0.0000       3.500630        95.2570 
 124   0.0000       3.577987        97.3620 
 125   0.0000       3.586065        97.5818 
 126   0.0000       3.628010        98.7232 
 127   0.0000       3.666421        99.7684 
 128   0.0000       3.670016        99.8662 
 129   0.0000       3.727747       101.4371 
 130   0.0000       3.776105       102.7530 
 131   0.0000       3.785147       102.9991 
 132   0.0000       3.817558       103.8810 
 133   0.0000       3.862215       105.0962 
 134   0.0000       3.909745       106.3896 
 135   0.0000       3.982152       108.3599 
 136   0.0000       3.993177       108.6599 
 137   0.0000       4.036129       109.8287 
 138   0.0000       4.071554       110.7926 
 139   0.0000       4.095732       111.4505 
 140   0.0000       4.104688       111.6942 
 141   0.0000       4.106430       111.7416 
 142   0.0000       4.203998       114.3966 
 143   0.0000       4.226392       115.0060 
 144   0.0000       4.264720       116.0489 
 145   0.0000       4.287458       116.6677 
 146   0.0000       4.340080       118.0996 
 147   0.0000       4.397680       119.6670 
 148   0.0000       4.420738       120.2944 
 149   0.0000       4.589368       124.8830 
 150   0.0000       4.600322       125.1811 
 151   0.0000       4.613372       125.5362 
 152   0.0000       4.676959       127.2665 
 153   0.0000       4.698005       127.8392 
 154   0.0000       4.743109       129.0665 
 155   0.0000       4.799812       130.6095 
 156   0.0000       4.844027       131.8127 
 157   0.0000       4.895508       133.2135 
 158   0.0000       4.988639       135.7478 
 159   0.0000       5.055713       137.5729 
 160   0.0000       5.096787       138.6906 
 161   0.0000       5.097226       138.7026 
 162   0.0000       5.120241       139.3288 
 163   0.0000       5.197002       141.4176 
 164   0.0000       5.199050       141.4734 
 165   0.0000       5.270527       143.4183 
 166   0.0000       5.276016       143.5677 
 167   0.0000       5.335938       145.1983 
 168   0.0000       5.350316       145.5895 
 169   0.0000       5.367179       146.0484 
 170   0.0000       5.375081       146.2634 
 171   0.0000       5.459884       148.5710 
 172   0.0000       5.531504       150.5199 
 173   0.0000       5.560900       151.3198 
 174   0.0000       5.591082       152.1411 
 175   0.0000       5.661732       154.0635 
 176   0.0000       5.673759       154.3908 
 177   0.0000       5.780043       157.2830 
 178   0.0000       5.812083       158.1548 
 179   0.0000       6.119685       166.5251 
 180   0.0000       6.175394       168.0410 
 181   0.0000       6.202071       168.7669 
 182   0.0000       6.375078       173.4747 
 183   0.0000       6.416857       174.6116 
 184   0.0000       6.534745       177.8194 
 185   0.0000       6.583906       179.1572 
 186   0.0000       6.799815       185.0324 
 187   0.0000       6.934047       188.6850 
 188   0.0000       7.078163       192.6066 
 189   0.0000       7.157211       194.7576 
 190   0.0000      23.562313       641.1631 
 191   0.0000      23.625518       642.8830 
 192   0.0000      32.856461       894.0698 
 193   0.0000      43.775029      1191.1791 

                    ********************************
                    * MULLIKEN POPULATION ANALYSIS *
                    ********************************

-----------------------
MULLIKEN ATOMIC CHARGES
-----------------------
   0 C :    0.170969
   1 O :   -0.447565
   2 N :   -0.164050
   3 C :   -0.162627
   4 H :    0.078367
   5 H :    0.176601
   6 H :    0.110166
   7 H :    0.119020
   8 H :    0.119118
Sum of atomic charges:   -0.0000000

--------------------------------
MULLIKEN REDUCED ORBITAL CHARGES
--------------------------------
  0 C s       :     3.139138  s :     3.139138
      pz      :     0.879958  p :     2.465708
      px      :     0.800165
      py      :     0.785586
      dz2     :     0.052644  d :     0.204413
      dxz     :     0.051834
      dyz     :     0.026261
      dx2y2   :     0.024490
      dxy     :     0.049184
      f0      :     0.004120  f :     0.019772
      f+1     :     0.002940
      f-1     :     0.001932
      f+2     :     0.004235
      f-2     :     0.001909
      f+3     :     0.001671
      f-3     :     0.002965
  1 O s       :     3.795504  s :     3.795504
      pz      :     1.471991  p :     4.622659
      px      :     1.668341
      py      :     1.482327
      dz2     :     0.007510  d :     0.027683
      dxz     :     0.007009
      dyz     :     0.006063
      dx2y2   :     0.003322
      dxy     :     0.003778
      f0      :     0.000327  f :     0.001719
      f+1     :     0.000395
      f-1     :     0.000165
      f+2     :     0.000324
      f-2     :     0.000339
      f+3     :     0.000095
      f-3     :     0.000074
  2 N s       :     3.436496  s :     3.436496
      pz      :     1.138754  p :     3.672364
      px      :     1.032257
      py      :     1.501353
      dz2     :     0.010585  d :     0.051678
      dxz     :     0.015953
      dyz     :     0.005658
      dx2y2   :     0.007898
      dxy     :     0.011583
      f0      :     0.000405  f :     0.003513
      f+1     :     0.000478
      f-1     :     0.000364
      f+2     :     0.000719
      f-2     :     0.000328
      f+3     :     0.000510
      f-3     :     0.000709
  3 C s       :     3.226948  s :     3.226948
      pz      :     0.845221  p :     2.849020
      px      :     0.972731
      py      :     1.031068
      dz2     :     0.017001  d :     0.080316
      dxz     :     0.018871
      dyz     :     0.016447
      dx2y2   :     0.005317
      dxy     :     0.022680
      f0      :     0.001016  f :     0.006343
      f+1     :     0.001364
      f-1     :     0.000659
      f+2     :     0.000968
      f-2     :     0.001478
      f+3     :     0.000593
      f-3     :     0.000265
  4 H s       :     0.887694  s :     0.887694
      pz      :     0.015735  p :     0.031970
      px      :     0.008507
      py      :     0.007728
      dz2     :     0.000581  d :     0.001969
      dxz     :     0.000547
      dyz     :     0.000388
      dx2y2   :     0.000251
      dxy     :     0.000202
  5 H s       :     0.763917  s :     0.763917
      pz      :     0.020890  p :     0.054584
      px      :     0.011314
      py      :     0.022379
      dz2     :     0.001520  d :     0.004899
      dxz     :     0.001028
      dyz     :     0.001264
      dx2y2   :     0.000493
      dxy     :     0.000593
  6 H s       :     0.855065  s :     0.855065
      pz      :     0.011433  p :     0.033001
      px      :     0.010973
      py      :     0.010594
      dz2     :     0.000670  d :     0.001768
      dxz     :     0.000130
      dyz     :     0.000391
      dx2y2   :     0.000245
      dxy     :     0.000332
  7 H s       :     0.848775  s :     0.848775
      pz      :     0.008633  p :     0.030530
      px      :     0.010332
      py      :     0.011564
      dz2     :     0.000072  d :     0.001675
      dxz     :     0.000374
      dyz     :     0.000424
      dx2y2   :     0.000630
      dxy     :     0.000174
  8 H s       :     0.848742  s :     0.848742
      pz      :     0.008877  p :     0.030468
      px      :     0.010301
      py      :     0.011290
      dz2     :     0.000269  d :     0.001673
      dxz     :     0.000358
      dyz     :     0.000250
      dx2y2   :     0.000606
      dxy     :     0.000189


                     *******************************
                     * LOEWDIN POPULATION ANALYSIS *
                     *******************************

----------------------
LOEWDIN ATOMIC CHARGES
----------------------
   0 C :   -0.330164
   1 O :   -0.005622
   2 N :    0.312988
   3 C :   -0.008881
   4 H :    0.002391
   5 H :   -0.015026
   6 H :    0.019712
   7 H :    0.012324
   8 H :    0.012278

-------------------------------
LOEWDIN REDUCED ORBITAL CHARGES
-------------------------------
  0 C s       :     2.770506  s :     2.770506
      pz      :     0.957868  p :     2.661752
      px      :     0.929840
      py      :     0.774043
      dz2     :     0.191690  d :     0.780685
      dxz     :     0.209749
      dyz     :     0.087571
      dx2y2   :     0.131154
      dxy     :     0.160521
      f0      :     0.026219  f :     0.117222
      f+1     :     0.017583
      f-1     :     0.012872
      f+2     :     0.023562
      f-2     :     0.012592
      f+3     :     0.009917
      f-3     :     0.014477
  1 O s       :     3.407503  s :     3.407503
      pz      :     1.522219  p :     4.526196
      px      :     1.596315
      py      :     1.407662
      dz2     :     0.018172  d :     0.065925
      dxz     :     0.020161
      dyz     :     0.012435
      dx2y2   :     0.007748
      dxy     :     0.007409
      f0      :     0.000973  f :     0.005998
      f+1     :     0.001542
      f-1     :     0.000716
      f+2     :     0.001093
      f-2     :     0.001125
      f+3     :     0.000254
      f-3     :     0.000295
  2 N s       :     2.878959  s :     2.878959
      pz      :     1.140011  p :     3.577441
      px      :     1.135495
      py      :     1.301935
      dz2     :     0.047556  d :     0.216333
      dxz     :     0.072546
      dyz     :     0.020982
      dx2y2   :     0.038306
      dxy     :     0.036943
      f0      :     0.002684  f :     0.014279
      f+1     :     0.001869
      f-1     :     0.001475
      f+2     :     0.003022
      f-2     :     0.001236
      f+3     :     0.002069
      f-3     :     0.001923
  3 C s       :     2.710518  s :     2.710518
      pz      :     0.903128  p :     2.899505
      px      :     0.977821
      py      :     1.018556
      dz2     :     0.067930  d :     0.353087
      dxz     :     0.096257
      dyz     :     0.066722
      dx2y2   :     0.022618
      dxy     :     0.099560
      f0      :     0.008201  f :     0.045770
      f+1     :     0.008637
      f-1     :     0.006110
      f+2     :     0.007774
      f-2     :     0.007061
      f+3     :     0.005133
      f-3     :     0.002853
  4 H s       :     0.837903  s :     0.837903
      pz      :     0.068521  p :     0.133179
      px      :     0.032481
      py      :     0.032177
      dz2     :     0.008284  d :     0.026528
      dxz     :     0.007771
      dyz     :     0.006203
      dx2y2   :     0.002039
      dxy     :     0.002230
  5 H s       :     0.717536  s :     0.717536
      pz      :     0.096335  p :     0.237607
      px      :     0.057118
      py      :     0.084154
      dz2     :     0.017771  d :     0.059883
      dxz     :     0.014568
      dyz     :     0.014824
      dx2y2   :     0.005891
      dxy     :     0.006829
  6 H s       :     0.805736  s :     0.805736
      pz      :     0.051572  p :     0.145001
      px      :     0.050440
      py      :     0.042988
      dz2     :     0.007631  d :     0.029551
      dxz     :     0.007585
      dyz     :     0.005607
      dx2y2   :     0.003609
      dxy     :     0.005120
  7 H s       :     0.814400  s :     0.814400
      pz      :     0.035031  p :     0.144324
      px      :     0.048823
      py      :     0.060469
      dz2     :     0.003061  d :     0.028953
      dxz     :     0.003859
      dyz     :     0.005049
      dx2y2   :     0.009086
      dxy     :     0.007898
  8 H s       :     0.814459  s :     0.814459
      pz      :     0.040538  p :     0.144315
      px      :     0.048839
      py      :     0.054937
      dz2     :     0.003781  d :     0.028948
      dxz     :     0.004352
      dyz     :     0.006029
      dx2y2   :     0.007382
      dxy     :     0.007405


                      *****************************
                      * MAYER POPULATION ANALYSIS *
                      *****************************

  NA   - Mulliken gross atomic population
  ZA   - Total nuclear charge
  QA   - Mulliken gross atomic charge
  VA   - Mayer's total valence
  BVA  - Mayer's bonded valence
  FA   - Mayer's free valence

  ATOM       NA         ZA         QA         VA         BVA        FA
  0 C      5.8290     6.0000     0.1710     4.2351     4.2351    -0.0000
  1 O      8.4476     8.0000    -0.4476     2.0388     2.0388    -0.0000
  2 N      7.1640     7.0000    -0.1640     3.0837     3.0837    -0.0000
  3 C      6.1626     6.0000    -0.1626     3.8559     3.8559     0.0000
  4 H      0.9216     1.0000     0.0784     0.9978     0.9978    -0.0000
  5 H      0.8234     1.0000     0.1766     1.0117     1.0117    -0.0000
  6 H      0.8898     1.0000     0.1102     0.9985     0.9985    -0.0000
  7 H      0.8810     1.0000     0.1190     0.9787     0.9787     0.0000
  8 H      0.8809     1.0000     0.1191     0.9786     0.9786     0.0000

  Mayer bond orders larger than 0.100000
B(  0-C ,  1-O ) :   1.9528 B(  0-C ,  2-N ) :   1.2581 B(  0-C ,  4-H ) :   0.9793 
B(  2-N ,  3-C ) :   0.9192 B(  2-N ,  5-H ) :   0.9336 B(  3-C ,  6-H ) :   0.9739 
B(  3-C ,  7-H ) :   0.9712 B(  3-C ,  8-H ) :   0.9712 

-------
TIMINGS
-------

Total SCF time: 0 days 0 hours 0 min 3 sec 

Total time                  ....       3.867 sec
Sum of individual times     ....       3.758 sec  ( 97.2%)

Fock matrix formation       ....       3.348 sec  ( 86.6%)
  Split-RI-J                ....       0.270 sec  (  8.1% of F)
  Chain of spheres X        ....       2.040 sec  ( 60.9% of F)
  XC integration            ....       0.399 sec  ( 11.9% of F)
    Basis function eval.    ....       0.102 sec  ( 25.7% of XC)
    Density eval.           ....       0.099 sec  ( 24.9% of XC)
    XC-Functional eval.     ....       0.015 sec  (  3.7% of XC)
    XC-Potential eval.      ....       0.148 sec  ( 37.2% of XC)
Diagonalization             ....       0.044 sec  (  1.1%)
Density matrix formation    ....       0.008 sec  (  0.2%)
Population analysis         ....       0.009 sec  (  0.2%)
Initial guess               ....       0.007 sec  (  0.2%)
Orbital Transformation      ....       0.000 sec  (  0.0%)
Orbital Orthonormalization  ....       0.004 sec  (  0.1%)
DIIS solution               ....       0.028 sec  (  0.7%)
SOSCF solution              ....       0.010 sec  (  0.2%)
Grid generation             ....       0.304 sec  (  7.9%)

Maximum memory used throughout the entire SCF-calculation: 65.5 MB

-------------------------   --------------------
FINAL SINGLE POINT ENERGY      -209.190572979223
-------------------------   --------------------


                            ***************************************
                            *     ORCA property calculations      *
                            ***************************************

                                    ---------------------
                                    Active property flags
                                    ---------------------
   (+) Dipole Moment
   (+) Chemical Shifts
   (+) Nuclear properties (Hyperfine,Quadrupole)


------------------------------------------------------------------------------
                       ORCA ELECTRIC PROPERTIES CALCULATION
------------------------------------------------------------------------------

Dipole Moment Calculation                       ... on
Quadrupole Moment Calculation                   ... off
Polarizability Calculation                      ... off
GBWName                                         ... nmr.gbw
Electron density                                ... nmr.scfp
The origin for moment calculation is the CENTER OF MASS  = ( 3.486865,  0.035468  0.216461)

-------------
DIPOLE MOMENT
-------------
                                X             Y             Z
Electronic contribution:     -2.76609      -1.11490      -2.74031
Nuclear contribution   :      4.43766       1.61577       3.97540
                        -----------------------------------------
Total Dipole Moment    :      1.67157       0.50087       1.23509
                        -----------------------------------------
Magnitude (a.u.)       :      2.13787
Magnitude (Debye)      :      5.43402



--------------------
Rotational spectrum 
--------------------
 
Rotational constants in cm-1:     1.498804     0.146083     0.136530 
Rotational constants in MHz : 44933.011744  4379.466102  4093.059384 

 Dipole components along the rotational axes: 
x,y,z [a.u.] :    -2.135933    -0.090871    -0.001305 
x,y,z [Debye]:    -5.429110    -0.230976    -0.003317 

 


           ************************************************************
           *        Program running with 8 parallel MPI-processes     *
           *              working on a common directory               *
           ************************************************************
------------------------------------------------------------------------------
                                ORCA EPR/NMR CALCULATION
------------------------------------------------------------------------------

GBWName                      ... nmr.gbw
Electron density             ... nmr.scfp
Spin density                 ... nmr.scfr
Treatment of gauge           ... GIAO (approximations 1/2el = 0,0)
Details of the CP(SCF) procedure:
       Solver   = POPLE   
       MaxIter  =    64   
       Tolerance=    1.000e-03
       COSX Grid=     1   
       Op-0     =   0- 15 =>  16-193
Multiplicity                 ... 1
g-tensor                     ... 0
NMR chemical shifts          ... 1
NMR spin-spin couplings      ... 0
NMR spectrum                 ... 0
Number of nuclei for epr/nmr ... 9
   Nucleus:   4H 
       Hyperfine : Isotope=    0 I=   0.000 P=   0.000
       Quadrupole: Isotope=    0 I=   0.000 Q=   0.000
       Spin-Orbit: Zeff=   1.000
       Nuclear Spin-Spin: Gn=   0.000
       EPRNMR Input: 
       rho(0)=N f(grad)=N a(iso)=N a(dip)=N a(orb)=N sigma(nmr)=Y spin-spin(nmr)=all-N,DSO-N,PSO-N,FC-N,SD-N
   Nucleus:   5H 
       Hyperfine : Isotope=    0 I=   0.000 P=   0.000
       Quadrupole: Isotope=    0 I=   0.000 Q=   0.000
       Spin-Orbit: Zeff=   1.000
       Nuclear Spin-Spin: Gn=   0.000
       EPRNMR Input: 
       rho(0)=N f(grad)=N a(iso)=N a(dip)=N a(orb)=N sigma(nmr)=Y spin-spin(nmr)=all-N,DSO-N,PSO-N,FC-N,SD-N
   Nucleus:   6H 
       Hyperfine : Isotope=    0 I=   0.000 P=   0.000
       Quadrupole: Isotope=    0 I=   0.000 Q=   0.000
       Spin-Orbit: Zeff=   1.000
       Nuclear Spin-Spin: Gn=   0.000
       EPRNMR Input: 
       rho(0)=N f(grad)=N a(iso)=N a(dip)=N a(orb)=N sigma(nmr)=Y spin-spin(nmr)=all-N,DSO-N,PSO-N,FC-N,SD-N
   Nucleus:   7H 
       Hyperfine : Isotope=    0 I=   0.000 P=   0.000
       Quadrupole: Isotope=    0 I=   0.000 Q=   0.000
       Spin-Orbit: Zeff=   1.000
       Nuclear Spin-Spin: Gn=   0.000
       EPRNMR Input: 
       rho(0)=N f(grad)=N a(iso)=N a(dip)=N a(orb)=N sigma(nmr)=Y spin-spin(nmr)=all-N,DSO-N,PSO-N,FC-N,SD-N
   Nucleus:   8H 
       Hyperfine : Isotope=    0 I=   0.000 P=   0.000
       Quadrupole: Isotope=    0 I=   0.000 Q=   0.000
       Spin-Orbit: Zeff=   1.000
       Nuclear Spin-Spin: Gn=   0.000
       EPRNMR Input: 
       rho(0)=N f(grad)=N a(iso)=N a(dip)=N a(orb)=N sigma(nmr)=Y spin-spin(nmr)=all-N,DSO-N,PSO-N,FC-N,SD-N
   Nucleus:   0C 
       Hyperfine : Isotope=    0 I=   0.000 P=   0.000
       Quadrupole: Isotope=    0 I=   0.000 Q=   0.000
       Spin-Orbit: Zeff=   3.600
       Nuclear Spin-Spin: Gn=   0.000
       EPRNMR Input: 
       rho(0)=N f(grad)=N a(iso)=N a(dip)=N a(orb)=N sigma(nmr)=Y spin-spin(nmr)=all-N,DSO-N,PSO-N,FC-N,SD-N
   Nucleus:   3C 
       Hyperfine : Isotope=    0 I=   0.000 P=   0.000
       Quadrupole: Isotope=    0 I=   0.000 Q=   0.000
       Spin-Orbit: Zeff=   3.600
       Nuclear Spin-Spin: Gn=   0.000
       EPRNMR Input: 
       rho(0)=N f(grad)=N a(iso)=N a(dip)=N a(orb)=N sigma(nmr)=Y spin-spin(nmr)=all-N,DSO-N,PSO-N,FC-N,SD-N
   Nucleus:   2N 
       Hyperfine : Isotope=    0 I=   0.000 P=   0.000
       Quadrupole: Isotope=    0 I=   0.000 Q=   0.000
       Spin-Orbit: Zeff=   4.550
       Nuclear Spin-Spin: Gn=   0.000
       EPRNMR Input: 
       rho(0)=N f(grad)=N a(iso)=N a(dip)=N a(orb)=N sigma(nmr)=Y spin-spin(nmr)=all-N,DSO-N,PSO-N,FC-N,SD-N
   Nucleus:   1O 
       Hyperfine : Isotope=    0 I=   0.000 P=   0.000
       Quadrupole: Isotope=    0 I=   0.000 Q=   0.000
       Spin-Orbit: Zeff=   5.600
       Nuclear Spin-Spin: Gn=   0.000
       EPRNMR Input: 
       rho(0)=N f(grad)=N a(iso)=N a(dip)=N a(orb)=N sigma(nmr)=Y spin-spin(nmr)=all-N,DSO-N,PSO-N,FC-N,SD-N
Forming RHS of the CP-SCF equations         ... 
Calculating right hand sides for GIAO treatment        ... 
  Entering RightHandSide GIAO. ScalHFX=    0.2000 NeedHFX=1
     -> 1-electron GIAO integrals will be done analytically
     -> RIJCOSX used in SCF. Same chosen for GIAO calculation.
     Making grid for GIAO integrations   ...

GRID GIAO
---------

General Integration Accuracy     IntAcc      ... 4.388
Radial Grid Type                 RadialGrid  ... OptM3 with GC (2021)
Angular Grid (max. ang.)         AngularGrid ... 4 (Lebedev-302)
Angular grid pruning method      GridPruning ... 4 (adaptive)
Weight generation scheme         WeightScheme... Becke
Basis function cutoff            BFCut       ... 1.0000e-10
Integration weight cutoff        WCut        ... 1.0000e-14
Angular grids for H and He will be reduced by one unit
Partially contracted basis set               ... off
Rotationally invariant grid construction     ... off

Total number of grid points                  ...    40586
Total number of batches                      ...      639
Average number of points per batch           ...       63
Average number of grid points per atom       ...     4510

  One-electron GIAO integrals (SHARK)     ... done
  Calculating G(B)[P]                     ... (RI-J: SHARK-ok) (COSX-ok) (add-J+K:ok) => dG/dB done
  DFT XC-terms                            ... done
  Forming the GIAO-CPCM matrix            ... done (epsilon= 47.20 f(epsilon)= 0.978814)
  Extracting occupied and virtual blocks  ... 
  Operator  0  NO=  16 NV= 178 
  Transforming and RHS contribution       ... done
  Adding eps_i * S(B)_ai terms            ... done
  Projecting overlap derivatives          ... done
  Building G[dS/dB_ij] (COSX)             ... done
  Transforming to MO basis                ... done
  Summing G[dS/dB_ij] into RHS contribs.  ... done

  GIAO profiling information: 
    Total GIAO time               ...       2.1 sec
       GIAO 1-electron integrals  ...       0.0 sec (  0.6%)
       GIAO G(dS/dB) terms        ...       0.1 sec (  5.7%)
       GIAO RI-J                  ...       0.1 sec (  6.2%)
       GIAO COSX                  ...       0.4 sec ( 18.0%)
       GIAO XC-terms              ...       0.8 sec ( 39.1%)
       GIAO Solvent terms         ...       0.5 sec ( 22.0%)
       Right hand side assembly   ...       0.0 sec (  0.2%)

  GIAO right hand side done


------------------------------------------------------------------------------
                           ORCA CP-SCF CALCULATION
------------------------------------------------------------------------------

Input orbitals are from        ... nmr.gbw
Input Perturbation             ... nmr.pin.tmp
Wavefunction output            ... nmr.pout.tmp
Perturbation mode              ... Imaginary perturbation
Solver                         ... POPLE
Max. number of iterations      ... 64
Convergence tolerance          ... 1.000e-03
Integral handling              ... Direct
DFT GridXC                     ... 1
COSX GridX                     ... 1
COSX IntAccX                   ... 3.067
COSX Algorithm                 ... Auto
Number of perturbations        ... 3
Number of operators            ... 1
Orbital ranges used for CP-SCF:
 Operator 0:  Orbitals   0... 15  to  16...193
Variables per perturbation     ... 2848
DFT calculation                         ... on
XC functional terms                     ... off
Hybrid DFT                              ... on
   Exchange mixing (SCF)                ...  0.200
   Exchange mixing (CP-SCF)             ...  0.200
   GGA exch. scaling(SCF)               ...  0.720
   GGA exch. scaling (CP-SCF)           ...  0.720
   GGA corr. scaling (SCF)              ...  0.810
   GGA corr. scaling (CP-SCF)           ...  0.810

CP-SCF GRID
-----------

General Integration Accuracy     IntAcc      ... 3.467
Radial Grid Type                 RadialGrid  ... OptM3 with GC (2021)
Angular Grid (max. ang.)         AngularGrid ... 1 (Lebedev-50)
Angular grid pruning method      GridPruning ... 4 (adaptive)
Weight generation scheme         WeightScheme... Becke
Basis function cutoff            BFCut       ... 1.0000e-10
Integration weight cutoff        WCut        ... 1.0000e-14
Angular grids for H and He will be reduced by one unit
Partially contracted basis set               ... off
Rotationally invariant grid construction     ... off

Total number of grid points                  ...     5868
Total number of batches                      ...       96
Average number of points per batch           ...       61
Average number of grid points per atom       ...      652

CP-SCF GRIDX
------------

General Integration Accuracy     IntAcc      ... 3.067
Radial Grid Type                 RadialGrid  ... OptM3 with GC (2021)
Angular Grid (max. ang.)         AngularGrid ... 1 (Lebedev-50)
Angular grid pruning method      GridPruning ... 4 (adaptive)
Weight generation scheme         WeightScheme... Becke
Basis function cutoff            BFCut       ... 1.0000e-10
Integration weight cutoff        WCut        ... 1.0000e-14
Angular grids for H and He will be reduced by one unit
Partially contracted basis set               ... on
Rotationally invariant grid construction     ... off

Total number of grid points                  ...     2710
Total number of batches                      ...       49
Average number of points per batch           ...       55
Average number of grid points per atom       ...      301

Memory available               ... 31985.1 MB
Memory needed per perturbation ...   1.3 MB
Perturbations treated per batch... 3
Number of batches              ... 1
     CP-SCF ITERATION   0:   3.4339e-01 (   0.1 sec   0/  3 done)
     CP-SCF ITERATION   1:   1.4748e-02 (   0.1 sec   0/  3 done)
     CP-SCF ITERATION   2:   8.7136e-04 (   0.1 sec   3/  3 done)
                    *** THE CP-SCF HAS CONVERGED ***

Forming final perturbed densities           ... done
Transforming perturbed density to AO basis  ... done

Magnetic field perturbation calculated in  2.557 sec

---------------
CHEMICAL SHIFTS
---------------

Note: using conversion factor for au to ppm alpha^2/2 =   26.625677252 
GIAO: Analytic para- and diamagnetic shielding integrals (SHARK)       ...done
 --------------
 Nucleus   4H :
 --------------

Diamagnetic contribution to the shielding tensor (ppm) : 
            29.840         -1.985        -5.162
            -2.066         29.092         3.807
            -5.119          3.775        37.095

Paramagnetic contribution to the shielding tensor (ppm): 
            -4.674          2.771         7.085
             1.546         -7.879        -2.543
             3.812         -2.508       -13.247

Total shielding tensor (ppm): 
            25.167          0.786         1.923
            -0.519         21.213         1.265
            -1.307          1.267        23.847


 Diagonalized sT*s matrix:
 
 sDSO            27.581           41.208           27.238  iso=      32.009
 sPSO            -6.877          -16.971           -1.952  iso=      -8.600
        ---------------  ---------------  ---------------
 Total           20.704           24.237           25.286  iso=      23.409

 --------------
 Nucleus   5H :
 --------------

Diamagnetic contribution to the shielding tensor (ppm) : 
            33.308         -2.744        -6.633
            -4.368         23.449         6.838
           -10.797          6.915        37.525

Paramagnetic contribution to the shielding tensor (ppm): 
            -4.833          0.705         1.587
             4.062         -0.141        -4.640
            10.034         -4.716        -9.694

Total shielding tensor (ppm): 
            28.475         -2.039        -5.046
            -0.306         23.308         2.198
            -0.762          2.199        27.831


 Diagonalized sT*s matrix:
 
 sDSO            20.647           27.052           46.583  iso=      31.427
 sPSO             1.768           -1.577          -14.860  iso=      -4.889
        ---------------  ---------------  ---------------
 Total           22.415           25.475           31.723  iso=      26.538

 --------------
 Nucleus   6H :
 --------------

Diamagnetic contribution to the shielding tensor (ppm) : 
            27.798         -1.352        -3.190
            -0.474         21.580         6.159
            -1.190          6.101        34.213

Paramagnetic contribution to the shielding tensor (ppm): 
            -0.123          1.371         3.241
            -0.268          4.808        -3.895
            -0.627         -3.851        -3.217

Total shielding tensor (ppm): 
            27.675          0.019         0.050
            -0.742         26.388         2.264
            -1.818          2.251        30.996


 Diagonalized sT*s matrix:
 
 sDSO            19.094           27.208           37.289  iso=      27.864
 sPSO             6.372            0.264           -5.168  iso=       0.489
        ---------------  ---------------  ---------------
 Total           25.466           27.472           32.121  iso=      28.353

 --------------
 Nucleus   7H :
 --------------

Diamagnetic contribution to the shielding tensor (ppm) : 
            29.287          8.347         1.073
             9.720         28.644         0.726
             1.436          0.025        22.075

Paramagnetic contribution to the shielding tensor (ppm): 
            -0.149         -3.642         0.027
            -4.594          1.815        -1.229
             0.309          0.815         4.806

Total shielding tensor (ppm): 
            29.138          4.705         1.100
             5.126         30.459        -0.502
             1.745          0.840        26.880


 Diagonalized sT*s matrix:
 
 sDSO            19.935           22.115           37.956  iso=      26.669
 sPSO             4.508            5.019           -3.056  iso=       2.157
        ---------------  ---------------  ---------------
 Total           24.444           27.134           34.900  iso=      28.826

 --------------
 Nucleus   8H :
 --------------

Diamagnetic contribution to the shielding tensor (ppm) : 
            29.261         -5.302         6.630
            -5.951         25.005        -3.668
             7.802         -3.063        25.644

Paramagnetic contribution to the shielding tensor (ppm): 
            -0.121          2.700        -2.550
             3.502          3.535         2.548
            -2.966          0.600         3.148

Total shielding tensor (ppm): 
            29.140         -2.601         4.080
            -2.449         28.540        -1.119
             4.836         -2.464        28.792


 Diagonalized sT*s matrix:
 
 sDSO            19.913           22.000           37.997  iso=      26.637
 sPSO             4.523            5.132           -3.093  iso=       2.187
        ---------------  ---------------  ---------------
 Total           24.436           27.132           34.904  iso=      28.824

 --------------
 Nucleus   0C :
 --------------

Diamagnetic contribution to the shielding tensor (ppm) : 
           264.095          3.560         8.470
             2.705        233.374         9.568
             6.563          9.496       253.292

Paramagnetic contribution to the shielding tensor (ppm): 
          -277.869         17.179        43.092
            14.295       -169.804       -43.447
            35.686        -43.246      -259.941

Total shielding tensor (ppm): 
           -13.774         20.739        51.563
            17.000         63.570       -33.880
            42.249        -33.750        -6.649


 Diagonalized sT*s matrix:
 
 sDSO           269.452          251.759          229.550  iso=     250.254
 sPSO          -237.884         -317.381         -152.350  iso=    -235.872
        ---------------  ---------------  ---------------
 Total           31.568          -65.622           77.200  iso=      14.382

 --------------
 Nucleus   3C :
 --------------

Diamagnetic contribution to the shielding tensor (ppm) : 
           241.771          3.800         9.437
             4.974        233.335         5.233
            12.309          5.137       244.206

Paramagnetic contribution to the shielding tensor (ppm): 
           -93.517          5.588        13.594
             4.614        -83.663         3.305
            11.379          3.418       -76.964

Total shielding tensor (ppm): 
           148.254          9.388        23.031
             9.589        149.672         8.537
            23.688          8.555       167.241


 Diagonalized sT*s matrix:
 
 sDSO           232.392          231.259          255.661  iso=     239.771
 sPSO          -100.510          -85.058          -68.577  iso=     -84.715
        ---------------  ---------------  ---------------
 Total          131.883          146.201          187.084  iso=     155.056

 --------------
 Nucleus   2N :
 --------------

Diamagnetic contribution to the shielding tensor (ppm) : 
           330.152          1.049         2.537
            -0.887        299.027        13.425
            -2.249         13.715       326.686

Paramagnetic contribution to the shielding tensor (ppm): 
          -120.039        -31.431       -77.488
            -8.209       -162.089       -62.676
           -20.608        -63.204      -291.440

Total shielding tensor (ppm): 
           210.113        -30.381       -74.950
            -9.096        136.938       -49.251
           -22.856        -49.489        35.246


 Diagonalized sT*s matrix:
 
 sDSO           332.070          293.482          330.313  iso=     318.622
 sPSO          -326.902         -136.519         -110.147  iso=    -191.189
        ---------------  ---------------  ---------------
 Total            5.168          156.963          220.166  iso=     127.432

 --------------
 Nucleus   1O :
 --------------

Diamagnetic contribution to the shielding tensor (ppm) : 
           401.216          5.824        14.109
             6.189        393.126         8.162
            15.332          8.581       409.953

Paramagnetic contribution to the shielding tensor (ppm): 
          -617.308        -36.322       -87.982
           -16.954       -145.818      -173.171
           -41.876       -174.175      -506.103

Total shielding tensor (ppm): 
          -216.092        -30.498       -73.873
           -10.766        247.308      -165.009
           -26.545       -165.594       -96.150


 Diagonalized sT*s matrix:
 
 sDSO           394.158          420.460          389.676  iso=     401.431
 sPSO          -523.668         -669.798          -75.763  iso=    -423.076
        ---------------  ---------------  ---------------
 Total         -129.510         -249.337          313.913  iso=     -21.645



--------------------------------
CHEMICAL SHIELDING SUMMARY (ppm)
--------------------------------


  Nucleus  Element    Isotropic     Anisotropy
  -------  -------  ------------   ------------
      4       H           23.409          2.816 
      5       H           26.538          7.778 
      6       H           28.353          5.652 
      7       H           28.826          9.111 
      8       H           28.824          9.120 
      0       C           14.382         94.227 
      3       C          155.056         48.042 
      2       N          127.432        139.101 
      1       O          -21.645        503.336 



Maximum memory used throughout the entire EPRNMR-calculation: 22.1 MB

Timings for individual modules:

Sum of individual times         ...        7.453 sec (=   0.124 min)
GTO integral calculation        ...        0.384 sec (=   0.006 min)   5.2 %
SCF iterations                  ...        4.114 sec (=   0.069 min)  55.2 %
EPR/NMR calculation             ...        2.954 sec (=   0.049 min)  39.6 %
                             ****ORCA TERMINATED NORMALLY****
TOTAL RUN TIME: 0 days 0 hours 0 minutes 7 seconds 792 msec
