
                                 *****************
                                 * O   R   C   A *
                                 *****************

                                            #,                                       
                                            ###                                      
                                            ####                                     
                                            #####                                    
                                            ######                                   
                                           ########,                                 
                                     ,,################,,,,,                         
                               ,,#################################,,                 
                          ,,##########################################,,             
                       ,#########################################, ''#####,          
                    ,#############################################,,   '####,        
                  ,##################################################,,,,####,       
                ,###########''''           ''''###############################       
              ,#####''   ,,,,##########,,,,          '''####'''          '####       
            ,##' ,,,,###########################,,,                        '##       
           ' ,,###''''                  '''############,,,                           
         ,,##''                                '''############,,,,        ,,,,,,###''
      ,#''                                            '''#######################'''  
     '                                                          ''''####''''         
             ,#######,   #######,   ,#######,      ##                                
            ,#'     '#,  ##    ##  ,#'     '#,    #''#        ######   ,####,        
            ##       ##  ##   ,#'  ##            #'  '#       #        #'  '#        
            ##       ##  #######   ##           ,######,      #####,   #    #        
            '#,     ,#'  ##    ##  '#,     ,#' ,#      #,         ##   #,  ,#        
             '#######'   ##     ##  '#######'  #'      '#     #####' # '####'        



                  #######################################################
                  #                        -***-                        #
                  #          Department of theory and spectroscopy      #
                  #    Directorship and core code : Frank Neese         #
                  #        Max Planck Institute fuer Kohlenforschung    #
                  #                Kaiser Wilhelm Platz 1               #
                  #                 D-45470 Muelheim/Ruhr               #
                  #                      Germany                        #
                  #                                                     #
                  #                  All rights reserved                #
                  #                        -***-                        #
                  #######################################################


                         Program Version 5.0.3 -  RELEASE  -


 With contributions from (in alphabetic order):
   Daniel Aravena         : Magnetic Suceptibility
   Michael Atanasov       : Ab Initio Ligand Field Theory (pilot matlab implementation)
   Alexander A. Auer      : GIAO ZORA, VPT2 properties, NMR spectrum
   Ute Becker             : Parallelization
   Giovanni Bistoni       : ED, misc. LED, open-shell LED, HFLD
   Martin Brehm           : Molecular dynamics
   Dmytro Bykov           : SCF Hessian
   Vijay G. Chilkuri      : MRCI spin determinant printing, contributions to CSF-ICE
   Dipayan Datta          : RHF DLPNO-CCSD density
   Achintya Kumar Dutta   : EOM-CC, STEOM-CC
   Dmitry Ganyushin       : Spin-Orbit,Spin-Spin,Magnetic field MRCI
   Miquel Garcia          : C-PCM and meta-GGA Hessian, CC/C-PCM, Gaussian charge scheme
   Yang Guo               : DLPNO-NEVPT2, F12-NEVPT2, CIM, IAO-localization
   Andreas Hansen         : Spin unrestricted coupled pair/coupled cluster methods
   Benjamin Helmich-Paris : MC-RPA, TRAH-SCF, COSX integrals
   Lee Huntington         : MR-EOM, pCC
   Robert Izsak           : Overlap fitted RIJCOSX, COSX-SCS-MP3, EOM
   Marcus Kettner         : VPT2
   Christian Kollmar      : KDIIS, OOCD, Brueckner-CCSD(T), CCSD density, CASPT2, CASPT2-K
   Simone Kossmann        : Meta GGA functionals, TD-DFT gradient, OOMP2, MP2 Hessian
   Martin Krupicka        : Initial AUTO-CI
   Lucas Lang             : DCDCAS
   Marvin Lechner         : AUTO-CI (C++ implementation), FIC-MRCC
   Dagmar Lenk            : GEPOL surface, SMD
   Dimitrios Liakos       : Extrapolation schemes; Compound Job, initial MDCI parallelization
   Dimitrios Manganas     : Further ROCIS development; embedding schemes
   Dimitrios Pantazis     : SARC Basis sets
   Anastasios Papadopoulos: AUTO-CI, single reference methods and gradients
   Taras Petrenko         : DFT Hessian,TD-DFT gradient, ASA, ECA, R-Raman, ABS, FL, XAS/XES, NRVS
   Peter Pinski           : DLPNO-MP2, DLPNO-MP2 Gradient
   Christoph Reimann      : Effective Core Potentials
   Marius Retegan         : Local ZFS, SOC
   Christoph Riplinger    : Optimizer, TS searches, QM/MM, DLPNO-CCSD(T), (RO)-DLPNO pert. Triples
   Tobias Risthaus        : Range-separated hybrids, TD-DFT gradient, RPA, STAB
   Michael Roemelt        : Original ROCIS implementation
   Masaaki Saitow         : Open-shell DLPNO-CCSD energy and density
   Barbara Sandhoefer     : DKH picture change effects
   Avijit Sen             : IP-ROCIS
   Kantharuban Sivalingam : CASSCF convergence, NEVPT2, FIC-MRCI
   Bernardo de Souza      : ESD, SOC TD-DFT
   Georgi Stoychev        : AutoAux, RI-MP2 NMR, DLPNO-MP2 response
   Willem Van den Heuvel  : Paramagnetic NMR
   Boris Wezisla          : Elementary symmetry handling
   Frank Wennmohs         : Technical directorship


 We gratefully acknowledge several colleagues who have allowed us to
 interface, adapt or use parts of their codes:
   Stefan Grimme, W. Hujo, H. Kruse, P. Pracht,  : VdW corrections, initial TS optimization,
                  C. Bannwarth, S. Ehlert          DFT functionals, gCP, sTDA/sTD-DF
   Ed Valeev, F. Pavosevic, A. Kumar             : LibInt (2-el integral package), F12 methods
   Garnet Chan, S. Sharma, J. Yang, R. Olivares  : DMRG
   Ulf Ekstrom                                   : XCFun DFT Library
   Mihaly Kallay                                 : mrcc  (arbitrary order and MRCC methods)
   Jiri Pittner, Ondrej Demel                    : Mk-CCSD
   Frank Weinhold                                : gennbo (NPA and NBO analysis)
   Christopher J. Cramer and Donald G. Truhlar   : smd solvation model
   Lars Goerigk                                  : TD-DFT with DH, B97 family of functionals
   V. Asgeirsson, H. Jonsson                     : NEB implementation
   FAccTs GmbH                                   : IRC, NEB, NEB-TS, DLPNO-Multilevel, CI-OPT
                                                   MM, QMMM, 2- and 3-layer-ONIOM, Crystal-QMMM,
                                                   LR-CPCM, SF, NACMEs, symmetry and pop. for TD-DFT,
                                                   nearIR, NL-DFT gradient (VV10), updates on ESD,
                                                   ML-optimized integration grids
   S Lehtola, MJT Oliveira, MAL Marques          : LibXC Library
   Liviu Ungur et al                             : ANISO software


 Your calculation uses the libint2 library for the computation of 2-el integrals
 For citations please refer to: http://libint.valeyev.net

 Your ORCA version has been built with support for libXC version: 5.1.0
 For citations please refer to: https://tddft.org/programs/libxc/

 This ORCA versions uses:
   CBLAS   interface :  Fast vector & matrix operations
   LAPACKE interface :  Fast linear algebra routines
   SCALAPACK package :  Parallel linear algebra routines
   Shared memory     :  Shared parallel matrices
   BLAS/LAPACK       :  OpenBLAS 0.3.15  USE64BITINT DYNAMIC_ARCH NO_AFFINITY Zen SINGLE_THREADED
        Core in use  :  Zen
   Copyright (c) 2011-2014, The OpenBLAS Project




***************************************
The coordinates will be read from file: geom.xyz
***************************************



Warning: The global flag for chemical shieldings has been found
         but shieldings for certain elements have also been explicitly requested in the EPRNMR block
         ==>> only the requested shieldings will be calculated

================================================================================

----- Orbital basis set information -----
Your calculation utilizes the basis: def2-TZVPP
   F. Weigend and R. Ahlrichs, Phys. Chem. Chem. Phys. 7, 3297 (2005).

----- AuxJ basis set information -----
Your calculation utilizes the auxiliary basis: def2/J
   F. Weigend, Phys. Chem. Chem. Phys. 8, 1057 (2006).

================================================================================
                                        WARNINGS
                       Please study these warnings very carefully!
================================================================================


INFO   : the flag for use of the SHARK integral package has been found!

================================================================================
                                       INPUT FILE
================================================================================
NAME = nmr.com
|  1> ! B3LYP def2-TZVPP def2/J RIJCOSX NMR
|  2> 
|  3> * xyzFILE 0 1 geom.xyz
|  4> 
|  5> %MaxCore 32000
|  6> 
|  7> %pal nprocs 8
|  8> end
|  9> 
| 10> %EPRNMR
| 11>      NUCLEI = ALL {SHIFT}
| 12> END
| 13> 
| 14>                          ****END OF INPUT****
================================================================================

                       ****************************
                       * Single Point Calculation *
                       ****************************

---------------------------------
CARTESIAN COORDINATES (ANGSTROEM)
---------------------------------
  C      1.053064   -0.079800   -0.048817
  C      2.378022   -0.079800   -0.048817
  H      0.483813   -0.551696   -0.839853
  H      0.483813    0.392096    0.742220
  H      2.947274   -0.551696   -0.839854
  H      2.947274    0.392096    0.742221

----------------------------
CARTESIAN COORDINATES (A.U.)
----------------------------
  NO LB      ZA    FRAG     MASS         X           Y           Z
   0 C     6.0000    0    12.011    1.990003   -0.150800   -0.092250
   1 C     6.0000    0    12.011    4.493810   -0.150800   -0.092250
   2 H     1.0000    0     1.008    0.914273   -1.042553   -1.587093
   3 H     1.0000    0     1.008    0.914274    0.740953    1.402593
   4 H     1.0000    0     1.008    5.569541   -1.042554   -1.587094
   5 H     1.0000    0     1.008    5.569541    0.740954    1.402594

--------------------------------
INTERNAL COORDINATES (ANGSTROEM)
--------------------------------
 C      0   0   0     0.000000000000     0.00000000     0.00000000
 C      1   0   0     1.324957943825     0.00000000     0.00000000
 H      1   2   0     1.082807290478   121.71660511     0.00000000
 H      1   2   3     1.082807271512   121.71659588   179.99999774
 H      2   1   3     1.082808301148   121.71662083     0.00000000
 H      2   1   3     1.082808289754   121.71660858   180.00000121

---------------------------
INTERNAL COORDINATES (A.U.)
---------------------------
 C      0   0   0     0.000000000000     0.00000000     0.00000000
 C      1   0   0     2.503807652793     0.00000000     0.00000000
 H      1   2   0     2.046209234817   121.71660511     0.00000000
 H      1   2   3     2.046209198977   121.71659588   179.99999774
 H      2   1   3     2.046211144707   121.71662083     0.00000000
 H      2   1   3     2.046211123174   121.71660858   180.00000121

---------------------
BASIS SET INFORMATION
---------------------
There are 2 groups of distinct atoms

 Group   1 Type C   : 11s6p2d1f contracted to 5s3p2d1f pattern {62111/411/11/1}
 Group   2 Type H   : 5s2p1d contracted to 3s2p1d pattern {311/11/1}

Atom   0C    basis set group =>   1
Atom   1C    basis set group =>   1
Atom   2H    basis set group =>   2
Atom   3H    basis set group =>   2
Atom   4H    basis set group =>   2
Atom   5H    basis set group =>   2
---------------------------------
AUXILIARY/J BASIS SET INFORMATION
---------------------------------
There are 2 groups of distinct atoms

 Group   1 Type C   : 12s5p4d2f1g contracted to 6s4p3d1f1g pattern {711111/2111/211/2/1}
 Group   2 Type H   : 5s2p1d contracted to 3s1p1d pattern {311/2/1}

Atom   0C    basis set group =>   1
Atom   1C    basis set group =>   1
Atom   2H    basis set group =>   2
Atom   3H    basis set group =>   2
Atom   4H    basis set group =>   2
Atom   5H    basis set group =>   2


           ************************************************************
           *        Program running with 8 parallel MPI-processes     *
           *              working on a common directory               *
           ************************************************************
------------------------------------------------------------------------------
                           ORCA GTO INTEGRAL CALCULATION
                           -- RI-GTO INTEGRALS CHOSEN --
------------------------------------------------------------------------------
------------------------------------------------------------------------------
                   ___                                                        
                  /   \      - P O W E R E D   B Y -                         
                 /     \                                                     
                 |  |  |   _    _      __       _____    __    __             
                 |  |  |  | |  | |    /  \     |  _  \  |  |  /  |          
                  \  \/   | |  | |   /    \    | | | |  |  | /  /          
                 / \  \   | |__| |  /  /\  \   | |_| |  |  |/  /          
                |  |  |   |  __  | /  /__\  \  |    /   |      \           
                |  |  |   | |  | | |   __   |  |    \   |  |\   \          
                \     /   | |  | | |  |  |  |  | |\  \  |  | \   \       
                 \___/    |_|  |_| |__|  |__|  |_| \__\ |__|  \__/        
                                                                              
                      - O R C A' S   B I G   F R I E N D -                    
                                      &                                       
                       - I N T E G R A L  F E E D E R -                       
                                                                              
 v1 FN, 2020, v2 2021                                                         
------------------------------------------------------------------------------


Reading SHARK input file nmr.SHARKINP.tmp ... ok
----------------------
SHARK INTEGRAL PACKAGE
----------------------

Number of atoms                             ...      6
Number of basis functions                   ...    118
Number of shells                            ...     46
Maximum angular momentum                    ...      3
Integral batch strategy                     ... SHARK/LIBINT Hybrid
RI-J (if used) integral strategy            ... SPLIT-RIJ (Revised 2003 algorithm where possible)
Printlevel                                  ...      1
Contraction scheme used                     ... SEGMENTED contraction
Coulomb Range Separation                    ... NOT USED
Exchange Range Separation                   ... NOT USED
Finite Nucleus Model                        ... NOT USED
Auxiliary Coulomb fitting basis             ... AVAILABLE
   # of basis functions in Aux-J            ...    142
   # of shells in Aux-J                     ...     50
   Maximum angular momentum in Aux-J        ...      4
Auxiliary J/K fitting basis                 ... NOT available
Auxiliary Correlation fitting basis         ... NOT available
Auxiliary 'external' fitting basis          ... NOT available
Integral threshold                          ...     1.000000e-10
Primitive cut-off                           ...     1.000000e-11
Primitive pair pre-selection threshold      ...     1.000000e-11

Calculating pre-screening integrals         ... done (  0.0 sec) Dimension = 46
Organizing shell pair data                  ... done (  0.0 sec)
Shell pair information
Total number of shell pairs                 ...      1081
Shell pairs after pre-screening             ...      1080
Total number of primitive shell pairs       ...      2684
Primitive shell pairs kept                  ...      2441
          la=0 lb=0:    252 shell pairs
          la=1 lb=0:    308 shell pairs
          la=1 lb=1:    105 shell pairs
          la=2 lb=0:    176 shell pairs
          la=2 lb=1:    112 shell pairs
          la=2 lb=2:     36 shell pairs
          la=3 lb=0:     44 shell pairs
          la=3 lb=1:     28 shell pairs
          la=3 lb=2:     16 shell pairs
          la=3 lb=3:      3 shell pairs

Calculating one electron integrals          ... done (  0.0 sec)
Calculating RI/J V-Matrix + Cholesky decomp.... done (  0.0 sec)
Calculating Nuclear repulsion               ... done (  0.0 sec) ENN=     33.484966857588 Eh

SHARK setup successfully completed in   0.1 seconds

Maximum memory used throughout the entire GTOINT-calculation: 14.7 MB


           ************************************************************
           *        Program running with 8 parallel MPI-processes     *
           *              working on a common directory               *
           ************************************************************
-------------------------------------------------------------------------------
                                 ORCA SCF
-------------------------------------------------------------------------------

------------
SCF SETTINGS
------------
Hamiltonian:
 Density Functional     Method          .... DFT(GTOs)
 Exchange Functional    Exchange        .... B88
   X-Alpha parameter    XAlpha          ....  0.666667
   Becke's b parameter  XBeta           ....  0.004200
 Correlation Functional Correlation     .... LYP
 LDA part of GGA corr.  LDAOpt          .... VWN-5
 Gradients option       PostSCFGGA      .... off
 Hybrid DFT is turned on
   Fraction HF Exchange ScalHFX         ....  0.200000
   Scaling of DF-GGA-X  ScalDFX         ....  0.720000
   Scaling of DF-GGA-C  ScalDFC         ....  0.810000
   Scaling of DF-LDA-C  ScalLDAC        ....  1.000000
   Perturbative correction              ....  0.000000
   Density functional embedding theory  .... OFF
   NL short-range parameter             ....  4.800000
 RI-approximation to the Coulomb term is turned on
   Number of AuxJ basis functions       .... 142
   RIJ-COSX (HFX calculated with COS-X)).... on


General Settings:
 Integral files         IntName         .... nmr
 Hartree-Fock type      HFTyp           .... RHF
 Total Charge           Charge          ....    0
 Multiplicity           Mult            ....    1
 Number of Electrons    NEL             ....   16
 Basis Dimension        Dim             ....  118
 Nuclear Repulsion      ENuc            ....     33.4849668576 Eh

Convergence Acceleration:
 DIIS                   CNVDIIS         .... on
   Start iteration      DIISMaxIt       ....    12
   Startup error        DIISStart       ....  0.200000
   # of expansion vecs  DIISMaxEq       ....     5
   Bias factor          DIISBfac        ....   1.050
   Max. coefficient     DIISMaxC        ....  10.000
 Trust-Rad. Augm. Hess. CNVTRAH         .... auto
   Auto Start mean grad. ratio tolernc. ....  1.125000
   Auto Start start iteration           ....    20
   Auto Start num. interpolation iter.  ....    10
   Max. Number of Micro iterations      ....    16
   Max. Number of Macro iterations      .... Maxiter - #DIIS iter
   Number of Davidson start vectors     ....     2
   Converg. threshold I  (grad. norm)   ....   5.000e-05
   Converg. threshold II (energy diff.) ....   1.000e-06
   Grad. Scal. Fac. for Micro threshold ....   0.100
   Minimum threshold for Micro iter.    ....   0.010
   NR start threshold (gradient norm)   ....   0.001
   Initial trust radius                 ....   0.400
   Minimum AH scaling param. (alpha)    ....   1.000
   Maximum AH scaling param. (alpha)    .... 1000.000
   Orbital update algorithm             .... Taylor
   White noise on init. David. guess    .... on
   Maximum white noise                  ....   0.010
   Quad. conv. algorithm                .... NR
 SOSCF                  CNVSOSCF        .... on
   Start iteration      SOSCFMaxIt      ....   150
   Startup grad/error   SOSCFStart      ....  0.003300
 Level Shifting         CNVShift        .... on
   Level shift para.    LevelShift      ....    0.2500
   Turn off err/grad.   ShiftErr        ....    0.0010
 Zerner damping         CNVZerner       .... off
 Static damping         CNVDamp         .... on
   Fraction old density DampFac         ....    0.7000
   Max. Damping (<1)    DampMax         ....    0.9800
   Min. Damping (>=0)   DampMin         ....    0.0000
   Turn off err/grad.   DampErr         ....    0.1000
 Fernandez-Rico         CNVRico         .... off

SCF Procedure:
 Maximum # iterations   MaxIter         ....   125
 SCF integral mode      SCFMode         .... Direct
   Integral package                     .... SHARK and LIBINT hybrid scheme
 Reset frequency        DirectResetFreq ....    20
 Integral Threshold     Thresh          ....  1.000e-10 Eh
 Primitive CutOff       TCut            ....  1.000e-11 Eh

Convergence Tolerance:
 Convergence Check Mode ConvCheckMode   .... Total+1el-Energy
 Convergence forced     ConvForced      .... 0
 Energy Change          TolE            ....  1.000e-06 Eh
 1-El. energy change                    ....  1.000e-03 Eh
 Orbital Gradient       TolG            ....  5.000e-05
 Orbital Rotation angle TolX            ....  5.000e-05
 DIIS Error             TolErr          ....  1.000e-06


Diagonalization of the overlap matrix:
Smallest eigenvalue                        ... 1.811e-04
Time for diagonalization                   ...    0.001 sec
Threshold for overlap eigenvalues          ... 1.000e-08
Number of eigenvalues below threshold      ... 0
Time for construction of square roots      ...    0.001 sec
Total time needed                          ...    0.002 sec

Time for model grid setup =    0.014 sec

------------------------------
INITIAL GUESS: MODEL POTENTIAL
------------------------------
Loading Hartree-Fock densities                     ... done
Calculating cut-offs                               ... done
Initializing the effective Hamiltonian             ... done
Setting up the integral package (SHARK)            ... done
Starting the Coulomb interaction                   ... done (   0.0 sec)
Reading the grid                                   ... done
Mapping shells                                     ... done
Starting the XC term evaluation                    ... done (   0.0 sec)
  promolecular density results
     # of electrons  =     15.998001527
     EX              =    -11.424977688
     EC              =     -0.491702053
     EX+EC           =    -11.916679740
Transforming the Hamiltonian                       ... done (   0.0 sec)
Diagonalizing the Hamiltonian                      ... done (   0.0 sec)
Back transforming the eigenvectors                 ... done (   0.0 sec)
Now organizing SCF variables                       ... done
                      ------------------
                      INITIAL GUESS DONE (   0.0 sec)
                      ------------------
-------------------
DFT GRID GENERATION
-------------------

General Integration Accuracy     IntAcc      ... 4.388
Radial Grid Type                 RadialGrid  ... OptM3 with GC (2021)
Angular Grid (max. ang.)         AngularGrid ... 4 (Lebedev-302)
Angular grid pruning method      GridPruning ... 4 (adaptive)
Weight generation scheme         WeightScheme... Becke
Basis function cutoff            BFCut       ... 1.0000e-10
Integration weight cutoff        WCut        ... 1.0000e-14
Angular grids for H and He will be reduced by one unit
Partially contracted basis set               ... off
Rotationally invariant grid construction     ... off

Total number of grid points                  ...    25280
Total number of batches                      ...      398
Average number of points per batch           ...       63
Average number of grid points per atom       ...     4213
Time for grid setup =    0.089 sec

--------------------
COSX GRID GENERATION
--------------------

GRIDX 1
-------
General Integration Accuracy     IntAcc      ... 3.816
Radial Grid Type                 RadialGrid  ... OptM3 with GC (2021)
Angular Grid (max. ang.)         AngularGrid ... 1 (Lebedev-50)
Angular grid pruning method      GridPruning ... 4 (adaptive)
Weight generation scheme         WeightScheme... Becke
Basis function cutoff            BFCut       ... 1.0000e-10
Integration weight cutoff        WCut        ... 1.0000e-14
Angular grids for H and He will be reduced by one unit
Partially contracted basis set               ... on
Rotationally invariant grid construction     ... off

Total number of grid points                  ...     3280
Total number of batches                      ...       54
Average number of points per batch           ...       60
Average number of grid points per atom       ...      547
UseSFitting                                  ... on

GRIDX 2
-------
General Integration Accuracy     IntAcc      ... 4.020
Radial Grid Type                 RadialGrid  ... OptM3 with GC (2021)
Angular Grid (max. ang.)         AngularGrid ... 2 (Lebedev-110)
Angular grid pruning method      GridPruning ... 4 (adaptive)
Weight generation scheme         WeightScheme... Becke
Basis function cutoff            BFCut       ... 1.0000e-10
Integration weight cutoff        WCut        ... 1.0000e-14
Angular grids for H and He will be reduced by one unit
Partially contracted basis set               ... on
Rotationally invariant grid construction     ... off

Total number of grid points                  ...     6912
Total number of batches                      ...      112
Average number of points per batch           ...       61
Average number of grid points per atom       ...     1152
UseSFitting                                  ... on

GRIDX 3
-------
General Integration Accuracy     IntAcc      ... 4.338
Radial Grid Type                 RadialGrid  ... OptM3 with GC (2021)
Angular Grid (max. ang.)         AngularGrid ... 3 (Lebedev-194)
Angular grid pruning method      GridPruning ... 4 (adaptive)
Weight generation scheme         WeightScheme... Becke
Basis function cutoff            BFCut       ... 1.0000e-10
Integration weight cutoff        WCut        ... 1.0000e-14
Angular grids for H and He will be reduced by one unit
Partially contracted basis set               ... on
Rotationally invariant grid construction     ... off

Total number of grid points                  ...    15252
Total number of batches                      ...      242
Average number of points per batch           ...       63
Average number of grid points per atom       ...     2542
UseSFitting                                  ... on

Time for X-Grid setup             =    0.059 sec

--------------
SCF ITERATIONS
--------------
ITER       Energy         Delta-E        Max-DP      RMS-DP      [F,P]     Damp
               ***  Starting incremental Fock matrix formation  ***
  0    -78.4749762174   0.000000000000 0.03606832  0.00105569  0.1740955 0.7000
  1    -78.5176350411  -0.042658823756 0.02162060  0.00076258  0.0940953 0.7000
                               ***Turning on DIIS***
  2    -78.5355030685  -0.017868027408 0.03248532  0.00131306  0.0376719 0.0000
  3    -78.5591325802  -0.023629511698 0.01376912  0.00051286  0.0507962 0.0000
  4    -78.5668414402  -0.007708859933 0.00284729  0.00016576  0.0119839 0.0000
                      *** Initiating the SOSCF procedure ***
                           *** Shutting down DIIS ***
                      *** Re-Reading the Fockian *** 
                      *** Removing any level shift *** 
ITER      Energy       Delta-E        Grad      Rot      Max-DP    RMS-DP
  5    -78.56730021  -0.0004587680  0.001332  0.001332  0.001299  0.000071
               *** Restarting incremental Fock matrix formation ***
  6    -78.56732417  -0.0000239623  0.000525  0.001057  0.000881  0.000049
  7    -78.56732469  -0.0000005231  0.000319  0.000267  0.000256  0.000008
  8    -78.56732590  -0.0000012077  0.000023  0.000029  0.000042  0.000002
                 **** Energy Check signals convergence ****
              ***Rediagonalizing the Fockian in SOSCF/NRSCF***

               *****************************************************
               *                     SUCCESS                       *
               *           SCF CONVERGED AFTER   9 CYCLES          *
               *****************************************************

Old exchange energy                            =     -2.348653630 Eh
New exchange energy                            =     -2.348659692 Eh
Exchange energy change after final integration =     -0.000006062 Eh
Total energy after final integration           =    -78.567331973 Eh
Final COS-X integration done in                =     0.155 sec

----------------
TOTAL SCF ENERGY
----------------

Total Energy       :          -78.56733197 Eh           -2137.92579 eV

Components:
Nuclear Repulsion  :           33.48496686 Eh             911.17227 eV
Electronic Energy  :         -112.05229883 Eh           -3049.09806 eV
One Electron Energy:         -170.56097777 Eh           -4641.20016 eV
Two Electron Energy:           58.50867894 Eh            1592.10209 eV
Max COSX asymmetry :            0.00000115 Eh               0.00003 eV

Virial components:
Potential Energy   :         -156.73000249 Eh           -4264.84019 eV
Kinetic Energy     :           78.16267052 Eh            2126.91440 eV
Virial Ratio       :            2.00517717


DFT components:
N(Alpha)           :        7.999995770089 electrons
N(Beta)            :        7.999995770089 electrons
N(Total)           :       15.999991540177 electrons
E(X)               :       -9.316683405197 Eh       
E(C)               :       -0.591910979223 Eh       
E(XC)              :       -9.908594384420 Eh       
DFET-embed. en.    :        0.000000000000 Eh       

---------------
SCF CONVERGENCE
---------------

  Last Energy change         ...   -9.9536e-09  Tolerance :   1.0000e-06
  Last MAX-Density change    ...    9.9920e-16  Tolerance :   1.0000e-05
  Last RMS-Density change    ...    1.8175e-17  Tolerance :   1.0000e-06
  Last Orbital Gradient      ...    6.4953e-06  Tolerance :   5.0000e-05
  Last Orbital Rotation      ...    7.5691e-06  Tolerance :   5.0000e-05

             **** THE GBW FILE WAS UPDATED (nmr.gbw) ****
             **** DENSITY nmr.scfp WAS UPDATED ****
             **** ENERGY FILE WAS UPDATED (nmr.en.tmp) ****
             **** THE GBW FILE WAS UPDATED (nmr.gbw) ****
             **** DENSITY nmr.scfp WAS UPDATED ****
----------------
ORBITAL ENERGIES
----------------

  NO   OCC          E(Eh)            E(eV) 
   0   2.0000     -10.170072      -276.7417 
   1   2.0000     -10.169138      -276.7163 
   2   2.0000      -0.762862       -20.7585 
   3   2.0000      -0.580858       -15.8059 
   4   2.0000      -0.471529       -12.8310 
   5   2.0000      -0.423828       -11.5330 
   6   2.0000      -0.356643        -9.7048 
   7   2.0000      -0.278262        -7.5719 
   8   0.0000      -0.002168        -0.0590 
   9   0.0000       0.066921         1.8210 
  10   0.0000       0.090964         2.4752 
  11   0.0000       0.092883         2.5275 
  12   0.0000       0.152587         4.1521 
  13   0.0000       0.189925         5.1681 
  14   0.0000       0.208744         5.6802 
  15   0.0000       0.218696         5.9510 
  16   0.0000       0.221865         6.0373 
  17   0.0000       0.268160         7.2970 
  18   0.0000       0.310537         8.4501 
  19   0.0000       0.340146         9.2558 
  20   0.0000       0.419332        11.4106 
  21   0.0000       0.453700        12.3458 
  22   0.0000       0.463017        12.5993 
  23   0.0000       0.489203        13.3119 
  24   0.0000       0.503844        13.7103 
  25   0.0000       0.555600        15.1187 
  26   0.0000       0.618990        16.8436 
  27   0.0000       0.644403        17.5351 
  28   0.0000       0.680672        18.5220 
  29   0.0000       0.770789        20.9742 
  30   0.0000       0.874836        23.8055 
  31   0.0000       0.884003        24.0549 
  32   0.0000       0.887020        24.1370 
  33   0.0000       0.966534        26.3007 
  34   0.0000       1.004420        27.3317 
  35   0.0000       1.022413        27.8213 
  36   0.0000       1.029646        28.0181 
  37   0.0000       1.128384        30.7049 
  38   0.0000       1.171676        31.8829 
  39   0.0000       1.217316        33.1249 
  40   0.0000       1.222875        33.2761 
  41   0.0000       1.256288        34.1853 
  42   0.0000       1.319464        35.9045 
  43   0.0000       1.329892        36.1882 
  44   0.0000       1.400931        38.1213 
  45   0.0000       1.411416        38.4066 
  46   0.0000       1.426679        38.8219 
  47   0.0000       1.501092        40.8468 
  48   0.0000       1.515074        41.2272 
  49   0.0000       1.550684        42.1963 
  50   0.0000       1.616058        43.9752 
  51   0.0000       1.675692        45.5979 
  52   0.0000       1.939101        52.7656 
  53   0.0000       2.006782        54.6073 
  54   0.0000       2.021389        55.0048 
  55   0.0000       2.155451        58.6528 
  56   0.0000       2.423818        65.9555 
  57   0.0000       2.447441        66.5982 
  58   0.0000       2.621171        71.3257 
  59   0.0000       2.644747        71.9672 
  60   0.0000       2.688749        73.1646 
  61   0.0000       2.721751        74.0626 
  62   0.0000       2.747763        74.7704 
  63   0.0000       2.752823        74.9081 
  64   0.0000       2.792430        75.9859 
  65   0.0000       2.793042        76.0025 
  66   0.0000       2.824414        76.8562 
  67   0.0000       2.859838        77.8202 
  68   0.0000       2.885370        78.5149 
  69   0.0000       3.023145        82.2640 
  70   0.0000       3.113114        84.7121 
  71   0.0000       3.121468        84.9395 
  72   0.0000       3.175675        86.4145 
  73   0.0000       3.209689        87.3401 
  74   0.0000       3.210634        87.3658 
  75   0.0000       3.298432        89.7549 
  76   0.0000       3.315388        90.2163 
  77   0.0000       3.366275        91.6010 
  78   0.0000       3.445214        93.7490 
  79   0.0000       3.450994        93.9063 
  80   0.0000       3.590574        97.7045 
  81   0.0000       3.674133        99.9782 
  82   0.0000       3.700464       100.6948 
  83   0.0000       3.713546       101.0507 
  84   0.0000       3.716256       101.1245 
  85   0.0000       3.766552       102.4931 
  86   0.0000       3.806966       103.5928 
  87   0.0000       3.868746       105.2739 
  88   0.0000       3.904900       106.2577 
  89   0.0000       3.918568       106.6297 
  90   0.0000       3.985886       108.4615 
  91   0.0000       4.009146       109.0944 
  92   0.0000       4.042094       109.9910 
  93   0.0000       4.136717       112.5658 
  94   0.0000       4.171052       113.5001 
  95   0.0000       4.237920       115.3197 
  96   0.0000       4.306933       117.1976 
  97   0.0000       4.335838       117.9842 
  98   0.0000       4.484872       122.0396 
  99   0.0000       4.498497       122.4103 
 100   0.0000       4.517971       122.9402 
 101   0.0000       4.613652       125.5439 
 102   0.0000       4.638139       126.2102 
 103   0.0000       4.871939       132.5722 
 104   0.0000       4.977880       135.4550 
 105   0.0000       4.980810       135.5347 
 106   0.0000       5.002564       136.1267 
 107   0.0000       5.093890       138.6118 
 108   0.0000       5.176531       140.8606 
 109   0.0000       5.234081       142.4266 
 110   0.0000       5.327132       144.9586 
 111   0.0000       5.392303       146.7320 
 112   0.0000       5.433810       147.8615 
 113   0.0000       5.778427       157.2390 
 114   0.0000       5.908107       160.7678 
 115   0.0000       6.459172       175.7630 
 116   0.0000      22.993980       625.6980 
 117   0.0000      23.635239       643.1476 

                    ********************************
                    * MULLIKEN POPULATION ANALYSIS *
                    ********************************

-----------------------
MULLIKEN ATOMIC CHARGES
-----------------------
   0 C :   -0.214029
   1 C :   -0.214061
   2 H :    0.107011
   3 H :    0.107020
   4 H :    0.107032
   5 H :    0.107028
Sum of atomic charges:    0.0000000

--------------------------------
MULLIKEN REDUCED ORBITAL CHARGES
--------------------------------
  0 C s       :     3.233046  s :     3.233046
      pz      :     1.003075  p :     2.916210
      px      :     0.937362
      py      :     0.975774
      dz2     :     0.001932  d :     0.060273
      dxz     :     0.032207
      dyz     :     0.003426
      dx2y2   :     0.003125
      dxy     :     0.019584
      f0      :     0.000455  f :     0.004500
      f+1     :     0.000368
      f-1     :     0.000462
      f+2     :     0.001032
      f-2     :     0.000413
      f+3     :     0.000216
      f-3     :     0.001554
  1 C s       :     3.233062  s :     3.233062
      pz      :     1.003072  p :     2.916225
      px      :     0.937378
      py      :     0.975775
      dz2     :     0.001932  d :     0.060275
      dxz     :     0.032207
      dyz     :     0.003428
      dx2y2   :     0.003124
      dxy     :     0.019583
      f0      :     0.000455  f :     0.004500
      f+1     :     0.000368
      f-1     :     0.000462
      f+2     :     0.001032
      f-2     :     0.000413
      f+3     :     0.000216
      f-3     :     0.001554
  2 H s       :     0.858392  s :     0.858392
      pz      :     0.012182  p :     0.033096
      px      :     0.008958
      py      :     0.011956
      dz2     :     0.000495  d :     0.001502
      dxz     :     0.000203
      dyz     :     0.000202
      dx2y2   :     0.000350
      dxy     :     0.000252
  3 H s       :     0.858384  s :     0.858384
      pz      :     0.012182  p :     0.033094
      px      :     0.008957
      py      :     0.011956
      dz2     :     0.000495  d :     0.001502
      dxz     :     0.000203
      dyz     :     0.000202
      dx2y2   :     0.000350
      dxy     :     0.000252
  4 H s       :     0.858373  s :     0.858373
      pz      :     0.012180  p :     0.033093
      px      :     0.008958
      py      :     0.011955
      dz2     :     0.000495  d :     0.001502
      dxz     :     0.000203
      dyz     :     0.000202
      dx2y2   :     0.000350
      dxy     :     0.000252
  5 H s       :     0.858376  s :     0.858376
      pz      :     0.012180  p :     0.033094
      px      :     0.008959
      py      :     0.011955
      dz2     :     0.000495  d :     0.001502
      dxz     :     0.000203
      dyz     :     0.000202
      dx2y2   :     0.000350
      dxy     :     0.000252


                     *******************************
                     * LOEWDIN POPULATION ANALYSIS *
                     *******************************

----------------------
LOEWDIN ATOMIC CHARGES
----------------------
   0 C :    0.003489
   1 C :    0.003488
   2 H :   -0.001745
   3 H :   -0.001745
   4 H :   -0.001744
   5 H :   -0.001744

-------------------------------
LOEWDIN REDUCED ORBITAL CHARGES
-------------------------------
  0 C s       :     2.771649  s :     2.771649
      pz      :     0.968529  p :     2.928634
      px      :     1.061957
      py      :     0.898149
      dz2     :     0.023878  d :     0.267561
      dxz     :     0.121490
      dyz     :     0.014292
      dx2y2   :     0.040612
      dxy     :     0.067289
      f0      :     0.004250  f :     0.028666
      f+1     :     0.003996
      f-1     :     0.002012
      f+2     :     0.004984
      f-2     :     0.002319
      f+3     :     0.004638
      f-3     :     0.006467
  1 C s       :     2.771650  s :     2.771650
      pz      :     0.968528  p :     2.928635
      px      :     1.061957
      py      :     0.898149
      dz2     :     0.023878  d :     0.267561
      dxz     :     0.121490
      dyz     :     0.014292
      dx2y2   :     0.040612
      dxy     :     0.067289
      f0      :     0.004250  f :     0.028666
      f+1     :     0.003996
      f-1     :     0.002012
      f+2     :     0.004984
      f-2     :     0.002319
      f+3     :     0.004638
      f-3     :     0.006467
  2 H s       :     0.823765  s :     0.823765
      pz      :     0.058635  p :     0.149579
      px      :     0.043909
      py      :     0.047035
      dz2     :     0.007277  d :     0.028401
      dxz     :     0.006898
      dyz     :     0.005963
      dx2y2   :     0.004128
      dxy     :     0.004136
  3 H s       :     0.823765  s :     0.823765
      pz      :     0.058635  p :     0.149579
      px      :     0.043908
      py      :     0.047035
      dz2     :     0.007277  d :     0.028401
      dxz     :     0.006898
      dyz     :     0.005963
      dx2y2   :     0.004128
      dxy     :     0.004136
  4 H s       :     0.823765  s :     0.823765
      pz      :     0.058635  p :     0.149578
      px      :     0.043908
      py      :     0.047035
      dz2     :     0.007276  d :     0.028401
      dxz     :     0.006898
      dyz     :     0.005963
      dx2y2   :     0.004128
      dxy     :     0.004136
  5 H s       :     0.823765  s :     0.823765
      pz      :     0.058635  p :     0.149578
      px      :     0.043908
      py      :     0.047035
      dz2     :     0.007276  d :     0.028401
      dxz     :     0.006898
      dyz     :     0.005963
      dx2y2   :     0.004128
      dxy     :     0.004136


                      *****************************
                      * MAYER POPULATION ANALYSIS *
                      *****************************

  NA   - Mulliken gross atomic population
  ZA   - Total nuclear charge
  QA   - Mulliken gross atomic charge
  VA   - Mayer's total valence
  BVA  - Mayer's bonded valence
  FA   - Mayer's free valence

  ATOM       NA         ZA         QA         VA         BVA        FA
  0 C      6.2140     6.0000    -0.2140     3.8882     3.8882     0.0000
  1 C      6.2141     6.0000    -0.2141     3.8882     3.8882     0.0000
  2 H      0.8930     1.0000     0.1070     0.9964     0.9964     0.0000
  3 H      0.8930     1.0000     0.1070     0.9964     0.9964     0.0000
  4 H      0.8930     1.0000     0.1070     0.9964     0.9964    -0.0000
  5 H      0.8930     1.0000     0.1070     0.9964     0.9964     0.0000

  Mayer bond orders larger than 0.100000
B(  0-C ,  1-C ) :   1.9081 B(  0-C ,  2-H ) :   0.9785 B(  0-C ,  3-H ) :   0.9785 
B(  1-C ,  4-H ) :   0.9785 B(  1-C ,  5-H ) :   0.9785 

-------
TIMINGS
-------

Total SCF time: 0 days 0 hours 0 min 1 sec 

Total time                  ....       1.491 sec
Sum of individual times     ....       1.428 sec  ( 95.8%)

Fock matrix formation       ....       1.201 sec  ( 80.5%)
  Split-RI-J                ....       0.150 sec  ( 12.5% of F)
  Chain of spheres X        ....       0.820 sec  ( 68.3% of F)
  XC integration            ....       0.211 sec  ( 17.6% of F)
    Basis function eval.    ....       0.056 sec  ( 26.4% of XC)
    Density eval.           ....       0.045 sec  ( 21.5% of XC)
    XC-Functional eval.     ....       0.011 sec  (  5.3% of XC)
    XC-Potential eval.      ....       0.074 sec  ( 35.2% of XC)
Diagonalization             ....       0.019 sec  (  1.3%)
Density matrix formation    ....       0.003 sec  (  0.2%)
Population analysis         ....       0.005 sec  (  0.3%)
Initial guess               ....       0.014 sec  (  0.9%)
Orbital Transformation      ....       0.000 sec  (  0.0%)
Orbital Orthonormalization  ....       0.000 sec  (  0.0%)
DIIS solution               ....       0.016 sec  (  1.1%)
SOSCF solution              ....       0.009 sec  (  0.6%)
Grid generation             ....       0.161 sec  ( 10.8%)

Maximum memory used throughout the entire SCF-calculation: 60.4 MB

-------------------------   --------------------
FINAL SINGLE POINT ENERGY       -78.567331973286
-------------------------   --------------------


                            ***************************************
                            *     ORCA property calculations      *
                            ***************************************

                                    ---------------------
                                    Active property flags
                                    ---------------------
   (+) Dipole Moment
   (+) Chemical Shifts
   (+) Nuclear properties (Hyperfine,Quadrupole)


------------------------------------------------------------------------------
                       ORCA ELECTRIC PROPERTIES CALCULATION
------------------------------------------------------------------------------

Dipole Moment Calculation                       ... on
Quadrupole Moment Calculation                   ... off
Polarizability Calculation                      ... off
GBWName                                         ... nmr.gbw
Electron density                                ... nmr.scfp
The origin for moment calculation is the CENTER OF MASS  = ( 3.241907, -0.150800 -0.092250)

-------------
DIPOLE MOMENT
-------------
                                X             Y             Z
Electronic contribution:     -0.00000      -0.00000      -0.00000
Nuclear contribution   :      0.00000       0.00000       0.00000
                        -----------------------------------------
Total Dipole Moment    :     -0.00000      -0.00000       0.00000
                        -----------------------------------------
Magnitude (a.u.)       :      0.00000
Magnitude (Debye)      :      0.00000



--------------------
Rotational spectrum 
--------------------
 
Rotational constants in cm-1:     4.927911     1.011868     0.839492 
Rotational constants in MHz : 147735.062279 30335.032678 25167.324940 

 Dipole components along the rotational axes: 
x,y,z [a.u.] :    -0.000000    -0.000000    -0.000000 
x,y,z [Debye]:    -0.000001    -0.000000    -0.000000 

 


           ************************************************************
           *        Program running with 8 parallel MPI-processes     *
           *              working on a common directory               *
           ************************************************************
------------------------------------------------------------------------------
                                ORCA EPR/NMR CALCULATION
------------------------------------------------------------------------------

GBWName                      ... nmr.gbw
Electron density             ... nmr.scfp
Spin density                 ... nmr.scfr
Treatment of gauge           ... GIAO (approximations 1/2el = 0,0)
Details of the CP(SCF) procedure:
       Solver   = POPLE   
       MaxIter  =    64   
       Tolerance=    1.000e-03
       COSX Grid=     1   
       Op-0     =   0-  7 =>   8-117
Multiplicity                 ... 1
g-tensor                     ... 0
NMR chemical shifts          ... 1
NMR spin-spin couplings      ... 0
NMR spectrum                 ... 0
Number of nuclei for epr/nmr ... 6
   Nucleus:   2H 
       Hyperfine : Isotope=    0 I=   0.000 P=   0.000
       Quadrupole: Isotope=    0 I=   0.000 Q=   0.000
       Spin-Orbit: Zeff=   1.000
       Nuclear Spin-Spin: Gn=   0.000
       EPRNMR Input: 
       rho(0)=N f(grad)=N a(iso)=N a(dip)=N a(orb)=N sigma(nmr)=Y spin-spin(nmr)=all-N,DSO-N,PSO-N,FC-N,SD-N
   Nucleus:   3H 
       Hyperfine : Isotope=    0 I=   0.000 P=   0.000
       Quadrupole: Isotope=    0 I=   0.000 Q=   0.000
       Spin-Orbit: Zeff=   1.000
       Nuclear Spin-Spin: Gn=   0.000
       EPRNMR Input: 
       rho(0)=N f(grad)=N a(iso)=N a(dip)=N a(orb)=N sigma(nmr)=Y spin-spin(nmr)=all-N,DSO-N,PSO-N,FC-N,SD-N
   Nucleus:   4H 
       Hyperfine : Isotope=    0 I=   0.000 P=   0.000
       Quadrupole: Isotope=    0 I=   0.000 Q=   0.000
       Spin-Orbit: Zeff=   1.000
       Nuclear Spin-Spin: Gn=   0.000
       EPRNMR Input: 
       rho(0)=N f(grad)=N a(iso)=N a(dip)=N a(orb)=N sigma(nmr)=Y spin-spin(nmr)=all-N,DSO-N,PSO-N,FC-N,SD-N
   Nucleus:   5H 
       Hyperfine : Isotope=    0 I=   0.000 P=   0.000
       Quadrupole: Isotope=    0 I=   0.000 Q=   0.000
       Spin-Orbit: Zeff=   1.000
       Nuclear Spin-Spin: Gn=   0.000
       EPRNMR Input: 
       rho(0)=N f(grad)=N a(iso)=N a(dip)=N a(orb)=N sigma(nmr)=Y spin-spin(nmr)=all-N,DSO-N,PSO-N,FC-N,SD-N
   Nucleus:   0C 
       Hyperfine : Isotope=    0 I=   0.000 P=   0.000
       Quadrupole: Isotope=    0 I=   0.000 Q=   0.000
       Spin-Orbit: Zeff=   3.600
       Nuclear Spin-Spin: Gn=   0.000
       EPRNMR Input: 
       rho(0)=N f(grad)=N a(iso)=N a(dip)=N a(orb)=N sigma(nmr)=Y spin-spin(nmr)=all-N,DSO-N,PSO-N,FC-N,SD-N
   Nucleus:   1C 
       Hyperfine : Isotope=    0 I=   0.000 P=   0.000
       Quadrupole: Isotope=    0 I=   0.000 Q=   0.000
       Spin-Orbit: Zeff=   3.600
       Nuclear Spin-Spin: Gn=   0.000
       EPRNMR Input: 
       rho(0)=N f(grad)=N a(iso)=N a(dip)=N a(orb)=N sigma(nmr)=Y spin-spin(nmr)=all-N,DSO-N,PSO-N,FC-N,SD-N
Forming RHS of the CP-SCF equations         ... 
Calculating right hand sides for GIAO treatment        ... 
  Entering RightHandSide GIAO. ScalHFX=    0.2000 NeedHFX=1
     -> 1-electron GIAO integrals will be done analytically
     -> RIJCOSX used in SCF. Same chosen for GIAO calculation.
     Making grid for GIAO integrations   ...

GRID GIAO
---------

General Integration Accuracy     IntAcc      ... 4.388
Radial Grid Type                 RadialGrid  ... OptM3 with GC (2021)
Angular Grid (max. ang.)         AngularGrid ... 4 (Lebedev-302)
Angular grid pruning method      GridPruning ... 4 (adaptive)
Weight generation scheme         WeightScheme... Becke
Basis function cutoff            BFCut       ... 1.0000e-10
Integration weight cutoff        WCut        ... 1.0000e-14
Angular grids for H and He will be reduced by one unit
Partially contracted basis set               ... off
Rotationally invariant grid construction     ... off

Total number of grid points                  ...    25280
Total number of batches                      ...      398
Average number of points per batch           ...       63
Average number of grid points per atom       ...     4213

  One-electron GIAO integrals (SHARK)     ... done
  Calculating G(B)[P]                     ... (RI-J: SHARK-ok) (COSX-ok) (add-J+K:ok) => dG/dB done
  DFT XC-terms                            ... done
  Extracting occupied and virtual blocks  ... 
  Operator  0  NO=   8 NV= 110 
  Transforming and RHS contribution       ... done
  Adding eps_i * S(B)_ai terms            ... done
  Projecting overlap derivatives          ... done
  Building G[dS/dB_ij] (COSX)             ... done
  Transforming to MO basis                ... done
  Summing G[dS/dB_ij] into RHS contribs.  ... done

  GIAO profiling information: 
    Total GIAO time               ...       0.6 sec
       GIAO 1-electron integrals  ...       0.0 sec (  1.5%)
       GIAO G(dS/dB) terms        ...       0.0 sec (  8.6%)
       GIAO RI-J                  ...       0.0 sec (  5.8%)
       GIAO COSX                  ...       0.1 sec ( 20.0%)
       GIAO XC-terms              ...       0.3 sec ( 47.4%)
       Right hand side assembly   ...       0.0 sec (  0.2%)

  GIAO right hand side done


------------------------------------------------------------------------------
                           ORCA CP-SCF CALCULATION
------------------------------------------------------------------------------

Input orbitals are from        ... nmr.gbw
Input Perturbation             ... nmr.pin.tmp
Wavefunction output            ... nmr.pout.tmp
Perturbation mode              ... Imaginary perturbation
Solver                         ... POPLE
Max. number of iterations      ... 64
Convergence tolerance          ... 1.000e-03
Integral handling              ... Direct
DFT GridXC                     ... 1
COSX GridX                     ... 1
COSX IntAccX                   ... 3.067
COSX Algorithm                 ... Auto
Number of perturbations        ... 3
Number of operators            ... 1
Orbital ranges used for CP-SCF:
 Operator 0:  Orbitals   0...  7  to   8...117
Variables per perturbation     ... 880
DFT calculation                         ... on
XC functional terms                     ... off
Hybrid DFT                              ... on
   Exchange mixing (SCF)                ...  0.200
   Exchange mixing (CP-SCF)             ...  0.200
   GGA exch. scaling(SCF)               ...  0.720
   GGA exch. scaling (CP-SCF)           ...  0.720
   GGA corr. scaling (SCF)              ...  0.810
   GGA corr. scaling (CP-SCF)           ...  0.810

CP-SCF GRID
-----------

General Integration Accuracy     IntAcc      ... 3.467
Radial Grid Type                 RadialGrid  ... OptM3 with GC (2021)
Angular Grid (max. ang.)         AngularGrid ... 1 (Lebedev-50)
Angular grid pruning method      GridPruning ... 4 (adaptive)
Weight generation scheme         WeightScheme... Becke
Basis function cutoff            BFCut       ... 1.0000e-10
Integration weight cutoff        WCut        ... 1.0000e-14
Angular grids for H and He will be reduced by one unit
Partially contracted basis set               ... off
Rotationally invariant grid construction     ... off

Total number of grid points                  ...     3602
Total number of batches                      ...       60
Average number of points per batch           ...       60
Average number of grid points per atom       ...      600

CP-SCF GRIDX
------------

General Integration Accuracy     IntAcc      ... 3.067
Radial Grid Type                 RadialGrid  ... OptM3 with GC (2021)
Angular Grid (max. ang.)         AngularGrid ... 1 (Lebedev-50)
Angular grid pruning method      GridPruning ... 4 (adaptive)
Weight generation scheme         WeightScheme... Becke
Basis function cutoff            BFCut       ... 1.0000e-10
Integration weight cutoff        WCut        ... 1.0000e-14
Angular grids for H and He will be reduced by one unit
Partially contracted basis set               ... on
Rotationally invariant grid construction     ... off

Total number of grid points                  ...     1666
Total number of batches                      ...       30
Average number of points per batch           ...       55
Average number of grid points per atom       ...      278

Memory available               ... 31990.0 MB
Memory needed per perturbation ...   0.5 MB
Perturbations treated per batch... 3
Number of batches              ... 1
     CP-SCF ITERATION   0:   2.1247e-01 (   0.0 sec   0/  3 done)
     CP-SCF ITERATION   1:   3.9786e-03 (   0.0 sec   0/  3 done)
     CP-SCF ITERATION   2:   1.9312e-04 (   0.0 sec   3/  3 done)
                    *** THE CP-SCF HAS CONVERGED ***

Forming final perturbed densities           ... done
Transforming perturbed density to AO basis  ... done

Magnetic field perturbation calculated in  0.757 sec

---------------
CHEMICAL SHIFTS
---------------

Note: using conversion factor for au to ppm alpha^2/2 =   26.625677252 
GIAO: Analytic para- and diamagnetic shielding integrals (SHARK)       ...done
 --------------
 Nucleus   2H :
 --------------

Diamagnetic contribution to the shielding tensor (ppm) : 
            32.314          3.665         5.986
             3.730         29.475         3.834
             6.251          3.932        33.561

Paramagnetic contribution to the shielding tensor (ppm): 
            -3.394         -3.083        -5.009
            -4.281         -4.273        -5.133
            -7.171         -5.231        -9.761

Total shielding tensor (ppm): 
            28.920          0.582         0.976
            -0.551         25.202        -1.300
            -0.920         -1.299        23.800


 Diagonalized sT*s matrix:
 
 sDSO            35.521           27.131           32.698  iso=      31.783
 sPSO           -12.494           -1.153           -3.781  iso=      -5.809
        ---------------  ---------------  ---------------
 Total           23.027           25.978           28.917  iso=      25.974

 --------------
 Nucleus   3H :
 --------------

Diamagnetic contribution to the shielding tensor (ppm) : 
            32.314         -3.526        -6.069
            -3.730         29.661         3.723
            -6.251          3.629        33.742

Paramagnetic contribution to the shielding tensor (ppm): 
            -3.394          2.944         5.092
             4.281         -4.458        -5.023
             7.171         -4.928        -9.942

Total shielding tensor (ppm): 
            28.920         -0.583        -0.976
             0.551         25.202        -1.300
             0.920         -1.299        23.800


 Diagonalized sT*s matrix:
 
 sDSO            35.521           27.497           32.698  iso=      31.905
 sPSO           -12.494           -1.519           -3.781  iso=      -5.931
        ---------------  ---------------  ---------------
 Total           23.027           25.978           28.917  iso=      25.974

 --------------
 Nucleus   4H :
 --------------

Diamagnetic contribution to the shielding tensor (ppm) : 
            32.313         -3.665        -5.986
            -3.726         24.772         6.642
            -6.254          6.738        31.885

Paramagnetic contribution to the shielding tensor (ppm): 
            -3.394          3.083         5.009
             4.277          0.432        -7.943
             7.174         -8.038        -8.085

Total shielding tensor (ppm): 
            28.920         -0.582        -0.976
             0.551         25.204        -1.301
             0.920         -1.300        23.801


 Diagonalized sT*s matrix:
 
 sDSO            35.521           20.752           32.698  iso=      29.657
 sPSO           -12.494            5.227           -3.781  iso=      -3.682
        ---------------  ---------------  ---------------
 Total           23.027           25.979           28.917  iso=      25.975

 --------------
 Nucleus   5H :
 --------------

Diamagnetic contribution to the shielding tensor (ppm) : 
            32.313          3.526         6.069
             3.726         24.958         6.531
             6.254          6.435        32.067

Paramagnetic contribution to the shielding tensor (ppm): 
            -3.394         -2.944        -5.092
            -4.277          0.246        -7.832
            -7.174         -7.734        -8.266

Total shielding tensor (ppm): 
            28.920          0.583         0.976
            -0.551         25.204        -1.301
            -0.920         -1.300        23.801


 Diagonalized sT*s matrix:
 
 sDSO            35.521           21.119           32.698  iso=      29.779
 sPSO           -12.494            4.861           -3.781  iso=      -3.805
        ---------------  ---------------  ---------------
 Total           23.027           25.980           28.917  iso=      25.975

 --------------
 Nucleus   0C :
 --------------

Diamagnetic contribution to the shielding tensor (ppm) : 
           266.835          0.048        -0.029
             0.001        244.668         6.601
             0.001          6.603       251.800

Paramagnetic contribution to the shielding tensor (ppm): 
          -202.433         -0.048         0.028
            -0.001       -138.492      -110.899
            -0.000       -110.916      -258.289

Total shielding tensor (ppm): 
            64.402          0.000        -0.000
            -0.000        106.176      -104.299
             0.000       -104.312        -6.490


 Diagonalized sT*s matrix:
 
 sDSO           266.835          255.737          240.731  iso=     254.434
 sPSO          -202.433         -324.440          -72.342  iso=    -199.738
        ---------------  ---------------  ---------------
 Total           64.402          -68.702          168.389  iso=      54.696

 --------------
 Nucleus   1C :
 --------------

Diamagnetic contribution to the shielding tensor (ppm) : 
           266.835         -0.048         0.029
            -0.000        241.415         8.534
             0.001          8.545       250.648

Paramagnetic contribution to the shielding tensor (ppm): 
          -202.433          0.048        -0.029
             0.000       -135.257      -112.830
            -0.001       -112.846      -257.139

Total shielding tensor (ppm): 
            64.402         -0.000        -0.000
             0.000        106.158      -104.296
            -0.000       -104.302        -6.492


 Diagonalized sT*s matrix:
 
 sDSO           266.835          255.739          236.324  iso=     252.966
 sPSO          -202.433         -324.441          -67.955  iso=    -198.276
        ---------------  ---------------  ---------------
 Total           64.402          -68.703          168.369  iso=      54.689



--------------------------------
CHEMICAL SHIELDING SUMMARY (ppm)
--------------------------------


  Nucleus  Element    Isotropic     Anisotropy
  -------  -------  ------------   ------------
      2       H           25.974          4.415 
      3       H           25.974          4.415 
      4       H           25.975          4.414 
      5       H           25.975          4.414 
      0       C           54.696        170.539 
      1       C           54.689        170.519 



Maximum memory used throughout the entire EPRNMR-calculation: 13.6 MB

Timings for individual modules:

Sum of individual times         ...        3.175 sec (=   0.053 min)
GTO integral calculation        ...        0.328 sec (=   0.005 min)  10.3 %
SCF iterations                  ...        1.747 sec (=   0.029 min)  55.0 %
EPR/NMR calculation             ...        1.100 sec (=   0.018 min)  34.6 %
                             ****ORCA TERMINATED NORMALLY****
TOTAL RUN TIME: 0 days 0 hours 0 minutes 3 seconds 488 msec
