14
Coordinates from ORCA-job opt
  C   -1.40976869945558      0.16992992071552     -0.11494110421747
  C   -0.62128251511985      1.24980799341355     -0.12680622333204
  C   0.81055138232175      1.12976793874080      0.14348212999111
  C   1.41116422943831     -0.06463773771003      0.11461802453475
  C   0.62478497454307     -1.30119703259070     -0.23219130922939
  C   -0.83716832688872     -1.18424139108195      0.21129935945140
  H   -2.47634149039786      0.26134530407984     -0.27783912359088
  H   -1.03427139058917      2.23297540893141     -0.31415480879897
  H   1.37873196519164      2.02907752535066      0.34513571378441
  H   2.47806925940248     -0.15210417785906      0.27775316714946
  H   1.08133916609367     -2.18868510599295      0.20844654903904
  H   0.66793353035490     -1.44383622915803     -1.32110751097659
  H   -0.90459337782601     -1.33511965066217      1.29785952592885
  H   -1.43210870706863     -1.97797276617689     -0.24281438973368
