36
Coordinates from ORCA-job opt
  C   2.96550116980305      0.00000040153301      0.99971837245630
  C   1.48294902806183      2.56763585035102      1.00017580196102
  C   -1.48294743063103      2.56763495109651      1.00014018290297
  C   -2.96550194035909     -0.00000069250663      0.99967035480905
  C   -1.48294813464876     -2.56763492679779      1.00027252204518
  C   1.48294724381642     -2.56763487046464      1.00008264097328
  C   3.56965055201029      1.24971252559623      0.99977227857622
  C   2.86725420010565      2.46664925790001      0.99999481787663
  C   0.70245199290002      3.71547565157397      1.00042465178955
  C   -0.70244936170543      3.71547464376949      1.00040947613576
  C   -2.86725308321917      2.46664711144636      0.99980419707352
  C   -3.56965051377926      1.24971128429709      0.99957549505584
  C   -3.56964997060108     -1.24971306311240      0.99971661845156
  C   -2.86725303459685     -2.46664884546137      1.00000899537474
  C   -0.70245132329460     -3.71547404929871      1.00048543597270
  C   0.70244973485226     -3.71547411490357      1.00039434693934
  C   2.86725278608406     -2.46664812047310      0.99975881448902
  C   3.56964962107732     -1.24971219907782      0.99957728516990
  H   1.88538367768820      0.00000110774759      1.00001493044778
  H   0.94421721061339      1.63160956662362      1.00007792546030
  H   -0.94421753949420      1.63160745704593      1.00002882155594
  H   -1.88538475241088     -0.00000167125875      1.00005827909405
  H   -0.94421776661291     -1.63160806090968      1.00007633435368
  H   0.94421668946095     -1.63160832050764      1.00004692017824
  H   4.65341690114870      1.29571483038458      0.99964447770094
  H   3.44866827424689      3.38236312704351      1.00002184781712
  H   1.20464859426675      4.67695415210928      1.00061153494761
  H   -1.20464651875025      4.67695275981317      1.00058003299060
  H   -3.44866701907237      3.38236087067914      0.99971999860143
  H   -4.65341664416662      1.29571343344349      0.99934270432946
  H   -4.65341589922124     -1.29571652192009      0.99953690171011
  H   -3.44866608537851     -3.38236277644470      1.00001841400056
  H   -1.20464884593728     -4.67695159984039      1.00069110245409
  H   1.20464612201417     -4.67695223373438      1.00054630760165
  H   3.44866624594352     -3.38236203070289      0.99965450156396
  H   4.65341581978608     -1.29571488503944      0.99934667713987
