26
Coordinates from ORCA-job opt E -615.391635272615
  C       3.140970      0.535950      0.315820
  C       3.501680     -0.736690     -0.038760
  C       2.496080     -1.670100     -0.329840
  C       1.114270     -1.316850     -0.269660
  C       0.723790     -0.019570      0.106120
  C       1.784800      0.840840      0.358820
  C      -0.703930      0.354060      0.114860
  C      -1.663870     -0.609060     -0.214790
  C      -1.237340     -1.892740     -0.557980
  C       0.123240     -2.238660     -0.589730
  C      -1.262840      1.624970      0.433440
  C      -2.577970      1.969450      0.441150
  C      -3.491960      1.018080      0.131750
  C      -3.049380     -0.273050     -0.198090
  H       3.895890      1.299390      0.528200
  H       4.558070     -0.972240     -0.091890
  H       2.804690     -2.658590     -0.619000
  C       1.491080      2.086850      0.633970
  H      -1.973090     -2.632700     -0.811890
  H       0.410690     -3.235880     -0.874740
  H      -0.811770      2.441330      0.697580
  H      -2.852190      2.998620      0.703970
  H      -4.526710      1.316360      0.159990
  H      -3.795380     -1.000660     -0.438440
  C       0.985680      3.509110      0.948600
  H       0.659850      4.426020      1.151430
26
Coordinates from ORCA-job opt E -615.486629160313
  C       3.138184      0.547445      0.318473
  C       3.475426     -0.735719     -0.039804
  C       2.462602     -1.647042     -0.326048
  C       1.091797     -1.281282     -0.262500
  C       0.700995      0.029994      0.116600
  C       1.786996      0.901557      0.373888
  C      -0.735595      0.376166      0.119201
  C      -1.681896     -0.618759     -0.218134
  C      -1.237054     -1.902620     -0.561373
  C       0.108305     -2.223183     -0.587330
  C      -1.320740      1.629960      0.433601
  C      -2.659021      1.924996      0.427899
  C      -3.554201      0.938266      0.109273
  C      -3.072487     -0.327784     -0.212900
  H       3.908335      1.289434      0.527068
  H       4.525419     -0.994627     -0.098202
  H       2.752621     -2.642792     -0.617063
  C       1.571390      2.195341      0.664361
  H      -1.962873     -2.655289     -0.817792
  H       0.410386     -3.218594     -0.870612
  H      -0.858299      2.479233      0.708628
  H      -2.969660      2.939809      0.686096
  H      -4.602290      1.195387      0.126362
  H      -3.791549     -1.085424     -0.460066
  C       1.244216      3.539193      0.966461
  H       1.013346      4.510574      1.184802
26
Coordinates from ORCA-job opt E -615.551445975784
  C       3.117501      0.565796      0.321148
  C       3.453870     -0.725655     -0.038496
  C       2.446980     -1.633379     -0.323326
  C       1.081879     -1.269736     -0.260621
  C       0.690278      0.046546      0.118530
  C       1.768525      0.937149      0.380882
  C      -0.736680      0.384368      0.120342
  C      -1.683152     -0.620702     -0.218998
  C      -1.235132     -1.912757     -0.563953
  C       0.097111     -2.224662     -0.588122
  C      -1.303291      1.638375      0.436077
  C      -2.652412      1.919071      0.426425
  C      -3.553703      0.919233      0.104093
  C      -3.070220     -0.337880     -0.215420
  H       3.887680      1.302316      0.528900
  H       4.501612     -0.991338     -0.097844
  H       2.731296     -2.632715     -0.614320
  C       1.554689      2.261472      0.680257
  H      -1.961110     -2.668393     -0.820448
  H       0.405353     -3.220186     -0.870140
  H      -0.799927      2.497818      0.716109
  H      -2.972083      2.927165      0.682236
  H      -4.606432      1.162513      0.117278
  H      -3.782486     -1.105856     -0.464665
  C       1.286759      3.476178      0.955119
  H       1.077443      4.469502      1.179848
26
Coordinates from ORCA-job opt E -615.566046778863
  C       3.078538      0.585754      0.319940
  C       3.418090     -0.714837     -0.034474
  C       2.420237     -1.614518     -0.319351
  C       1.065165     -1.246853     -0.262409
  C       0.672752      0.078278      0.108399
  C       1.742486      0.988909      0.381378
  C      -0.752492      0.395234      0.113507
  C      -1.691341     -0.628464     -0.225802
  C      -1.234872     -1.928853     -0.571382
  C       0.083558     -2.223511     -0.589988
  C      -1.308906      1.645977      0.435489
  C      -2.670738      1.892774      0.423330
  C      -3.569922      0.875775      0.095384
  C      -3.074969     -0.366377     -0.223047
  H       3.848929      1.313548      0.532142
  H       4.461913     -0.994303     -0.087272
  H       2.688053     -2.623270     -0.604385
  C       1.562552      2.353758      0.700615
  H      -1.960969     -2.689762     -0.824897
  H       0.408945     -3.218467     -0.863539
  H      -0.748031      2.502122      0.717617
  H      -3.014666      2.886890      0.678370
  H      -4.631291      1.087165      0.102678
  H      -3.767651     -1.157964     -0.476021
  C       1.422786      3.471053      0.962746
  H       1.296193      4.494181      1.201863
26
Coordinates from ORCA-job opt E -615.561306439116
  C       3.039666      0.590322      0.312332
  C       3.396896     -0.707576     -0.032851
  C       2.408638     -1.614602     -0.322269
  C       1.051494     -1.251947     -0.274931
  C       0.650166      0.073507      0.081383
  C       1.704063      0.991857      0.364336
  C      -0.769739      0.378928      0.094910
  C      -1.703110     -0.651545     -0.236014
  C      -1.242803     -1.954860     -0.578238
  C       0.077305     -2.241282     -0.595368
  C      -1.314467      1.633122      0.420852
  C      -2.677702      1.870383      0.416664
  C      -3.578044      0.850150      0.093168
  C      -3.085700     -0.393100     -0.226746
  H       3.800845      1.323435      0.535830
  H       4.442151     -0.981977     -0.071479
  H       2.677067     -2.626218     -0.596871
  C       1.545828      2.360770      0.703497
  H      -1.968074     -2.719752     -0.824658
  H       0.414725     -3.236005     -0.858028
  H      -0.726354      2.483934      0.694868
  H      -3.028899      2.861031      0.671621
  H      -4.641517      1.051750      0.102557
  H      -3.773033     -1.192209     -0.475929
  C       1.546329      3.607049      1.019652
  H       1.498620      4.659073      1.272603
26
Coordinates from ORCA-job opt E -615.572695291481
  C       3.047013      0.594514      0.310259
  C       3.401146     -0.707722     -0.029084
  C       2.411825     -1.613621     -0.320604
  C       1.055747     -1.248411     -0.278608
  C       0.658443      0.079947      0.070180
  C       1.712932      1.002043      0.359001
  C      -0.764343      0.384701      0.091172
  C      -1.700557     -0.644264     -0.237185
  C      -1.241994     -1.949750     -0.579731
  C       0.076698     -2.238064     -0.595989
  C      -1.304024      1.640283      0.422438
  C      -2.666193      1.878343      0.424111
  C      -3.570503      0.861080      0.099529
  C      -3.082296     -0.381780     -0.224245
  H       3.810217      1.324261      0.537181
  H       4.444905     -0.988844     -0.061426
  H       2.674108     -2.628901     -0.589609
  C       1.542622      2.374102      0.700885
  H      -1.970911     -2.711996     -0.823963
  H       0.414072     -3.233799     -0.854120
  H      -0.696598      2.483444      0.693592
  H      -3.017639      2.867791      0.682632
  H      -4.633796      1.061254      0.110019
  H      -3.768964     -1.180959     -0.474051
  C       1.500645      3.553176      1.004084
  H       1.411796      4.587410      1.254423
26
Coordinates from ORCA-job opt E -615.573474315883
  C       3.043762      0.598515      0.309611
  C       3.400017     -0.704797     -0.023855
  C       2.411866     -1.611418     -0.316876
  C       1.055600     -1.245158     -0.279895
  C       0.658283      0.083126      0.064524
  C       1.711198      1.008291      0.356576
  C      -0.767831      0.384767      0.089117
  C      -1.702449     -0.644254     -0.239900
  C      -1.242504     -1.950147     -0.582967
  C       0.076217     -2.236406     -0.598162
  C      -1.306775      1.641667      0.424055
  C      -2.667839      1.876731      0.430203
  C      -3.572306      0.860665      0.102942
  C      -3.084587     -0.381307     -0.225624
  H       3.806912      1.328286      0.538270
  H       4.443032     -0.988565     -0.051714
  H       2.668651     -2.628867     -0.582740
  C       1.541093      2.383953      0.699603
  H      -1.973212     -2.710244     -0.828230
  H       0.418556     -3.230586     -0.854956
  H      -0.680246      2.472968      0.690953
  H      -3.024724      2.863690      0.693077
  H      -4.636522      1.055600      0.112265
  H      -3.767179     -1.182915     -0.479030
  C       1.512001      3.544682      0.997273
  H       1.423335      4.575963      1.246370
26
Coordinates from ORCA-job opt E -615.573671896442
  C       3.039849      0.600736      0.310373
  C       3.398357     -0.702378     -0.020648
  C       2.411329     -1.610197     -0.314698
  C       1.054415     -1.244277     -0.280176
  C       0.656117      0.083135      0.063027
  C       1.707344      1.010206      0.356011
  C      -0.771036      0.383103      0.088077
  C      -1.704095     -0.645840     -0.241729
  C      -1.243176     -1.951550     -0.585574
  C       0.075741     -2.236377     -0.599977
  C      -1.309362      1.640803      0.425236
  C      -2.669360      1.874588      0.433451
  C      -3.573567      0.859139      0.104358
  C      -3.086535     -0.382486     -0.226867
  H       3.802254      1.331257      0.539468
  H       4.441294     -0.986432     -0.046458
  H       2.665668     -2.628455     -0.579421
  C       1.537913      2.386811      0.698535
  H      -1.974696     -2.710467     -0.831941
  H       0.421604     -3.229233     -0.856842
  H      -0.671005      2.463811      0.689931
  H      -3.029631      2.859645      0.698995
  H      -4.638176      1.051110      0.112920
  H      -3.766869     -1.185140     -0.482456
  C       1.524844      3.550872      0.994648
  H       1.445129      4.581854      1.242644
26
Coordinates from ORCA-job opt E -615.573790027675
  C       3.034153      0.604399      0.312940
  C       3.395715     -0.697994     -0.016078
  C       2.410441     -1.607547     -0.311390
  C       1.052473     -1.242645     -0.279436
  C       0.652270      0.083015      0.063705
  C       1.701286      1.012559      0.356464
  C      -0.776125      0.380974      0.087519
  C      -1.706230     -0.647965     -0.244269
  C      -1.243725     -1.952980     -0.589647
  C       0.075406     -2.235759     -0.602305
  C      -1.314645      1.639608      0.428184
  C      -2.672810      1.871893      0.437930
  C      -3.575730      0.856582      0.105545
  C      -3.089365     -0.384351     -0.229079
  H       3.795552      1.336186      0.541742
  H       4.438699     -0.981926     -0.040108
  H       2.661583     -2.626548     -0.575672
  C       1.532019      2.389582      0.696875
  H      -1.976291     -2.710224     -0.838030
  H       0.426767     -3.226458     -0.859878
  H      -0.658542      2.448075      0.690848
  H      -3.038998      2.853833      0.707266
  H      -4.641020      1.044027      0.112834
  H      -3.766473     -1.188569     -0.487663
  C       1.542665      3.557332      0.988393
  H       1.485275      4.589140      1.234200
26
Coordinates from ORCA-job opt E -615.573800829555
  C       3.034098      0.604866      0.313233
  C       3.395486     -0.697511     -0.016030
  C       2.410281     -1.607080     -0.311337
  C       1.052258     -1.242449     -0.279204
  C       0.651796      0.083315      0.063994
  C       1.700939      1.012631      0.356400
  C      -0.776474      0.381117      0.087816
  C      -1.706148     -0.647994     -0.244442
  C      -1.243597     -1.952827     -0.589933
  C       0.075548     -2.235673     -0.602054
  C      -1.315550      1.639585      0.429031
  C      -2.673584      1.871967      0.438105
  C      -3.575933      0.856138      0.105120
  C      -3.089425     -0.384580     -0.229523
  H       3.795498      1.336637      0.541945
  H       4.438561     -0.981267     -0.040081
  H       2.661724     -2.625997     -0.575728
  C       1.531313      2.389042      0.696448
  H      -1.976060     -2.710148     -0.838442
  H       0.427089     -3.226396     -0.859361
  H      -0.658531      2.446625      0.692519
  H      -3.040467      2.853601      0.707407
  H      -4.641251      1.043525      0.112329
  H      -3.766639     -1.188702     -0.488125
  C       1.541954      3.556947      0.987580
  H       1.491463      4.588869      1.233224
26
Coordinates from ORCA-job opt E -615.573810773597
  C       3.034177      0.605483      0.313529
  C       3.395127     -0.696959     -0.016070
  C       2.409961     -1.606476     -0.311224
  C       1.051950     -1.242295     -0.278726
  C       0.651143      0.083777      0.064778
  C       1.700627      1.012652      0.356580
  C      -0.776818      0.381325      0.088608
  C      -1.705951     -0.648051     -0.244684
  C      -1.243423     -1.952648     -0.590202
  C       0.075789     -2.235647     -0.601648
  C      -1.316743      1.639367      0.430624
  C      -2.674698      1.871955      0.438487
  C      -3.576186      0.855353      0.104235
  C      -3.089368     -0.384975     -0.230417
  H       3.795561      1.337250      0.541994
  H       4.438355     -0.980255     -0.040387
  H       2.662397     -2.625095     -0.575919
  C       1.530832      2.388358      0.695876
  H      -1.975495     -2.710241     -0.839051
  H       0.427173     -3.226519     -0.858631
  H      -0.659524      2.445251      0.695987
  H      -3.042274      2.853275      0.707604
  H      -4.641440      1.043249      0.111255
  H      -3.767098     -1.188618     -0.489186
  C       1.539259      3.556282      0.986083
  H       1.501018      4.588441      1.231395
26
Coordinates from ORCA-job opt E -615.573811642418
  C       3.034041      0.605527      0.313590
  C       3.395037     -0.696943     -0.015864
  C       2.409889     -1.606457     -0.311056
  C       1.051896     -1.242309     -0.278675
  C       0.651037      0.083809      0.064837
  C       1.700513      1.012715      0.356634
  C      -0.776907      0.381235      0.088710
  C      -1.706006     -0.648131     -0.244868
  C      -1.243444     -1.952686     -0.590443
  C       0.075802     -2.235667     -0.601758
  C      -1.316857      1.639126      0.431073
  C      -2.674836      1.871671      0.438914
  C      -3.576289      0.855152      0.104181
  C      -3.089409     -0.385082     -0.230719
  H       3.795363      1.337372      0.542044
  H       4.438293     -0.980133     -0.040092
  H       2.662588     -2.625035     -0.575671
  C       1.531126      2.388649      0.695691
  H      -1.975375     -2.710353     -0.839457
  H       0.427090     -3.226564     -0.858748
  H      -0.659876      2.445176      0.696867
  H      -3.042383      2.852937      0.708274
  H      -4.641505      1.043301      0.111167
  H      -3.767264     -1.188546     -0.489751
  C       1.538831      3.556625      0.985431
  H       1.502994      4.588850      1.230579
