4
Coordinates from ORCA-job opt
  C   1.12110310058105     -0.06143999687958      0.04067000907302
  C   2.31797689836982     -0.06143999910653      0.04067001038111
  H   0.05891941015895     -0.06144000237846      0.04066999049097
  H   3.38016059089018     -0.06144000163543      0.04066999005490
