9
Coordinates from ORCA-job opt
  C   1.17633818774153     -0.32397352189971      0.15174614207265
  O   0.40120679645419     -0.50379621991903     -0.76273731726090
  N   2.34527117569123      0.35528626039695      0.05905005784739
  C   3.26893906542172      0.56204066900145      1.15553666930309
  H   0.99569568714251     -0.71074559410369      1.17187775086277
  H   2.57896101928122      0.70590439428559     -0.85690752207377
  H   3.16712576011960      1.55382783974098      1.60329966481417
  H   4.29618709597941      0.43167600100573      0.81696980893855
  H   3.07717521216851     -0.17827982850828      1.93182474549602
