9
Coordinates from ORCA-job opt
  C   1.13413203516857     -0.23585573083911      0.16317849856173
  O   0.38460341704493     -0.47183773767117     -0.76031456202232
  N   2.39071613035280      0.25387458502323      0.04054120673991
  C   3.27387626280258      0.52837272602002      1.16067809755478
  H   0.84948283912535     -0.40579119825350      1.21846031028547
  H   2.71311096688032      0.42044831406129     -0.89924414731131
  H   2.91445626544141      1.35860445939765      1.77234927828855
  H   4.25569331425336      0.79290797220259      0.77592854916738
  H   3.39082876893055     -0.34878338994102      1.79908276873575
