24
        Energy:      38.1319827
C          3.14719        0.67725        0.31467
C          3.49203       -0.62611       -0.02849
C          2.49636       -1.55789       -0.32443
C          1.14089       -1.18907       -0.27854
C          0.77436        0.14173        0.07037
C          1.81008        1.06134        0.36480
C         -0.60460        0.49685        0.11075
C         -1.58648       -0.48713       -0.19710
C         -1.19572       -1.78951       -0.53657
C          0.15211       -2.13625       -0.57731
C         -1.04986        1.79842        0.44658
C         -2.40677        2.10802        0.47563
C         -3.35620        1.13707        0.17349
C         -2.95189       -0.15570       -0.16180
H          3.91839        1.40117        0.54498
H          4.53487       -0.91133       -0.06393
H          2.78882       -2.56730       -0.58895
H          1.62459        2.08525        0.63798
H         -1.93823       -2.54430       -0.77234
H          0.42394       -3.15198       -0.84384
H         -0.37846        2.60240        0.69204
H         -2.71877        3.11149        0.73550
H         -4.40737        1.39091        0.20006
H         -3.70929       -0.89532       -0.39353
