
                                 *****************
                                 * O   R   C   A *
                                 *****************

                                            #,                                       
                                            ###                                      
                                            ####                                     
                                            #####                                    
                                            ######                                   
                                           ########,                                 
                                     ,,################,,,,,                         
                               ,,#################################,,                 
                          ,,##########################################,,             
                       ,#########################################, ''#####,          
                    ,#############################################,,   '####,        
                  ,##################################################,,,,####,       
                ,###########''''           ''''###############################       
              ,#####''   ,,,,##########,,,,          '''####'''          '####       
            ,##' ,,,,###########################,,,                        '##       
           ' ,,###''''                  '''############,,,                           
         ,,##''                                '''############,,,,        ,,,,,,###''
      ,#''                                            '''#######################'''  
     '                                                          ''''####''''         
             ,#######,   #######,   ,#######,      ##                                
            ,#'     '#,  ##    ##  ,#'     '#,    #''#        ######   ,####,        
            ##       ##  ##   ,#'  ##            #'  '#       #        #'  '#        
            ##       ##  #######   ##           ,######,      #####,   #    #        
            '#,     ,#'  ##    ##  '#,     ,#' ,#      #,         ##   #,  ,#        
             '#######'   ##     ##  '#######'  #'      '#     #####' # '####'        



                  #######################################################
                  #                        -***-                        #
                  #          Department of theory and spectroscopy      #
                  #    Directorship and core code : Frank Neese         #
                  #        Max Planck Institute fuer Kohlenforschung    #
                  #                Kaiser Wilhelm Platz 1               #
                  #                 D-45470 Muelheim/Ruhr               #
                  #                      Germany                        #
                  #                                                     #
                  #                  All rights reserved                #
                  #                        -***-                        #
                  #######################################################


                         Program Version 5.0.3 -  RELEASE  -


 With contributions from (in alphabetic order):
   Daniel Aravena         : Magnetic Suceptibility
   Michael Atanasov       : Ab Initio Ligand Field Theory (pilot matlab implementation)
   Alexander A. Auer      : GIAO ZORA, VPT2 properties, NMR spectrum
   Ute Becker             : Parallelization
   Giovanni Bistoni       : ED, misc. LED, open-shell LED, HFLD
   Martin Brehm           : Molecular dynamics
   Dmytro Bykov           : SCF Hessian
   Vijay G. Chilkuri      : MRCI spin determinant printing, contributions to CSF-ICE
   Dipayan Datta          : RHF DLPNO-CCSD density
   Achintya Kumar Dutta   : EOM-CC, STEOM-CC
   Dmitry Ganyushin       : Spin-Orbit,Spin-Spin,Magnetic field MRCI
   Miquel Garcia          : C-PCM and meta-GGA Hessian, CC/C-PCM, Gaussian charge scheme
   Yang Guo               : DLPNO-NEVPT2, F12-NEVPT2, CIM, IAO-localization
   Andreas Hansen         : Spin unrestricted coupled pair/coupled cluster methods
   Benjamin Helmich-Paris : MC-RPA, TRAH-SCF, COSX integrals
   Lee Huntington         : MR-EOM, pCC
   Robert Izsak           : Overlap fitted RIJCOSX, COSX-SCS-MP3, EOM
   Marcus Kettner         : VPT2
   Christian Kollmar      : KDIIS, OOCD, Brueckner-CCSD(T), CCSD density, CASPT2, CASPT2-K
   Simone Kossmann        : Meta GGA functionals, TD-DFT gradient, OOMP2, MP2 Hessian
   Martin Krupicka        : Initial AUTO-CI
   Lucas Lang             : DCDCAS
   Marvin Lechner         : AUTO-CI (C++ implementation), FIC-MRCC
   Dagmar Lenk            : GEPOL surface, SMD
   Dimitrios Liakos       : Extrapolation schemes; Compound Job, initial MDCI parallelization
   Dimitrios Manganas     : Further ROCIS development; embedding schemes
   Dimitrios Pantazis     : SARC Basis sets
   Anastasios Papadopoulos: AUTO-CI, single reference methods and gradients
   Taras Petrenko         : DFT Hessian,TD-DFT gradient, ASA, ECA, R-Raman, ABS, FL, XAS/XES, NRVS
   Peter Pinski           : DLPNO-MP2, DLPNO-MP2 Gradient
   Christoph Reimann      : Effective Core Potentials
   Marius Retegan         : Local ZFS, SOC
   Christoph Riplinger    : Optimizer, TS searches, QM/MM, DLPNO-CCSD(T), (RO)-DLPNO pert. Triples
   Tobias Risthaus        : Range-separated hybrids, TD-DFT gradient, RPA, STAB
   Michael Roemelt        : Original ROCIS implementation
   Masaaki Saitow         : Open-shell DLPNO-CCSD energy and density
   Barbara Sandhoefer     : DKH picture change effects
   Avijit Sen             : IP-ROCIS
   Kantharuban Sivalingam : CASSCF convergence, NEVPT2, FIC-MRCI
   Bernardo de Souza      : ESD, SOC TD-DFT
   Georgi Stoychev        : AutoAux, RI-MP2 NMR, DLPNO-MP2 response
   Willem Van den Heuvel  : Paramagnetic NMR
   Boris Wezisla          : Elementary symmetry handling
   Frank Wennmohs         : Technical directorship


 We gratefully acknowledge several colleagues who have allowed us to
 interface, adapt or use parts of their codes:
   Stefan Grimme, W. Hujo, H. Kruse, P. Pracht,  : VdW corrections, initial TS optimization,
                  C. Bannwarth, S. Ehlert          DFT functionals, gCP, sTDA/sTD-DF
   Ed Valeev, F. Pavosevic, A. Kumar             : LibInt (2-el integral package), F12 methods
   Garnet Chan, S. Sharma, J. Yang, R. Olivares  : DMRG
   Ulf Ekstrom                                   : XCFun DFT Library
   Mihaly Kallay                                 : mrcc  (arbitrary order and MRCC methods)
   Jiri Pittner, Ondrej Demel                    : Mk-CCSD
   Frank Weinhold                                : gennbo (NPA and NBO analysis)
   Christopher J. Cramer and Donald G. Truhlar   : smd solvation model
   Lars Goerigk                                  : TD-DFT with DH, B97 family of functionals
   V. Asgeirsson, H. Jonsson                     : NEB implementation
   FAccTs GmbH                                   : IRC, NEB, NEB-TS, DLPNO-Multilevel, CI-OPT
                                                   MM, QMMM, 2- and 3-layer-ONIOM, Crystal-QMMM,
                                                   LR-CPCM, SF, NACMEs, symmetry and pop. for TD-DFT,
                                                   nearIR, NL-DFT gradient (VV10), updates on ESD,
                                                   ML-optimized integration grids
   S Lehtola, MJT Oliveira, MAL Marques          : LibXC Library
   Liviu Ungur et al                             : ANISO software


 Your calculation uses the libint2 library for the computation of 2-el integrals
 For citations please refer to: http://libint.valeyev.net

 Your ORCA version has been built with support for libXC version: 5.1.0
 For citations please refer to: https://tddft.org/programs/libxc/

 This ORCA versions uses:
   CBLAS   interface :  Fast vector & matrix operations
   LAPACKE interface :  Fast linear algebra routines
   SCALAPACK package :  Parallel linear algebra routines
   Shared memory     :  Shared parallel matrices
   BLAS/LAPACK       :  OpenBLAS 0.3.15  USE64BITINT DYNAMIC_ARCH NO_AFFINITY Zen SINGLE_THREADED
        Core in use  :  Zen
   Copyright (c) 2011-2014, The OpenBLAS Project




***************************************
The coordinates will be read from file: geom.xyz
***************************************



Warning: The global flag for chemical shieldings has been found
         but shieldings for certain elements have also been explicitly requested in the EPRNMR block
         ==>> only the requested shieldings will be calculated

================================================================================

----- Orbital basis set information -----
Your calculation utilizes the basis: def2-TZVPP
   F. Weigend and R. Ahlrichs, Phys. Chem. Chem. Phys. 7, 3297 (2005).

----- AuxJ basis set information -----
Your calculation utilizes the auxiliary basis: def2/J
   F. Weigend, Phys. Chem. Chem. Phys. 8, 1057 (2006).

================================================================================
                                        WARNINGS
                       Please study these warnings very carefully!
================================================================================

WARNING: Old DensityContainer found on disk!
         Will remove this file - 
         If you want to keep old densities, please start your calculation with a different basename. 


INFO   : the flag for use of the SHARK integral package has been found!

================================================================================
                                       INPUT FILE
================================================================================
NAME = nmr.com
|  1> ! B3LYP def2-TZVPP def2/J RIJCOSX NMR CPCM(Ethanol)
|  2> 
|  3> * xyzFILE 0 1 geom.xyz
|  4> 
|  5> %MaxCore 32000
|  6> 
|  7> %pal nprocs 8
|  8> end
|  9> 
| 10> %EPRNMR
| 11>      NUCLEI = ALL {SHIFT}
| 12> END
| 13> 
| 14>                          ****END OF INPUT****
================================================================================

                       ****************************
                       * Single Point Calculation *
                       ****************************

---------------------------------
CARTESIAN COORDINATES (ANGSTROEM)
---------------------------------
  C      1.125850   -0.013675    0.038501
  O      0.470774   -0.395758   -0.906913
  N      2.480161    0.008915    0.090754
  C      3.256239    0.469778    1.221975
  H      0.665053    0.361943    0.970778
  H      2.957805   -0.324725   -0.732533
  H      2.574258    0.790291    2.008408
  H      3.888172    1.319027    0.955080
  H      3.888587   -0.323856    1.624611

----------------------------
CARTESIAN COORDINATES (A.U.)
----------------------------
  NO LB      ZA    FRAG     MASS         X           Y           Z
   0 C     6.0000    0    12.011    2.127548   -0.025843    0.072757
   1 O     8.0000    0    15.999    0.889634   -0.747874   -1.713818
   2 N     7.0000    0    14.007    4.686826    0.016846    0.171499
   3 C     6.0000    0    12.011    6.153399    0.887751    2.309198
   4 H     1.0000    0     1.008    1.256769    0.683974    1.834504
   5 H     1.0000    0     1.008    5.589441   -0.613641   -1.384287
   6 H     1.0000    0     1.008    4.864643    1.493434    3.795341
   7 H     1.0000    0     1.008    7.347581    2.492600    1.804839
   8 H     1.0000    0     1.008    7.348365   -0.611999    3.070069

--------------------------------
INTERNAL COORDINATES (ANGSTROEM)
--------------------------------
 C      0   0   0     0.000000000000     0.00000000     0.00000000
 O      1   0   0     1.211990013969     0.00000000     0.00000000
 N      1   2   0     1.355507287300   125.12360575     0.00000000
 C      3   1   2     1.447187729246   124.83615492   179.83462778
 H      1   2   3     1.105695451415   122.65311650   179.99530498
 H      3   1   2     1.008592486115   115.86025508   359.87792224
 H      4   3   1     1.089175412461   108.80402716   359.93181631
 H      4   3   1     1.091695019247   111.53388514   240.82291234
 H      4   3   1     1.091711981270   111.55558503   119.07289326

---------------------------
INTERNAL COORDINATES (A.U.)
---------------------------
 C      0   0   0     0.000000000000     0.00000000     0.00000000
 O      1   0   0     2.290329203449     0.00000000     0.00000000
 N      1   2   0     2.561537545532   125.12360575     0.00000000
 C      3   1   2     2.734788472646   124.83615492   179.83462778
 H      1   2   3     2.089461590697   122.65311650   179.99530498
 H      3   1   2     1.905963579488   115.86025508   359.87792224
 H      4   3   1     2.058243241352   108.80402716   359.93181631
 H      4   3   1     2.063004608144   111.53388514   240.82291234
 H      4   3   1     2.063036661721   111.55558503   119.07289326

---------------------
BASIS SET INFORMATION
---------------------
There are 4 groups of distinct atoms

 Group   1 Type C   : 11s6p2d1f contracted to 5s3p2d1f pattern {62111/411/11/1}
 Group   2 Type O   : 11s6p2d1f contracted to 5s3p2d1f pattern {62111/411/11/1}
 Group   3 Type N   : 11s6p2d1f contracted to 5s3p2d1f pattern {62111/411/11/1}
 Group   4 Type H   : 5s2p1d contracted to 3s2p1d pattern {311/11/1}

Atom   0C    basis set group =>   1
Atom   1O    basis set group =>   2
Atom   2N    basis set group =>   3
Atom   3C    basis set group =>   1
Atom   4H    basis set group =>   4
Atom   5H    basis set group =>   4
Atom   6H    basis set group =>   4
Atom   7H    basis set group =>   4
Atom   8H    basis set group =>   4
---------------------------------
AUXILIARY/J BASIS SET INFORMATION
---------------------------------
There are 4 groups of distinct atoms

 Group   1 Type C   : 12s5p4d2f1g contracted to 6s4p3d1f1g pattern {711111/2111/211/2/1}
 Group   2 Type O   : 12s5p4d2f1g contracted to 6s4p3d1f1g pattern {711111/2111/211/2/1}
 Group   3 Type N   : 12s5p4d2f1g contracted to 6s4p3d1f1g pattern {711111/2111/211/2/1}
 Group   4 Type H   : 5s2p1d contracted to 3s1p1d pattern {311/2/1}

Atom   0C    basis set group =>   1
Atom   1O    basis set group =>   2
Atom   2N    basis set group =>   3
Atom   3C    basis set group =>   1
Atom   4H    basis set group =>   4
Atom   5H    basis set group =>   4
Atom   6H    basis set group =>   4
Atom   7H    basis set group =>   4
Atom   8H    basis set group =>   4

Checking for AutoStart:
The File: nmr.gbw exists
Trying to determine its content:
     ... Fine, the file contains calculation information
     ... Fine, the calculation information was read
     ... Fine, the file contains a basis set
     ... Fine, the basis set was read
     ... Fine, the file contains a geometry
     ... Fine, the geometry was read
     ... Fine, the file contains a set of orbitals
     ... Fine, the orbitals can be read
     => possible old guess file was deleted
     => GBW file was renamed to GES file
     => GES file is set as startup file
     => Guess is set to MORead
     ... now leaving AutoStart



           ************************************************************
           *        Program running with 8 parallel MPI-processes     *
           *              working on a common directory               *
           ************************************************************
------------------------------------------------------------------------------
                           ORCA GTO INTEGRAL CALCULATION
                           -- RI-GTO INTEGRALS CHOSEN --
------------------------------------------------------------------------------
------------------------------------------------------------------------------
                   ___                                                        
                  /   \      - P O W E R E D   B Y -                         
                 /     \                                                     
                 |  |  |   _    _      __       _____    __    __             
                 |  |  |  | |  | |    /  \     |  _  \  |  |  /  |          
                  \  \/   | |  | |   /    \    | | | |  |  | /  /          
                 / \  \   | |__| |  /  /\  \   | |_| |  |  |/  /          
                |  |  |   |  __  | /  /__\  \  |    /   |      \           
                |  |  |   | |  | | |   __   |  |    \   |  |\   \          
                \     /   | |  | | |  |  |  |  | |\  \  |  | \   \       
                 \___/    |_|  |_| |__|  |__|  |_| \__\ |__|  \__/        
                                                                              
                      - O R C A' S   B I G   F R I E N D -                    
                                      &                                       
                       - I N T E G R A L  F E E D E R -                       
                                                                              
 v1 FN, 2020, v2 2021                                                         
------------------------------------------------------------------------------


Reading SHARK input file nmr.SHARKINP.tmp ... ok
----------------------
SHARK INTEGRAL PACKAGE
----------------------

Number of atoms                             ...      9
Number of basis functions                   ...    194
Number of shells                            ...     74
Maximum angular momentum                    ...      3
Integral batch strategy                     ... SHARK/LIBINT Hybrid
RI-J (if used) integral strategy            ... SPLIT-RIJ (Revised 2003 algorithm where possible)
Printlevel                                  ...      1
Contraction scheme used                     ... SEGMENTED contraction
Coulomb Range Separation                    ... NOT USED
Exchange Range Separation                   ... NOT USED
Finite Nucleus Model                        ... NOT USED
Auxiliary Coulomb fitting basis             ... AVAILABLE
   # of basis functions in Aux-J            ...    251
   # of shells in Aux-J                     ...     85
   Maximum angular momentum in Aux-J        ...      4
Auxiliary J/K fitting basis                 ... NOT available
Auxiliary Correlation fitting basis         ... NOT available
Auxiliary 'external' fitting basis          ... NOT available
Integral threshold                          ...     1.000000e-10
Primitive cut-off                           ...     1.000000e-11
Primitive pair pre-selection threshold      ...     1.000000e-11

Calculating pre-screening integrals         ... done (  0.0 sec) Dimension = 74
Organizing shell pair data                  ... done (  0.0 sec)
Shell pair information
Total number of shell pairs                 ...      2775
Shell pairs after pre-screening             ...      2672
Total number of primitive shell pairs       ...      7363
Primitive shell pairs kept                  ...      5914
          la=0 lb=0:    596 shell pairs
          la=1 lb=0:    746 shell pairs
          la=1 lb=1:    250 shell pairs
          la=2 lb=0:    435 shell pairs
          la=2 lb=1:    280 shell pairs
          la=2 lb=2:     87 shell pairs
          la=3 lb=0:    133 shell pairs
          la=3 lb=1:     85 shell pairs
          la=3 lb=2:     50 shell pairs
          la=3 lb=3:     10 shell pairs

Calculating one electron integrals          ... done (  0.0 sec)
Calculating RI/J V-Matrix + Cholesky decomp.... done (  0.0 sec)
Calculating Nuclear repulsion               ... done (  0.0 sec) ENN=    119.416721248389 Eh

SHARK setup successfully completed in   0.1 seconds

Maximum memory used throughout the entire GTOINT-calculation: 16.2 MB


           ************************************************************
           *        Program running with 8 parallel MPI-processes     *
           *              working on a common directory               *
           ************************************************************
-------------------------------------------------------------------------------
                                 ORCA SCF
-------------------------------------------------------------------------------

------------
SCF SETTINGS
------------
Hamiltonian:
 Density Functional     Method          .... DFT(GTOs)
 Exchange Functional    Exchange        .... B88
   X-Alpha parameter    XAlpha          ....  0.666667
   Becke's b parameter  XBeta           ....  0.004200
 Correlation Functional Correlation     .... LYP
 LDA part of GGA corr.  LDAOpt          .... VWN-5
 Gradients option       PostSCFGGA      .... off
 Hybrid DFT is turned on
   Fraction HF Exchange ScalHFX         ....  0.200000
   Scaling of DF-GGA-X  ScalDFX         ....  0.720000
   Scaling of DF-GGA-C  ScalDFC         ....  0.810000
   Scaling of DF-LDA-C  ScalLDAC        ....  1.000000
   Perturbative correction              ....  0.000000
   Density functional embedding theory  .... OFF
   NL short-range parameter             ....  4.800000
 RI-approximation to the Coulomb term is turned on
   Number of AuxJ basis functions       .... 251
   RIJ-COSX (HFX calculated with COS-X)).... on


General Settings:
 Integral files         IntName         .... nmr
 Hartree-Fock type      HFTyp           .... RHF
 Total Charge           Charge          ....    0
 Multiplicity           Mult            ....    1
 Number of Electrons    NEL             ....   32
 Basis Dimension        Dim             ....  194
 Nuclear Repulsion      ENuc            ....    119.4167212484 Eh

Convergence Acceleration:
 DIIS                   CNVDIIS         .... on
   Start iteration      DIISMaxIt       ....    12
   Startup error        DIISStart       ....  0.200000
   # of expansion vecs  DIISMaxEq       ....     5
   Bias factor          DIISBfac        ....   1.050
   Max. coefficient     DIISMaxC        ....  10.000
 Trust-Rad. Augm. Hess. CNVTRAH         .... auto
   Auto Start mean grad. ratio tolernc. ....  1.125000
   Auto Start start iteration           ....     1
   Auto Start num. interpolation iter.  ....    10
   Max. Number of Micro iterations      ....    16
   Max. Number of Macro iterations      .... Maxiter - #DIIS iter
   Number of Davidson start vectors     ....     2
   Converg. threshold I  (grad. norm)   ....   5.000e-05
   Converg. threshold II (energy diff.) ....   1.000e-06
   Grad. Scal. Fac. for Micro threshold ....   0.100
   Minimum threshold for Micro iter.    ....   0.010
   NR start threshold (gradient norm)   ....   0.001
   Initial trust radius                 ....   0.400
   Minimum AH scaling param. (alpha)    ....   1.000
   Maximum AH scaling param. (alpha)    .... 1000.000
   Orbital update algorithm             .... Taylor
   White noise on init. David. guess    .... on
   Maximum white noise                  ....   0.010
   Quad. conv. algorithm                .... NR
 SOSCF                  CNVSOSCF        .... on
   Start iteration      SOSCFMaxIt      ....   150
   Startup grad/error   SOSCFStart      ....  0.003300
 Level Shifting         CNVShift        .... on
   Level shift para.    LevelShift      ....    0.2500
   Turn off err/grad.   ShiftErr        ....    0.0010
 Zerner damping         CNVZerner       .... off
 Static damping         CNVDamp         .... on
   Fraction old density DampFac         ....    0.7000
   Max. Damping (<1)    DampMax         ....    0.9800
   Min. Damping (>=0)   DampMin         ....    0.0000
   Turn off err/grad.   DampErr         ....    0.1000
 Fernandez-Rico         CNVRico         .... off

SCF Procedure:
 Maximum # iterations   MaxIter         ....   125
 SCF integral mode      SCFMode         .... Direct
   Integral package                     .... SHARK and LIBINT hybrid scheme
 Reset frequency        DirectResetFreq ....    20
 Integral Threshold     Thresh          ....  1.000e-10 Eh
 Primitive CutOff       TCut            ....  1.000e-11 Eh

Convergence Tolerance:
 Convergence Check Mode ConvCheckMode   .... Total+1el-Energy
 Convergence forced     ConvForced      .... 0
 Energy Change          TolE            ....  1.000e-06 Eh
 1-El. energy change                    ....  1.000e-03 Eh
 Orbital Gradient       TolG            ....  5.000e-05
 Orbital Rotation angle TolX            ....  5.000e-05
 DIIS Error             TolErr          ....  1.000e-06


Diagonalization of the overlap matrix:
Smallest eigenvalue                        ... 4.522e-04
Time for diagonalization                   ...    0.004 sec
Threshold for overlap eigenvalues          ... 1.000e-08
Number of eigenvalues below threshold      ... 0
Time for construction of square roots      ...    0.003 sec
Total time needed                          ...    0.007 sec

---------------------
INITIAL GUESS: MOREAD
---------------------
Guess MOs are being read from file: nmr.ges
Input Geometry matches current geometry (good)
Input basis set matches current basis set (good)
MOs were renormalized
MOs were reorthogonalized (Cholesky)
                      ------------------
                      INITIAL GUESS DONE (   0.0 sec)
                      ------------------
-------------------
DFT GRID GENERATION
-------------------

General Integration Accuracy     IntAcc      ... 4.388
Radial Grid Type                 RadialGrid  ... OptM3 with GC (2021)
Angular Grid (max. ang.)         AngularGrid ... 4 (Lebedev-302)
Angular grid pruning method      GridPruning ... 4 (adaptive)
Weight generation scheme         WeightScheme... Becke
Basis function cutoff            BFCut       ... 1.0000e-10
Integration weight cutoff        WCut        ... 1.0000e-14
Angular grids for H and He will be reduced by one unit
Partially contracted basis set               ... off
Rotationally invariant grid construction     ... off

Total number of grid points                  ...    40586
Total number of batches                      ...      639
Average number of points per batch           ...       63
Average number of grid points per atom       ...     4510
Time for grid setup =    0.168 sec

--------------------
COSX GRID GENERATION
--------------------

GRIDX 1
-------
General Integration Accuracy     IntAcc      ... 3.816
Radial Grid Type                 RadialGrid  ... OptM3 with GC (2021)
Angular Grid (max. ang.)         AngularGrid ... 1 (Lebedev-50)
Angular grid pruning method      GridPruning ... 4 (adaptive)
Weight generation scheme         WeightScheme... Becke
Basis function cutoff            BFCut       ... 1.0000e-10
Integration weight cutoff        WCut        ... 1.0000e-14
Angular grids for H and He will be reduced by one unit
Partially contracted basis set               ... on
Rotationally invariant grid construction     ... off

Total number of grid points                  ...     5224
Total number of batches                      ...       87
Average number of points per batch           ...       60
Average number of grid points per atom       ...      580
UseSFitting                                  ... on

GRIDX 2
-------
General Integration Accuracy     IntAcc      ... 4.020
Radial Grid Type                 RadialGrid  ... OptM3 with GC (2021)
Angular Grid (max. ang.)         AngularGrid ... 2 (Lebedev-110)
Angular grid pruning method      GridPruning ... 4 (adaptive)
Weight generation scheme         WeightScheme... Becke
Basis function cutoff            BFCut       ... 1.0000e-10
Integration weight cutoff        WCut        ... 1.0000e-14
Angular grids for H and He will be reduced by one unit
Partially contracted basis set               ... on
Rotationally invariant grid construction     ... off

Total number of grid points                  ...    11308
Total number of batches                      ...      181
Average number of points per batch           ...       62
Average number of grid points per atom       ...     1256
UseSFitting                                  ... on

GRIDX 3
-------
General Integration Accuracy     IntAcc      ... 4.338
Radial Grid Type                 RadialGrid  ... OptM3 with GC (2021)
Angular Grid (max. ang.)         AngularGrid ... 3 (Lebedev-194)
Angular grid pruning method      GridPruning ... 4 (adaptive)
Weight generation scheme         WeightScheme... Becke
Basis function cutoff            BFCut       ... 1.0000e-10
Integration weight cutoff        WCut        ... 1.0000e-14
Angular grids for H and He will be reduced by one unit
Partially contracted basis set               ... on
Rotationally invariant grid construction     ... off

Total number of grid points                  ...    24892
Total number of batches                      ...      393
Average number of points per batch           ...       63
Average number of grid points per atom       ...     2766
UseSFitting                                  ... on

Time for X-Grid setup             =    0.133 sec


--------------------
CPCM SOLVATION MODEL
--------------------
CPCM parameters:
  Epsilon                                         ...      24.3000
  Refrac                                          ...       1.3610
  Rsolv                                           ...       1.3000
  Surface type                                    ... GAUSSIAN VDW
  Epsilon function type                           ...         CPCM
Radii:
 Radius for C  used is    3.8550 Bohr (=   2.0400 Ang.)
 Radius for O  used is    3.4469 Bohr (=   1.8240 Ang.)
 Radius for N  used is    3.5149 Bohr (=   1.8600 Ang.)
 Radius for H  used is    2.4944 Bohr (=   1.3200 Ang.)
Calculating surface                               ...        done! (  0.0s)
GEPOL surface points                              ...          574
GEPOL Volume                                      ...     552.6498
GEPOL Surface-area                                ...     364.4951
Calculating surface distance matrix               ...        done! (  0.0s)
Performing Cholesky decomposition & store         ...        done! (  0.0s)
Overall time for CPCM initialization              ...                 0.0s
--------------
SCF ITERATIONS
--------------
ITER       Energy         Delta-E        Max-DP      RMS-DP      [F,P]     Damp
               ***  Starting incremental Fock matrix formation  ***
                      *** Initiating the SOSCF procedure ***
                      *** Re-Reading the Fockian *** 
                      *** Removing any level shift *** 
ITER      Energy       Delta-E        Grad      Rot      Max-DP    RMS-DP
  0   -209.19022417 -209.1902241735  0.000192  0.000192  0.000462  0.000013
               *** Restarting incremental Fock matrix formation ***
  1   -209.19022544  -0.0000012664  0.000157  0.000568  0.000290  0.000009
  2   -209.19022534   0.0000000999  0.000155  0.000198  0.000172  0.000004
                 **** Energy Check signals convergence ****
              ***Rediagonalizing the Fockian in SOSCF/NRSCF***

               *****************************************************
               *                     SUCCESS                       *
               *           SCF CONVERGED AFTER   3 CYCLES          *
               *****************************************************

Old exchange energy                            =     -5.397511725 Eh
New exchange energy                            =     -5.397522454 Eh
Exchange energy change after final integration =     -0.000010729 Eh
Total energy after final integration           =   -209.190236558 Eh
Final COS-X integration done in                =     0.605 sec

----------------
TOTAL SCF ENERGY
----------------

Total Energy       :         -209.19023656 Eh           -5692.35573 eV

Components:
Nuclear Repulsion  :          119.41672125 Eh            3249.49419 eV
Electronic Energy  :         -328.60695781 Eh           -8941.84992 eV
One Electron Energy:         -520.01330873 Eh          -14150.28152 eV
Two Electron Energy:          191.40635092 Eh            5208.43160 eV
Max COSX asymmetry :            0.00000089 Eh               0.00002 eV
CPCM Dielectric    :           -0.01610497 Eh              -0.43824 eV

Virial components:
Potential Energy   :         -417.48007543 Eh          -11360.21039 eV
Kinetic Energy     :          208.28983887 Eh            5667.85466 eV
Virial Ratio       :            2.00432281


DFT components:
N(Alpha)           :       15.999995988597 electrons
N(Beta)            :       15.999995988597 electrons
N(Total)           :       31.999991977195 electrons
E(X)               :      -21.474544333823 Eh       
E(C)               :       -1.275053960019 Eh       
E(XC)              :      -22.749598293841 Eh       
DFET-embed. en.    :        0.000000000000 Eh       
CPCM Solvation Model Properties:
Surface-charge          :           -0.01772061
Charge-correction       :           -0.00018629 Eh              -0.00507 eV
Free-energy (cav+disp)  :  This term is not implemented in the current solvation scheme

---------------
SCF CONVERGENCE
---------------

  Last Energy change         ...   -4.8931e-07  Tolerance :   1.0000e-06
  Last MAX-Density change    ...    9.9920e-16  Tolerance :   1.0000e-05
  Last RMS-Density change    ...    1.5899e-17  Tolerance :   1.0000e-06
  Last Orbital Gradient      ...    2.2797e-05  Tolerance :   5.0000e-05
  Last Orbital Rotation      ...    5.9096e-05  Tolerance :   5.0000e-05

             **** THE GBW FILE WAS UPDATED (nmr.gbw) ****
             **** DENSITY nmr.scfp WAS UPDATED ****
             **** ENERGY FILE WAS UPDATED (nmr.en.tmp) ****
             **** THE GBW FILE WAS UPDATED (nmr.gbw) ****
             **** DENSITY nmr.scfp WAS UPDATED ****
----------------
ORBITAL ENERGIES
----------------

  NO   OCC          E(Eh)            E(eV) 
   0   2.0000     -19.099193      -519.7155 
   1   2.0000     -14.341611      -390.2551 
   2   2.0000     -10.268926      -279.4317 
   3   2.0000     -10.199445      -277.5410 
   4   2.0000      -1.044783       -28.4300 
   5   2.0000      -0.925176       -25.1753 
   6   2.0000      -0.704324       -19.1656 
   7   2.0000      -0.622105       -16.9283 
   8   2.0000      -0.500823       -13.6281 
   9   2.0000      -0.485322       -13.2063 
  10   2.0000      -0.450099       -12.2478 
  11   2.0000      -0.421394       -11.4667 
  12   2.0000      -0.395697       -10.7675 
  13   2.0000      -0.391739       -10.6597 
  14   2.0000      -0.271413        -7.3855 
  15   2.0000      -0.261371        -7.1123 
  16   0.0000       0.014505         0.3947 
  17   0.0000       0.054639         1.4868 
  18   0.0000       0.070106         1.9077 
  19   0.0000       0.094344         2.5672 
  20   0.0000       0.118328         3.2199 
  21   0.0000       0.124088         3.3766 
  22   0.0000       0.143802         3.9130 
  23   0.0000       0.154965         4.2168 
  24   0.0000       0.182515         4.9665 
  25   0.0000       0.204459         5.5636 
  26   0.0000       0.255991         6.9659 
  27   0.0000       0.277214         7.5434 
  28   0.0000       0.282038         7.6746 
  29   0.0000       0.319025         8.6811 
  30   0.0000       0.364882         9.9289 
  31   0.0000       0.371348        10.1049 
  32   0.0000       0.395317        10.7571 
  33   0.0000       0.400452        10.8969 
  34   0.0000       0.428342        11.6558 
  35   0.0000       0.454158        12.3583 
  36   0.0000       0.455084        12.3835 
  37   0.0000       0.472887        12.8679 
  38   0.0000       0.486337        13.2339 
  39   0.0000       0.513394        13.9702 
  40   0.0000       0.514675        14.0050 
  41   0.0000       0.535349        14.5676 
  42   0.0000       0.556818        15.1518 
  43   0.0000       0.584028        15.8922 
  44   0.0000       0.652411        17.7530 
  45   0.0000       0.677327        18.4310 
  46   0.0000       0.703413        19.1409 
  47   0.0000       0.734840        19.9960 
  48   0.0000       0.759370        20.6635 
  49   0.0000       0.812772        22.1167 
  50   0.0000       0.864794        23.5322 
  51   0.0000       0.904908        24.6238 
  52   0.0000       0.940098        25.5814 
  53   0.0000       0.943188        25.6654 
  54   0.0000       0.955721        26.0065 
  55   0.0000       0.964808        26.2538 
  56   0.0000       1.010255        27.4904 
  57   0.0000       1.043744        28.4017 
  58   0.0000       1.047075        28.4924 
  59   0.0000       1.114521        30.3277 
  60   0.0000       1.139286        31.0016 
  61   0.0000       1.147096        31.2141 
  62   0.0000       1.214761        33.0553 
  63   0.0000       1.231637        33.5145 
  64   0.0000       1.253046        34.0971 
  65   0.0000       1.327817        36.1317 
  66   0.0000       1.367322        37.2067 
  67   0.0000       1.390875        37.8476 
  68   0.0000       1.423228        38.7280 
  69   0.0000       1.432088        38.9691 
  70   0.0000       1.441974        39.2381 
  71   0.0000       1.445745        39.3407 
  72   0.0000       1.488559        40.5058 
  73   0.0000       1.524576        41.4858 
  74   0.0000       1.537428        41.8355 
  75   0.0000       1.575588        42.8739 
  76   0.0000       1.576345        42.8945 
  77   0.0000       1.616710        43.9929 
  78   0.0000       1.724676        46.9308 
  79   0.0000       1.742533        47.4167 
  80   0.0000       1.798380        48.9364 
  81   0.0000       1.901844        51.7518 
  82   0.0000       1.942007        52.8447 
  83   0.0000       2.023121        55.0519 
  84   0.0000       2.033674        55.3391 
  85   0.0000       2.039414        55.4953 
  86   0.0000       2.113091        57.5001 
  87   0.0000       2.223056        60.4924 
  88   0.0000       2.273747        61.8718 
  89   0.0000       2.297376        62.5148 
  90   0.0000       2.409062        65.5539 
  91   0.0000       2.504411        68.1485 
  92   0.0000       2.559908        69.6586 
  93   0.0000       2.577392        70.1344 
  94   0.0000       2.628767        71.5324 
  95   0.0000       2.629586        71.5547 
  96   0.0000       2.701096        73.5006 
  97   0.0000       2.733049        74.3700 
  98   0.0000       2.758102        75.0518 
  99   0.0000       2.792938        75.9997 
 100   0.0000       2.818573        76.6973 
 101   0.0000       2.853960        77.6602 
 102   0.0000       2.876748        78.2803 
 103   0.0000       2.901463        78.9528 
 104   0.0000       2.903441        79.0067 
 105   0.0000       2.922443        79.5237 
 106   0.0000       2.961662        80.5909 
 107   0.0000       2.976857        81.0044 
 108   0.0000       2.998892        81.6040 
 109   0.0000       3.015895        82.0667 
 110   0.0000       3.061328        83.3030 
 111   0.0000       3.158644        85.9511 
 112   0.0000       3.163459        86.0821 
 113   0.0000       3.167366        86.1884 
 114   0.0000       3.259816        88.7041 
 115   0.0000       3.310923        90.0948 
 116   0.0000       3.316975        90.2595 
 117   0.0000       3.336228        90.7834 
 118   0.0000       3.388615        92.2089 
 119   0.0000       3.390091        92.2491 
 120   0.0000       3.400116        92.5219 
 121   0.0000       3.436543        93.5131 
 122   0.0000       3.470316        94.4321 
 123   0.0000       3.500075        95.2419 
 124   0.0000       3.577710        97.3545 
 125   0.0000       3.585770        97.5738 
 126   0.0000       3.627386        98.7062 
 127   0.0000       3.666072        99.7589 
 128   0.0000       3.669600        99.8549 
 129   0.0000       3.727342       101.4261 
 130   0.0000       3.775617       102.7398 
 131   0.0000       3.784642       102.9853 
 132   0.0000       3.817198       103.8712 
 133   0.0000       3.861837       105.0859 
 134   0.0000       3.909456       106.3817 
 135   0.0000       3.981590       108.3446 
 136   0.0000       3.992812       108.6499 
 137   0.0000       4.035643       109.8154 
 138   0.0000       4.071386       110.7881 
 139   0.0000       4.095085       111.4329 
 140   0.0000       4.104074       111.6775 
 141   0.0000       4.106014       111.7303 
 142   0.0000       4.203665       114.3875 
 143   0.0000       4.225896       114.9925 
 144   0.0000       4.264288       116.0372 
 145   0.0000       4.287085       116.6575 
 146   0.0000       4.339667       118.0883 
 147   0.0000       4.397420       119.6599 
 148   0.0000       4.420145       120.2783 
 149   0.0000       4.589358       124.8828 
 150   0.0000       4.599989       125.1721 
 151   0.0000       4.612875       125.5227 
 152   0.0000       4.676572       127.2560 
 153   0.0000       4.697567       127.8273 
 154   0.0000       4.742618       129.0532 
 155   0.0000       4.799360       130.5972 
 156   0.0000       4.843601       131.8011 
 157   0.0000       4.895300       133.2079 
 158   0.0000       4.988108       135.7333 
 159   0.0000       5.055506       137.5673 
 160   0.0000       5.096264       138.6764 
 161   0.0000       5.097112       138.6995 
 162   0.0000       5.119629       139.3122 
 163   0.0000       5.196536       141.4049 
 164   0.0000       5.199272       141.4794 
 165   0.0000       5.270697       143.4230 
 166   0.0000       5.275544       143.5548 
 167   0.0000       5.335545       145.1876 
 168   0.0000       5.350092       145.5834 
 169   0.0000       5.366516       146.0303 
 170   0.0000       5.374529       146.2484 
 171   0.0000       5.459475       148.5599 
 172   0.0000       5.531105       150.5090 
 173   0.0000       5.560227       151.3015 
 174   0.0000       5.590614       152.1283 
 175   0.0000       5.661369       154.0537 
 176   0.0000       5.673166       154.3747 
 177   0.0000       5.780341       157.2911 
 178   0.0000       5.812377       158.1628 
 179   0.0000       6.119513       166.5204 
 180   0.0000       6.175944       168.0560 
 181   0.0000       6.201733       168.7577 
 182   0.0000       6.375813       173.4947 
 183   0.0000       6.417305       174.6237 
 184   0.0000       6.535031       177.8272 
 185   0.0000       6.583857       179.1559 
 186   0.0000       6.800554       185.0525 
 187   0.0000       6.934628       188.7008 
 188   0.0000       7.078902       192.6267 
 189   0.0000       7.157655       194.7697 
 190   0.0000      23.561945       641.1531 
 191   0.0000      23.625429       642.8806 
 192   0.0000      32.855754       894.0505 
 193   0.0000      43.775919      1191.2033 

                    ********************************
                    * MULLIKEN POPULATION ANALYSIS *
                    ********************************

-----------------------
MULLIKEN ATOMIC CHARGES
-----------------------
   0 C :    0.169922
   1 O :   -0.445131
   2 N :   -0.163628
   3 C :   -0.162436
   4 H :    0.077847
   5 H :    0.176085
   6 H :    0.109681
   7 H :    0.118781
   8 H :    0.118879
Sum of atomic charges:   -0.0000000

--------------------------------
MULLIKEN REDUCED ORBITAL CHARGES
--------------------------------
  0 C s       :     3.139032  s :     3.139032
      pz      :     0.880124  p :     2.466292
      px      :     0.800024
      py      :     0.786145
      dz2     :     0.052889  d :     0.204979
      dxz     :     0.051906
      dyz     :     0.026337
      dx2y2   :     0.024625
      dxy     :     0.049222
      f0      :     0.004121  f :     0.019774
      f+1     :     0.002940
      f-1     :     0.001932
      f+2     :     0.004236
      f-2     :     0.001910
      f+3     :     0.001671
      f-3     :     0.002965
  1 O s       :     3.796049  s :     3.796049
      pz      :     1.471044  p :     4.619631
      px      :     1.667575
      py      :     1.481012
      dz2     :     0.007524  d :     0.027731
      dxz     :     0.007018
      dyz     :     0.006074
      dx2y2   :     0.003329
      dxy     :     0.003786
      f0      :     0.000327  f :     0.001720
      f+1     :     0.000396
      f-1     :     0.000165
      f+2     :     0.000324
      f-2     :     0.000339
      f+3     :     0.000095
      f-3     :     0.000074
  2 N s       :     3.436151  s :     3.436151
      pz      :     1.138510  p :     3.672299
      px      :     1.032197
      py      :     1.501592
      dz2     :     0.010581  d :     0.051665
      dxz     :     0.015951
      dyz     :     0.005654
      dx2y2   :     0.007900
      dxy     :     0.011579
      f0      :     0.000405  f :     0.003513
      f+1     :     0.000478
      f-1     :     0.000364
      f+2     :     0.000719
      f-2     :     0.000328
      f+3     :     0.000511
      f-3     :     0.000709
  3 C s       :     3.226880  s :     3.226880
      pz      :     0.845337  p :     2.848838
      px      :     0.972605
      py      :     1.030897
      dz2     :     0.017015  d :     0.080375
      dxz     :     0.018872
      dyz     :     0.016463
      dx2y2   :     0.005317
      dxy     :     0.022710
      f0      :     0.001016  f :     0.006342
      f+1     :     0.001363
      f-1     :     0.000658
      f+2     :     0.000968
      f-2     :     0.001478
      f+3     :     0.000593
      f-3     :     0.000265
  4 H s       :     0.888189  s :     0.888189
      pz      :     0.015740  p :     0.031995
      px      :     0.008512
      py      :     0.007743
      dz2     :     0.000581  d :     0.001969
      dxz     :     0.000547
      dyz     :     0.000389
      dx2y2   :     0.000251
      dxy     :     0.000202
  5 H s       :     0.764393  s :     0.764393
      pz      :     0.020893  p :     0.054623
      px      :     0.011301
      py      :     0.022429
      dz2     :     0.001521  d :     0.004898
      dxz     :     0.001027
      dyz     :     0.001265
      dx2y2   :     0.000492
      dxy     :     0.000593
  6 H s       :     0.855555  s :     0.855555
      pz      :     0.011424  p :     0.032997
      px      :     0.010971
      py      :     0.010601
      dz2     :     0.000670  d :     0.001768
      dxz     :     0.000130
      dyz     :     0.000391
      dx2y2   :     0.000245
      dxy     :     0.000332
  7 H s       :     0.849035  s :     0.849035
      pz      :     0.008639  p :     0.030512
      px      :     0.010320
      py      :     0.011552
      dz2     :     0.000072  d :     0.001673
      dxz     :     0.000374
      dyz     :     0.000424
      dx2y2   :     0.000630
      dxy     :     0.000173
  8 H s       :     0.848999  s :     0.848999
      pz      :     0.008878  p :     0.030450
      px      :     0.010290
      py      :     0.011283
      dz2     :     0.000269  d :     0.001671
      dxz     :     0.000358
      dyz     :     0.000250
      dx2y2   :     0.000606
      dxy     :     0.000188


                     *******************************
                     * LOEWDIN POPULATION ANALYSIS *
                     *******************************

----------------------
LOEWDIN ATOMIC CHARGES
----------------------
   0 C :   -0.330668
   1 O :   -0.004145
   2 N :    0.313125
   3 C :   -0.008934
   4 H :    0.002163
   5 H :   -0.015306
   6 H :    0.019521
   7 H :    0.012145
   8 H :    0.012099

-------------------------------
LOEWDIN REDUCED ORBITAL CHARGES
-------------------------------
  0 C s       :     2.770494  s :     2.770494
      pz      :     0.957952  p :     2.662152
      px      :     0.929785
      py      :     0.774415
      dz2     :     0.191775  d :     0.780819
      dxz     :     0.209743
      dyz     :     0.087578
      dx2y2   :     0.131185
      dxy     :     0.160538
      f0      :     0.026211  f :     0.117203
      f+1     :     0.017582
      f-1     :     0.012870
      f+2     :     0.023556
      f-2     :     0.012588
      f+3     :     0.009915
      f-3     :     0.014481
  1 O s       :     3.407644  s :     3.407644
      pz      :     1.521783  p :     4.524534
      px      :     1.595986
      py      :     1.406765
      dz2     :     0.018171  d :     0.065966
      dxz     :     0.020186
      dyz     :     0.012448
      dx2y2   :     0.007744
      dxy     :     0.007417
      f0      :     0.000973  f :     0.006000
      f+1     :     0.001543
      f-1     :     0.000716
      f+2     :     0.001094
      f-2     :     0.001126
      f+3     :     0.000254
      f-3     :     0.000295
  2 N s       :     2.878891  s :     2.878891
      pz      :     1.139862  p :     3.577353
      px      :     1.135366
      py      :     1.302124
      dz2     :     0.047540  d :     0.216348
      dxz     :     0.072578
      dyz     :     0.020976
      dx2y2   :     0.038304
      dxy     :     0.036952
      f0      :     0.002684  f :     0.014283
      f+1     :     0.001869
      f-1     :     0.001475
      f+2     :     0.003022
      f-2     :     0.001236
      f+3     :     0.002070
      f-3     :     0.001927
  3 C s       :     2.710489  s :     2.710489
      pz      :     0.903209  p :     2.899431
      px      :     0.977779
      py      :     1.018443
      dz2     :     0.067957  d :     0.353246
      dxz     :     0.096272
      dyz     :     0.066752
      dx2y2   :     0.022619
      dxy     :     0.099646
      f0      :     0.008203  f :     0.045768
      f+1     :     0.008634
      f-1     :     0.006109
      f+2     :     0.007774
      f-2     :     0.007060
      f+3     :     0.005134
      f-3     :     0.002854
  4 H s       :     0.838075  s :     0.838075
      pz      :     0.068526  p :     0.133223
      px      :     0.032494
      py      :     0.032203
      dz2     :     0.008288  d :     0.026539
      dxz     :     0.007773
      dyz     :     0.006206
      dx2y2   :     0.002041
      dxy     :     0.002231
  5 H s       :     0.717808  s :     0.717808
      pz      :     0.096313  p :     0.237627
      px      :     0.057102
      py      :     0.084212
      dz2     :     0.017766  d :     0.059871
      dxz     :     0.014566
      dyz     :     0.014822
      dx2y2   :     0.005889
      dxy     :     0.006827
  6 H s       :     0.805946  s :     0.805946
      pz      :     0.051558  p :     0.144988
      px      :     0.050447
      py      :     0.042984
      dz2     :     0.007631  d :     0.029544
      dxz     :     0.007582
      dyz     :     0.005604
      dx2y2   :     0.003609
      dxy     :     0.005118
  7 H s       :     0.814595  s :     0.814595
      pz      :     0.035046  p :     0.144314
      px      :     0.048814
      py      :     0.060455
      dz2     :     0.003061  d :     0.028946
      dxz     :     0.003859
      dyz     :     0.005049
      dx2y2   :     0.009082
      dxy     :     0.007895
  8 H s       :     0.814654  s :     0.814654
      pz      :     0.040549  p :     0.144305
      px      :     0.048829
      py      :     0.054927
      dz2     :     0.003780  d :     0.028941
      dxz     :     0.004351
      dyz     :     0.006026
      dx2y2   :     0.007381
      dxy     :     0.007403


                      *****************************
                      * MAYER POPULATION ANALYSIS *
                      *****************************

  NA   - Mulliken gross atomic population
  ZA   - Total nuclear charge
  QA   - Mulliken gross atomic charge
  VA   - Mayer's total valence
  BVA  - Mayer's bonded valence
  FA   - Mayer's free valence

  ATOM       NA         ZA         QA         VA         BVA        FA
  0 C      5.8301     6.0000     0.1699     4.2359     4.2359    -0.0000
  1 O      8.4451     8.0000    -0.4451     2.0414     2.0414     0.0000
  2 N      7.1636     7.0000    -0.1636     3.0833     3.0833    -0.0000
  3 C      6.1624     6.0000    -0.1624     3.8563     3.8563     0.0000
  4 H      0.9222     1.0000     0.0778     0.9979     0.9979    -0.0000
  5 H      0.8239     1.0000     0.1761     1.0121     1.0121    -0.0000
  6 H      0.8903     1.0000     0.1097     0.9987     0.9987    -0.0000
  7 H      0.8812     1.0000     0.1188     0.9787     0.9787    -0.0000
  8 H      0.8811     1.0000     0.1189     0.9786     0.9786    -0.0000

  Mayer bond orders larger than 0.100000
B(  0-C ,  1-O ) :   1.9548 B(  0-C ,  2-N ) :   1.2571 B(  0-C ,  4-H ) :   0.9793 
B(  2-N ,  3-C ) :   0.9195 B(  2-N ,  5-H ) :   0.9339 B(  3-C ,  6-H ) :   0.9740 
B(  3-C ,  7-H ) :   0.9713 B(  3-C ,  8-H ) :   0.9712 

-------
TIMINGS
-------

Total SCF time: 0 days 0 hours 0 min 2 sec 

Total time                  ....       2.811 sec
Sum of individual times     ....       2.707 sec  ( 96.3%)

Fock matrix formation       ....       2.357 sec  ( 83.9%)
  Split-RI-J                ....       0.187 sec  (  7.9% of F)
  Chain of spheres X        ....       1.640 sec  ( 69.6% of F)
  XC integration            ....       0.204 sec  (  8.7% of F)
    Basis function eval.    ....       0.054 sec  ( 26.3% of XC)
    Density eval.           ....       0.051 sec  ( 25.2% of XC)
    XC-Functional eval.     ....       0.008 sec  (  3.7% of XC)
    XC-Potential eval.      ....       0.073 sec  ( 36.0% of XC)
Diagonalization             ....       0.008 sec  (  0.3%)
Density matrix formation    ....       0.004 sec  (  0.1%)
Population analysis         ....       0.009 sec  (  0.3%)
Initial guess               ....       0.008 sec  (  0.3%)
Orbital Transformation      ....       0.000 sec  (  0.0%)
Orbital Orthonormalization  ....       0.005 sec  (  0.2%)
DIIS solution               ....       0.004 sec  (  0.1%)
SOSCF solution              ....       0.015 sec  (  0.5%)
Grid generation             ....       0.301 sec  ( 10.7%)

Maximum memory used throughout the entire SCF-calculation: 65.8 MB

-------------------------   --------------------
FINAL SINGLE POINT ENERGY      -209.190236557928
-------------------------   --------------------


                            ***************************************
                            *     ORCA property calculations      *
                            ***************************************

                                    ---------------------
                                    Active property flags
                                    ---------------------
   (+) Dipole Moment
   (+) Chemical Shifts
   (+) Nuclear properties (Hyperfine,Quadrupole)


------------------------------------------------------------------------------
                       ORCA ELECTRIC PROPERTIES CALCULATION
------------------------------------------------------------------------------

Dipole Moment Calculation                       ... on
Quadrupole Moment Calculation                   ... off
Polarizability Calculation                      ... off
GBWName                                         ... nmr.gbw
Electron density                                ... nmr.scfp
The origin for moment calculation is the CENTER OF MASS  = ( 3.486865,  0.035468  0.216461)

-------------
DIPOLE MOMENT
-------------
                                X             Y             Z
Electronic contribution:     -2.77357      -1.11767      -2.74714
Nuclear contribution   :      4.43766       1.61577       3.97540
                        -----------------------------------------
Total Dipole Moment    :      1.66409       0.49810       1.22826
                        -----------------------------------------
Magnitude (a.u.)       :      2.12742
Magnitude (Debye)      :      5.40747



--------------------
Rotational spectrum 
--------------------
 
Rotational constants in cm-1:     1.498804     0.146083     0.136530 
Rotational constants in MHz : 44933.011744  4379.466102  4093.059384 

 Dipole components along the rotational axes: 
x,y,z [a.u.] :    -2.125542    -0.089330    -0.001294 
x,y,z [Debye]:    -5.402699    -0.227059    -0.003289 

 


           ************************************************************
           *        Program running with 8 parallel MPI-processes     *
           *              working on a common directory               *
           ************************************************************
------------------------------------------------------------------------------
                                ORCA EPR/NMR CALCULATION
------------------------------------------------------------------------------

GBWName                      ... nmr.gbw
Electron density             ... nmr.scfp
Spin density                 ... nmr.scfr
Treatment of gauge           ... GIAO (approximations 1/2el = 0,0)
Details of the CP(SCF) procedure:
       Solver   = POPLE   
       MaxIter  =    64   
       Tolerance=    1.000e-03
       COSX Grid=     1   
       Op-0     =   0- 15 =>  16-193
Multiplicity                 ... 1
g-tensor                     ... 0
NMR chemical shifts          ... 1
NMR spin-spin couplings      ... 0
NMR spectrum                 ... 0
Number of nuclei for epr/nmr ... 9
   Nucleus:   4H 
       Hyperfine : Isotope=    0 I=   0.000 P=   0.000
       Quadrupole: Isotope=    0 I=   0.000 Q=   0.000
       Spin-Orbit: Zeff=   1.000
       Nuclear Spin-Spin: Gn=   0.000
       EPRNMR Input: 
       rho(0)=N f(grad)=N a(iso)=N a(dip)=N a(orb)=N sigma(nmr)=Y spin-spin(nmr)=all-N,DSO-N,PSO-N,FC-N,SD-N
   Nucleus:   5H 
       Hyperfine : Isotope=    0 I=   0.000 P=   0.000
       Quadrupole: Isotope=    0 I=   0.000 Q=   0.000
       Spin-Orbit: Zeff=   1.000
       Nuclear Spin-Spin: Gn=   0.000
       EPRNMR Input: 
       rho(0)=N f(grad)=N a(iso)=N a(dip)=N a(orb)=N sigma(nmr)=Y spin-spin(nmr)=all-N,DSO-N,PSO-N,FC-N,SD-N
   Nucleus:   6H 
       Hyperfine : Isotope=    0 I=   0.000 P=   0.000
       Quadrupole: Isotope=    0 I=   0.000 Q=   0.000
       Spin-Orbit: Zeff=   1.000
       Nuclear Spin-Spin: Gn=   0.000
       EPRNMR Input: 
       rho(0)=N f(grad)=N a(iso)=N a(dip)=N a(orb)=N sigma(nmr)=Y spin-spin(nmr)=all-N,DSO-N,PSO-N,FC-N,SD-N
   Nucleus:   7H 
       Hyperfine : Isotope=    0 I=   0.000 P=   0.000
       Quadrupole: Isotope=    0 I=   0.000 Q=   0.000
       Spin-Orbit: Zeff=   1.000
       Nuclear Spin-Spin: Gn=   0.000
       EPRNMR Input: 
       rho(0)=N f(grad)=N a(iso)=N a(dip)=N a(orb)=N sigma(nmr)=Y spin-spin(nmr)=all-N,DSO-N,PSO-N,FC-N,SD-N
   Nucleus:   8H 
       Hyperfine : Isotope=    0 I=   0.000 P=   0.000
       Quadrupole: Isotope=    0 I=   0.000 Q=   0.000
       Spin-Orbit: Zeff=   1.000
       Nuclear Spin-Spin: Gn=   0.000
       EPRNMR Input: 
       rho(0)=N f(grad)=N a(iso)=N a(dip)=N a(orb)=N sigma(nmr)=Y spin-spin(nmr)=all-N,DSO-N,PSO-N,FC-N,SD-N
   Nucleus:   0C 
       Hyperfine : Isotope=    0 I=   0.000 P=   0.000
       Quadrupole: Isotope=    0 I=   0.000 Q=   0.000
       Spin-Orbit: Zeff=   3.600
       Nuclear Spin-Spin: Gn=   0.000
       EPRNMR Input: 
       rho(0)=N f(grad)=N a(iso)=N a(dip)=N a(orb)=N sigma(nmr)=Y spin-spin(nmr)=all-N,DSO-N,PSO-N,FC-N,SD-N
   Nucleus:   3C 
       Hyperfine : Isotope=    0 I=   0.000 P=   0.000
       Quadrupole: Isotope=    0 I=   0.000 Q=   0.000
       Spin-Orbit: Zeff=   3.600
       Nuclear Spin-Spin: Gn=   0.000
       EPRNMR Input: 
       rho(0)=N f(grad)=N a(iso)=N a(dip)=N a(orb)=N sigma(nmr)=Y spin-spin(nmr)=all-N,DSO-N,PSO-N,FC-N,SD-N
   Nucleus:   2N 
       Hyperfine : Isotope=    0 I=   0.000 P=   0.000
       Quadrupole: Isotope=    0 I=   0.000 Q=   0.000
       Spin-Orbit: Zeff=   4.550
       Nuclear Spin-Spin: Gn=   0.000
       EPRNMR Input: 
       rho(0)=N f(grad)=N a(iso)=N a(dip)=N a(orb)=N sigma(nmr)=Y spin-spin(nmr)=all-N,DSO-N,PSO-N,FC-N,SD-N
   Nucleus:   1O 
       Hyperfine : Isotope=    0 I=   0.000 P=   0.000
       Quadrupole: Isotope=    0 I=   0.000 Q=   0.000
       Spin-Orbit: Zeff=   5.600
       Nuclear Spin-Spin: Gn=   0.000
       EPRNMR Input: 
       rho(0)=N f(grad)=N a(iso)=N a(dip)=N a(orb)=N sigma(nmr)=Y spin-spin(nmr)=all-N,DSO-N,PSO-N,FC-N,SD-N
Forming RHS of the CP-SCF equations         ... 
Calculating right hand sides for GIAO treatment        ... 
  Entering RightHandSide GIAO. ScalHFX=    0.2000 NeedHFX=1
     -> 1-electron GIAO integrals will be done analytically
     -> RIJCOSX used in SCF. Same chosen for GIAO calculation.
     Making grid for GIAO integrations   ...

GRID GIAO
---------

General Integration Accuracy     IntAcc      ... 4.388
Radial Grid Type                 RadialGrid  ... OptM3 with GC (2021)
Angular Grid (max. ang.)         AngularGrid ... 4 (Lebedev-302)
Angular grid pruning method      GridPruning ... 4 (adaptive)
Weight generation scheme         WeightScheme... Becke
Basis function cutoff            BFCut       ... 1.0000e-10
Integration weight cutoff        WCut        ... 1.0000e-14
Angular grids for H and He will be reduced by one unit
Partially contracted basis set               ... off
Rotationally invariant grid construction     ... off

Total number of grid points                  ...    40586
Total number of batches                      ...      639
Average number of points per batch           ...       63
Average number of grid points per atom       ...     4510

  One-electron GIAO integrals (SHARK)     ... done
  Calculating G(B)[P]                     ... (RI-J: SHARK-ok) (COSX-ok) (add-J+K:ok) => dG/dB done
  DFT XC-terms                            ... done
  Forming the GIAO-CPCM matrix            ... done (epsilon= 24.30 f(epsilon)= 0.958848)
  Extracting occupied and virtual blocks  ... 
  Operator  0  NO=  16 NV= 178 
  Transforming and RHS contribution       ... done
  Adding eps_i * S(B)_ai terms            ... done
  Projecting overlap derivatives          ... done
  Building G[dS/dB_ij] (COSX)             ... done
  Transforming to MO basis                ... done
  Summing G[dS/dB_ij] into RHS contribs.  ... done

  GIAO profiling information: 
    Total GIAO time               ...       2.2 sec
       GIAO 1-electron integrals  ...       0.0 sec (  0.7%)
       GIAO G(dS/dB) terms        ...       0.1 sec (  5.4%)
       GIAO RI-J                  ...       0.1 sec (  5.9%)
       GIAO COSX                  ...       0.4 sec ( 17.9%)
       GIAO XC-terms              ...       0.8 sec ( 39.3%)
       GIAO Solvent terms         ...       0.5 sec ( 22.4%)
       Right hand side assembly   ...       0.0 sec (  0.2%)

  GIAO right hand side done


------------------------------------------------------------------------------
                           ORCA CP-SCF CALCULATION
------------------------------------------------------------------------------

Input orbitals are from        ... nmr.gbw
Input Perturbation             ... nmr.pin.tmp
Wavefunction output            ... nmr.pout.tmp
Perturbation mode              ... Imaginary perturbation
Solver                         ... POPLE
Max. number of iterations      ... 64
Convergence tolerance          ... 1.000e-03
Integral handling              ... Direct
DFT GridXC                     ... 1
COSX GridX                     ... 1
COSX IntAccX                   ... 3.067
COSX Algorithm                 ... Auto
Number of perturbations        ... 3
Number of operators            ... 1
Orbital ranges used for CP-SCF:
 Operator 0:  Orbitals   0... 15  to  16...193
Variables per perturbation     ... 2848
DFT calculation                         ... on
XC functional terms                     ... off
Hybrid DFT                              ... on
   Exchange mixing (SCF)                ...  0.200
   Exchange mixing (CP-SCF)             ...  0.200
   GGA exch. scaling(SCF)               ...  0.720
   GGA exch. scaling (CP-SCF)           ...  0.720
   GGA corr. scaling (SCF)              ...  0.810
   GGA corr. scaling (CP-SCF)           ...  0.810

CP-SCF GRID
-----------

General Integration Accuracy     IntAcc      ... 3.467
Radial Grid Type                 RadialGrid  ... OptM3 with GC (2021)
Angular Grid (max. ang.)         AngularGrid ... 1 (Lebedev-50)
Angular grid pruning method      GridPruning ... 4 (adaptive)
Weight generation scheme         WeightScheme... Becke
Basis function cutoff            BFCut       ... 1.0000e-10
Integration weight cutoff        WCut        ... 1.0000e-14
Angular grids for H and He will be reduced by one unit
Partially contracted basis set               ... off
Rotationally invariant grid construction     ... off

Total number of grid points                  ...     5868
Total number of batches                      ...       96
Average number of points per batch           ...       61
Average number of grid points per atom       ...      652

CP-SCF GRIDX
------------

General Integration Accuracy     IntAcc      ... 3.067
Radial Grid Type                 RadialGrid  ... OptM3 with GC (2021)
Angular Grid (max. ang.)         AngularGrid ... 1 (Lebedev-50)
Angular grid pruning method      GridPruning ... 4 (adaptive)
Weight generation scheme         WeightScheme... Becke
Basis function cutoff            BFCut       ... 1.0000e-10
Integration weight cutoff        WCut        ... 1.0000e-14
Angular grids for H and He will be reduced by one unit
Partially contracted basis set               ... on
Rotationally invariant grid construction     ... off

Total number of grid points                  ...     2710
Total number of batches                      ...       49
Average number of points per batch           ...       55
Average number of grid points per atom       ...      301

Memory available               ... 31985.1 MB
Memory needed per perturbation ...   1.3 MB
Perturbations treated per batch... 3
Number of batches              ... 1
     CP-SCF ITERATION   0:   3.4367e-01 (   0.1 sec   0/  3 done)
     CP-SCF ITERATION   1:   1.4801e-02 (   0.1 sec   0/  3 done)
     CP-SCF ITERATION   2:   8.7495e-04 (   0.1 sec   3/  3 done)
                    *** THE CP-SCF HAS CONVERGED ***

Forming final perturbed densities           ... done
Transforming perturbed density to AO basis  ... done

Magnetic field perturbation calculated in  2.577 sec

---------------
CHEMICAL SHIFTS
---------------

Note: using conversion factor for au to ppm alpha^2/2 =   26.625677252 
GIAO: Analytic para- and diamagnetic shielding integrals (SHARK)       ...done
 --------------
 Nucleus   4H :
 --------------

Diamagnetic contribution to the shielding tensor (ppm) : 
            29.857         -1.986        -5.164
            -2.067         29.112         3.800
            -5.124          3.768        37.100

Paramagnetic contribution to the shielding tensor (ppm): 
            -4.705          2.777         7.100
             1.541         -7.901        -2.531
             3.798         -2.497       -13.245

Total shielding tensor (ppm): 
            25.153          0.791         1.936
            -0.527         21.210         1.270
            -1.326          1.272        23.855


 Diagonalized sT*s matrix:
 
 sDSO            27.604           41.225           27.241  iso=      32.023
 sPSO            -6.905          -16.978           -1.968  iso=      -8.617
        ---------------  ---------------  ---------------
 Total           20.699           24.246           25.273  iso=      23.406

 --------------
 Nucleus   5H :
 --------------

Diamagnetic contribution to the shielding tensor (ppm) : 
            33.318         -2.743        -6.630
            -4.368         23.472         6.835
           -10.797          6.913        37.544

Paramagnetic contribution to the shielding tensor (ppm): 
            -4.830          0.706         1.589
             4.062         -0.137        -4.642
            10.035         -4.718        -9.694

Total shielding tensor (ppm): 
            28.488         -2.037        -5.042
            -0.306         23.336         2.193
            -0.763          2.195        27.850


 Diagonalized sT*s matrix:
 
 sDSO            20.672           27.065           46.597  iso=      31.445
 sPSO             1.773           -1.573          -14.861  iso=      -4.887
        ---------------  ---------------  ---------------
 Total           22.445           25.492           31.736  iso=      26.558

 --------------
 Nucleus   6H :
 --------------

Diamagnetic contribution to the shielding tensor (ppm) : 
            27.812         -1.352        -3.189
            -0.476         21.595         6.154
            -1.195          6.096        34.216

Paramagnetic contribution to the shielding tensor (ppm): 
            -0.125          1.373         3.245
            -0.266          4.799        -3.892
            -0.623         -3.848        -3.219

Total shielding tensor (ppm): 
            27.687          0.021         0.056
            -0.742         26.394         2.261
            -1.819          2.248        30.996


 Diagonalized sT*s matrix:
 
 sDSO            19.111           27.220           37.291  iso=      27.874
 sPSO             6.362            0.264           -5.171  iso=       0.485
        ---------------  ---------------  ---------------
 Total           25.474           27.484           32.120  iso=      28.359

 --------------
 Nucleus   7H :
 --------------

Diamagnetic contribution to the shielding tensor (ppm) : 
            29.296          8.345         1.070
             9.714         28.651         0.724
             1.434          0.026        22.085

Paramagnetic contribution to the shielding tensor (ppm): 
            -0.152         -3.643         0.032
            -4.601          1.820        -1.226
             0.315          0.813         4.812

Total shielding tensor (ppm): 
            29.144          4.702         1.102
             5.113         30.471        -0.502
             1.749          0.839        26.897


 Diagonalized sT*s matrix:
 
 sDSO            19.950           22.124           37.958  iso=      26.677
 sPSO             4.508            5.028           -3.056  iso=       2.160
        ---------------  ---------------  ---------------
 Total           24.458           27.152           34.902  iso=      28.837

 --------------
 Nucleus   8H :
 --------------

Diamagnetic contribution to the shielding tensor (ppm) : 
            29.270         -5.302         6.626
            -5.949         25.014        -3.664
             7.797         -3.063        25.653

Paramagnetic contribution to the shielding tensor (ppm): 
            -0.123          2.704        -2.547
             3.512          3.541         2.547
            -2.967          0.602         3.153

Total shielding tensor (ppm): 
            29.146         -2.598         4.079
            -2.437         28.555        -1.118
             4.830         -2.461        28.806


 Diagonalized sT*s matrix:
 
 sDSO            19.928           22.009           37.999  iso=      26.645
 sPSO             4.523            5.141           -3.093  iso=       2.190
        ---------------  ---------------  ---------------
 Total           24.451           27.150           34.906  iso=      28.836

 --------------
 Nucleus   0C :
 --------------

Diamagnetic contribution to the shielding tensor (ppm) : 
           264.155          3.549         8.444
             2.687        233.418         9.555
             6.519          9.483       253.309

Paramagnetic contribution to the shielding tensor (ppm): 
          -277.966         17.331        43.469
            14.451       -169.896       -43.219
            36.072        -43.018      -259.561

Total shielding tensor (ppm): 
           -13.811         20.880        51.912
            17.138         63.523       -33.665
            42.592        -33.535        -6.253


 Diagonalized sT*s matrix:
 
 sDSO           269.460          251.823          229.599  iso=     250.294
 sPSO          -237.382         -317.508         -152.534  iso=    -235.808
        ---------------  ---------------  ---------------
 Total           32.078          -65.685           77.065  iso=      14.486

 --------------
 Nucleus   3C :
 --------------

Diamagnetic contribution to the shielding tensor (ppm) : 
           241.775          3.797         9.430
             4.963        233.323         5.231
            12.280          5.135       244.189

Paramagnetic contribution to the shielding tensor (ppm): 
           -93.540          5.581        13.577
             4.592        -83.622         3.256
            11.324          3.369       -77.022

Total shielding tensor (ppm): 
           148.235          9.378        23.007
             9.555        149.701         8.487
            23.604          8.504       167.167


 Diagonalized sT*s matrix:
 
 sDSO           232.407          231.248          255.632  iso=     239.763
 sPSO          -100.513          -84.997          -68.674  iso=     -84.728
        ---------------  ---------------  ---------------
 Total          131.894          146.251          186.958  iso=     155.034

 --------------
 Nucleus   2N :
 --------------

Diamagnetic contribution to the shielding tensor (ppm) : 
           330.135          1.053         2.547
            -0.885        299.014        13.438
            -2.244         13.727       326.700

Paramagnetic contribution to the shielding tensor (ppm): 
          -119.834        -31.433       -77.494
            -8.189       -161.917       -62.474
           -20.558        -63.001      -290.850

Total shielding tensor (ppm): 
           210.301        -30.379       -74.947
            -9.074        137.096       -49.036
           -22.802        -49.274        35.850


 Diagonalized sT*s matrix:
 
 sDSO           332.089          293.464          330.296  iso=     318.616
 sPSO          -326.271         -136.429         -109.900  iso=    -190.867
        ---------------  ---------------  ---------------
 Total            5.818          157.034          220.395  iso=     127.749

 --------------
 Nucleus   1O :
 --------------

Diamagnetic contribution to the shielding tensor (ppm) : 
           401.131          5.840        14.149
             6.206        393.030         8.185
            15.375          8.604       409.905

Paramagnetic contribution to the shielding tensor (ppm): 
          -619.455        -36.497       -88.407
           -17.055       -146.493      -173.767
           -42.127       -174.771      -508.023

Total shielding tensor (ppm): 
          -218.324        -30.657       -74.258
           -10.849        246.537      -165.582
           -26.751       -166.167       -98.118


 Diagonalized sT*s matrix:
 
 sDSO           394.050          420.445          389.571  iso=     401.355
 sPSO          -525.474         -672.295          -76.202  iso=    -424.657
        ---------------  ---------------  ---------------
 Total         -131.424         -251.850          313.369  iso=     -23.302



--------------------------------
CHEMICAL SHIELDING SUMMARY (ppm)
--------------------------------


  Nucleus  Element    Isotropic     Anisotropy
  -------  -------  ------------   ------------
      4       H           23.406          2.800 
      5       H           26.558          7.768 
      6       H           28.359          5.641 
      7       H           28.837          9.096 
      8       H           28.836          9.106 
      0       C           14.486         93.868 
      3       C          155.034         47.886 
      2       N          127.749        138.969 
      1       O          -23.302        505.006 



Maximum memory used throughout the entire EPRNMR-calculation: 22.1 MB

Timings for individual modules:

Sum of individual times         ...        6.426 sec (=   0.107 min)
GTO integral calculation        ...        0.384 sec (=   0.006 min)   6.0 %
SCF iterations                  ...        3.069 sec (=   0.051 min)  47.8 %
EPR/NMR calculation             ...        2.972 sec (=   0.050 min)  46.3 %
                             ****ORCA TERMINATED NORMALLY****
TOTAL RUN TIME: 0 days 0 hours 0 minutes 6 seconds 792 msec
