-------------------------------------------------------------
----------------------- !PROPERTIES! ------------------------
-------------------------------------------------------------
# -----------------------------------------------------------
$ PAL_Flags
   description: The PAL Flags
   geom. index: 1
   prop. index: 1
        Diskflag:     2
# -----------------------------------------------------------
$ SCF_Energy
   description: The SCF energy
   geom. index: 1
   prop. index: 1
        SCF Energy:     -449.1079596224
# -----------------------------------------------------------
$ DFT_Energy
   description: The DFT energy
   geom. index: 1
   prop. index: 1
   Number of Alpha Electrons                 25.0000032667 
   Number of Beta  Electrons                 25.0000032667 
   Total number of  Electrons                50.0000065334 
   Exchange energy                          -35.9530457079 
   Correlation energy                        -1.9846605473 
   Correlation energy NL                      0.0000000000 
   Exchange-Correlation energy              -37.9377062553 
   Embedding correction                       0.0000000000 
   Total DFT Energy (No VdW correction)    -449.1079596224 
# -----------------------------------------------------------
$ Mayer_Pop
   description: The Mayer population analysis
   geom. index: 1
   prop. index: 1
     Number of atoms                     : 17
     Threshold for printing              : 0.1000000
     Number of bond orders printed       : 16
  NA   - Mulliken gross atomic population
  ZA   - Total nuclear charge
  QA   - Mulliken gross atomic charge
  VA   - Mayer's total valence
  BVA  - Mayer's bonded valence
  FA   - Mayer's free valence
  ATOM       NA         ZA         QA         VA         BVA        FA
  0   0    13.5092    14.0000     0.4908     4.0969     4.0969     0.0000
  1   0     6.3946     6.0000    -0.3946     3.8594     3.8594     0.0000
  2   0     6.3950     6.0000    -0.3950     3.8592     3.8592    -0.0000
  3   0     6.3950     6.0000    -0.3950     3.8595     3.8595     0.0000
  4   0     6.3947     6.0000    -0.3947     3.8596     3.8596    -0.0000
  5   0     0.9094     1.0000     0.0906     1.0054     1.0054     0.0000
  6   0     0.9094     1.0000     0.0906     1.0054     1.0054     0.0000
  7   0     0.9094     1.0000     0.0906     1.0054     1.0054     0.0000
  8   0     0.9092     1.0000     0.0908     1.0053     1.0053    -0.0000
  9   0     0.9092     1.0000     0.0908     1.0053     1.0053    -0.0000
 10   0     0.9093     1.0000     0.0907     1.0054     1.0054    -0.0000
 11   0     0.9091     1.0000     0.0909     1.0053     1.0053     0.0000
 12   0     0.9093     1.0000     0.0907     1.0053     1.0053     0.0000
 13   0     0.9094     1.0000     0.0906     1.0054     1.0054     0.0000
 14   0     0.9091     1.0000     0.0909     1.0053     1.0053    -0.0000
 15   0     0.9095     1.0000     0.0905     1.0054     1.0054    -0.0000
 16   0     0.9094     1.0000     0.0906     1.0054     1.0054     0.0000
      Bond orders larger than 0.1000000
           Atom A     A.N. of A          Atom B    A.N. of B              Bond order
                0            14               1            6                0.967523
                0            14               2            6                0.967512
                0            14               3            6                0.967766
                0            14               4            6                0.967835
                1             6               5            1                0.966383
                1             6               6            1                0.966281
                1             6               7            1                0.966396
                2             6               8            1                0.966221
                2             6               9            1                0.966240
                2             6              10            1                0.966321
                3             6              11            1                0.966237
                3             6              12            1                0.966293
                3             6              13            1                0.966306
                4             6              14            1                0.966299
                4             6              15            1                0.966267
                4             6              16            1                0.966265
# -----------------------------------------------------------
$ VdW_Correction
   description: The Van der Waals Correction
   geom. index: 1
   prop. index: 1
        Van der Waals Correction:       -0.0240054204
# -----------------------------------------------------------
$ PAL_Flags
   description: The PAL Flags
   geom. index: 2
   prop. index: 1
        Diskflag:     2
# -----------------------------------------------------------
$ SCF_Energy
   description: The SCF energy
   geom. index: 2
   prop. index: 1
        SCF Energy:     -449.1116681427
# -----------------------------------------------------------
$ DFT_Energy
   description: The DFT energy
   geom. index: 2
   prop. index: 1
   Number of Alpha Electrons                 25.0000013348 
   Number of Beta  Electrons                 25.0000013348 
   Total number of  Electrons                50.0000026696 
   Exchange energy                          -36.0012206429 
   Correlation energy                        -1.9870946906 
   Correlation energy NL                      0.0000000000 
   Exchange-Correlation energy              -37.9883153336 
   Embedding correction                       0.0000000000 
   Total DFT Energy (No VdW correction)    -449.1116681427 
# -----------------------------------------------------------
$ VdW_Correction
   description: The Van der Waals Correction
   geom. index: 2
   prop. index: 1
        Van der Waals Correction:       -0.0238674611
# -----------------------------------------------------------
$ PAL_Flags
   description: The PAL Flags
   geom. index: 3
   prop. index: 1
        Diskflag:     2
# -----------------------------------------------------------
$ SCF_Energy
   description: The SCF energy
   geom. index: 3
   prop. index: 1
        SCF Energy:     -449.1122287604
# -----------------------------------------------------------
$ DFT_Energy
   description: The DFT energy
   geom. index: 3
   prop. index: 1
   Number of Alpha Electrons                 25.0000028898 
   Number of Beta  Electrons                 25.0000028898 
   Total number of  Electrons                50.0000057796 
   Exchange energy                          -36.0023670438 
   Correlation energy                        -1.9868489347 
   Correlation energy NL                      0.0000000000 
   Exchange-Correlation energy              -37.9892159785 
   Embedding correction                       0.0000000000 
   Total DFT Energy (No VdW correction)    -449.1122287604 
# -----------------------------------------------------------
$ VdW_Correction
   description: The Van der Waals Correction
   geom. index: 3
   prop. index: 1
        Van der Waals Correction:       -0.0237341403
# -----------------------------------------------------------
$ PAL_Flags
   description: The PAL Flags
   geom. index: 4
   prop. index: 1
        Diskflag:     2
# -----------------------------------------------------------
$ SCF_Energy
   description: The SCF energy
   geom. index: 4
   prop. index: 1
        SCF Energy:     -449.1124559283
# -----------------------------------------------------------
$ DFT_Energy
   description: The DFT energy
   geom. index: 4
   prop. index: 1
   Number of Alpha Electrons                 25.0000055848 
   Number of Beta  Electrons                 25.0000055848 
   Total number of  Electrons                50.0000111695 
   Exchange energy                          -35.9957255619 
   Correlation energy                        -1.9862542683 
   Correlation energy NL                      0.0000000000 
   Exchange-Correlation energy              -37.9819798302 
   Embedding correction                       0.0000000000 
   Total DFT Energy (No VdW correction)    -449.1124559283 
# -----------------------------------------------------------
$ VdW_Correction
   description: The Van der Waals Correction
   geom. index: 4
   prop. index: 1
        Van der Waals Correction:       -0.0236348426
# -----------------------------------------------------------
$ PAL_Flags
   description: The PAL Flags
   geom. index: 5
   prop. index: 1
        Diskflag:     2
# -----------------------------------------------------------
$ SCF_Energy
   description: The SCF energy
   geom. index: 5
   prop. index: 1
        SCF Energy:     -449.1124736073
# -----------------------------------------------------------
$ DFT_Energy
   description: The DFT energy
   geom. index: 5
   prop. index: 1
   Number of Alpha Electrons                 25.0000065660 
   Number of Beta  Electrons                 25.0000065660 
   Total number of  Electrons                50.0000131320 
   Exchange energy                          -35.9939272814 
   Correlation energy                        -1.9861465858 
   Correlation energy NL                      0.0000000000 
   Exchange-Correlation energy              -37.9800738672 
   Embedding correction                       0.0000000000 
   Total DFT Energy (No VdW correction)    -449.1124736073 
# -----------------------------------------------------------
$ VdW_Correction
   description: The Van der Waals Correction
   geom. index: 5
   prop. index: 1
        Van der Waals Correction:       -0.0236265025
# -----------------------------------------------------------
$ PAL_Flags
   description: The PAL Flags
   geom. index: 6
   prop. index: 1
        Diskflag:     2
# -----------------------------------------------------------
$ SCF_Energy
   description: The SCF energy
   geom. index: 6
   prop. index: 1
        SCF Energy:     -449.1124704848
# -----------------------------------------------------------
$ DFT_Energy
   description: The DFT energy
   geom. index: 6
   prop. index: 1
   Number of Alpha Electrons                 25.0000071989 
   Number of Beta  Electrons                 25.0000071989 
   Total number of  Electrons                50.0000143978 
   Exchange energy                          -35.9939391372 
   Correlation energy                        -1.9861752365 
   Correlation energy NL                      0.0000000000 
   Exchange-Correlation energy              -37.9801143737 
   Embedding correction                       0.0000000000 
   Total DFT Energy (No VdW correction)    -449.1124704848 
# -----------------------------------------------------------
$ VdW_Correction
   description: The Van der Waals Correction
   geom. index: 6
   prop. index: 1
        Van der Waals Correction:       -0.0236324009
# -----------------------------------------------------------
$ PAL_Flags
   description: The PAL Flags
   geom. index: 7
   prop. index: 1
        Diskflag:     2
# -----------------------------------------------------------
$ SCF_Energy
   description: The SCF energy
   geom. index: 7
   prop. index: 1
        SCF Energy:     -449.1124639385
# -----------------------------------------------------------
$ DFT_Energy
   description: The DFT energy
   geom. index: 7
   prop. index: 1
   Number of Alpha Electrons                 25.0000075034 
   Number of Beta  Electrons                 25.0000075034 
   Total number of  Electrons                50.0000150069 
   Exchange energy                          -35.9946176165 
   Correlation energy                        -1.9862389712 
   Correlation energy NL                      0.0000000000 
   Exchange-Correlation energy              -37.9808565877 
   Embedding correction                       0.0000000000 
   Total DFT Energy (No VdW correction)    -449.1124639385 
# -----------------------------------------------------------
$ Mayer_Pop
   description: The Mayer population analysis
   geom. index: 7
   prop. index: 1
     Number of atoms                     : 17
     Threshold for printing              : 0.1000000
     Number of bond orders printed       : 16
  NA   - Mulliken gross atomic population
  ZA   - Total nuclear charge
  QA   - Mulliken gross atomic charge
  VA   - Mayer's total valence
  BVA  - Mayer's bonded valence
  FA   - Mayer's free valence
  ATOM       NA         ZA         QA         VA         BVA        FA
  0   0    13.4810    14.0000     0.5190     4.0465     4.0465    -0.0000
  1   0     6.4141     6.0000    -0.4141     3.8604     3.8604     0.0000
  2   0     6.4144     6.0000    -0.4144     3.8603     3.8603     0.0000
  3   0     6.4146     6.0000    -0.4146     3.8606     3.8606     0.0000
  4   0     6.4145     6.0000    -0.4145     3.8607     3.8607     0.0000
  5   0     0.9052     1.0000     0.0948     1.0051     1.0051     0.0000
  6   0     0.9052     1.0000     0.0948     1.0050     1.0050     0.0000
  7   0     0.9052     1.0000     0.0948     1.0050     1.0050     0.0000
  8   0     0.9050     1.0000     0.0950     1.0049     1.0049     0.0000
  9   0     0.9051     1.0000     0.0949     1.0049     1.0049     0.0000
 10   0     0.9052     1.0000     0.0948     1.0049     1.0049     0.0000
 11   0     0.9049     1.0000     0.0951     1.0049     1.0049     0.0000
 12   0     0.9051     1.0000     0.0949     1.0049     1.0049     0.0000
 13   0     0.9052     1.0000     0.0948     1.0049     1.0049     0.0000
 14   0     0.9048     1.0000     0.0952     1.0048     1.0048     0.0000
 15   0     0.9053     1.0000     0.0947     1.0049     1.0049     0.0000
 16   0     0.9051     1.0000     0.0949     1.0050     1.0050     0.0000
      Bond orders larger than 0.1000000
           Atom A     A.N. of A          Atom B    A.N. of B              Bond order
                0            14               1            6                0.959916
                0            14               2            6                0.959952
                0            14               3            6                0.960134
                0            14               4            6                0.960213
                1             6               5            1                0.968343
                1             6               6            1                0.968296
                1             6               7            1                0.968417
                2             6               8            1                0.968222
                2             6               9            1                0.968240
                2             6              10            1                0.968254
                3             6              11            1                0.968240
                3             6              12            1                0.968279
                3             6              13            1                0.968293
                4             6              14            1                0.968277
                4             6              15            1                0.968274
                4             6              16            1                0.968220
# -----------------------------------------------------------
$ VdW_Correction
   description: The Van der Waals Correction
   geom. index: 7
   prop. index: 1
        Van der Waals Correction:       -0.0236395270
# -----------------------------------------------------------
$ SCF_Electric_Properties
   description: The SCF Calculated Electric Properties
   geom. index: 7
   prop. index: 1
       Filename                          : opt.scfp 
       Do Dipole Moment Calculation      : true 
       Do Quadrupole Moment Calculation  : false 
       Do Polarizability Calculation     : false 
** Dipole moment part of electric properties **
        Magnitude of dipole moment (Debye) :        0.0023767742
        Electronic Contribution:
                  0    
      0       0.001724
      1      -0.002388
      2      -0.005833
        Nuclear Contribution:
                  0    
      0      -0.001424
      1       0.001961
      2       0.005058
        Total Dipole moment:
                  0    
      0       0.000300
      1      -0.000427
      2      -0.000776
# -------------------------------------------------------------
----------------------- !GEOMETRIES! ------------------------
# -------------------------------------------------------------
------------------------ !GEOMETRY! -------------------------
    Number of atoms:    17 
    Geometry Index:     1 
    Coordinates:
               0 Si     1.067000000000    0.067300000000    0.031330000000
               1 C      0.444780000000    0.667300000000    1.685770000000
               2 C      0.444790000000    1.200070000000   -1.315520000000
               3 C      0.444790000000   -1.665500000000   -0.276260000000
               4 C      2.933640000000    0.067310000000    0.031340000000
               5 H     -0.664530000000    0.667160000000    1.685380000000
               6 H      0.814740000000    1.697070000000    1.868210000000
               7 H      0.814740000000   -0.006110000000    2.485900000000
               8 H     -0.664520000000    1.199810000000   -1.315210000000
               9 H      0.814760000000    0.843190000000   -2.298530000000
              10 H      0.814750000000    2.229710000000   -1.132380000000
              11 H     -0.664520000000   -1.665090000000   -0.276190000000
              12 H      0.814740000000   -2.338380000000    0.524320000000
              13 H      0.814750000000   -2.021720000000   -1.259520000000
              14 H      3.303020000000    1.097220000000    0.214170000000
              15 H      3.303040000000   -0.289300000000   -0.951990000000
              16 H      3.303030000000   -0.605970000000    0.831850000000
------------------------ !GEOMETRY! -------------------------
    Number of atoms:    17 
    Geometry Index:     2 
    Coordinates:
               0 Si     1.067071475993    0.067251917274    0.031051192685
               1 C      0.441897448713    0.670098004919    1.692038142423
               2 C      0.442383609548    1.204996319537   -1.321271060891
               3 C      0.442208245516   -1.672855111060   -0.277105269299
               4 C      2.941518309346    0.066944221230    0.031553551520
               5 H     -0.650078157817    0.673344990942    1.704645542883
               6 H      0.798455082634    1.684456277271    1.883072586377
               7 H      0.800303855701    0.015761702617    2.489489892486
               8 H     -0.649567071747    1.213684884247   -1.331868716702
               9 H      0.800375820435    0.864504974624   -2.295206669183
              10 H      0.799893464316    2.222921820782   -1.151995815508
              11 H     -0.649783435281   -1.686608413750   -0.276249868353
              12 H      0.802351732788   -2.346115306992    0.503599397143
              13 H      0.797310027813   -2.034908090412   -1.244338963238
              14 H      3.318330333701    1.075762172572    0.213085441551
              15 H      3.318511410606   -0.280700695096   -0.932643389005
              16 H      3.317817847735   -0.594469668706    0.814814005111
------------------------ !GEOMETRY! -------------------------
    Number of atoms:    17 
    Geometry Index:     3 
    Coordinates:
               0 Si     1.067135597690    0.067186619331    0.030820530744
               1 C      0.439636148202    0.672386009845    1.695998611915
               2 C      0.441160616135    1.208249110584   -1.325414168228
               3 C      0.440368968755   -1.677872586580   -0.277476671973
               4 C      2.946871719867    0.066399017976    0.031957308845
               5 H     -0.650298124435    0.676434682721    1.718012455209
               6 H      0.788720848062    1.686009041617    1.893782760837
               7 H      0.794476399966    0.026456483955    2.499295467281
               8 H     -0.648724104681    1.223192533798   -1.343988240358
               9 H      0.794448979397    0.876069384678   -2.301816911663
              10 H      0.793250604011    2.227325433977   -1.164018956011
              11 H     -0.649546160594   -1.702068203888   -0.272851628451
              12 H      0.799644361552   -2.358051132442    0.494946240300
              13 H      0.785696852290   -2.046234894769   -1.243730117517
              14 H      3.332359201819    1.069297399471    0.216678089655
              15 H      3.332692789623   -0.275983348910   -0.928478855021
              16 H      3.331105302340   -0.594725551365    0.808954084438
------------------------ !GEOMETRY! -------------------------
    Number of atoms:    17 
    Geometry Index:     4 
    Coordinates:
               0 Si     1.067197080514    0.067102412441    0.030624018464
               1 C      0.438049745371    0.674040896688    1.697980321589
               2 C      0.440779618900    1.210098909214   -1.327957225987
               3 C      0.439267163731   -1.680821566578   -0.277489528927
               4 C      2.949979197376    0.065790927547    0.032370502538
               5 H     -0.652833081803    0.677718177196    1.727570764489
               6 H      0.781154932687    1.689893309360    1.900895386860
               7 H      0.791650900787    0.033966819950    2.508015435828
               8 H     -0.650022472369    1.230086193643   -1.352898159129
               9 H      0.791267608814    0.883665432822   -2.308548601057
              10 H      0.789557396343    2.232404339501   -1.172263195453
              11 H     -0.651522640820   -1.713514133903   -0.268311742990
              12 H      0.800010407578   -2.368203803589    0.489450376325
              13 H      0.776407616988   -2.054510081630   -1.245842101357
              14 H      3.343228990121    1.066085682316    0.221413507476
              15 H      3.343695775094   -0.271977382467   -0.927765728118
              16 H      3.341131760688   -0.597756132512    0.805425969449
------------------------ !GEOMETRY! -------------------------
    Number of atoms:    17 
    Geometry Index:     5 
    Coordinates:
               0 Si     1.067219530673    0.067055624335    0.030571144862
               1 C      0.437928077781    0.674203525700    1.697381383380
               2 C      0.441182329015    1.209856075774   -1.327794236928
               3 C      0.439368138277   -1.680525299473   -0.277257677197
               4 C      2.949616641521    0.065528889127    0.032512298057
               5 H     -0.653555877897    0.677029603662    1.728665824441
               6 H      0.779189685231    1.691231780322    1.900971861573
               7 H      0.791943700890    0.035719588213    2.509355825649
               8 H     -0.650209626841    1.231051220457   -1.354079611636
               9 H      0.791190397939    0.884496459734   -2.309627452157
              10 H      0.789543910315    2.233156348319   -1.173171865418
              11 H     -0.651985629742   -1.715179967565   -0.266089817526
              12 H      0.801418476254   -2.369772289367    0.488312207789
              13 H      0.774062381634   -2.055168906904   -1.246809153633
              14 H      3.344695204809    1.065436234664    0.223495258161
              15 H      3.345185610238   -0.270501514159   -0.928202445205
              16 H      3.342207049904   -0.599547372838    0.804436455789
------------------------ !GEOMETRY! -------------------------
    Number of atoms:    17 
    Geometry Index:     6 
    Coordinates:
               0 Si     1.067238963956    0.067009180810    0.030531210471
               1 C      0.438023598325    0.674125659749    1.696411195702
               2 C      0.441669015957    1.209338382654   -1.327210632490
               3 C      0.439663802860   -1.679775986258   -0.276995751924
               4 C      2.948758253336    0.065322121727    0.032582903273
               5 H     -0.653676233909    0.676109180763    1.728506262645
               6 H      0.777975844359    1.691838495472    1.900029628202
               7 H      0.792488587873    0.036792117011    2.509407217082
               8 H     -0.649929756747    1.231255171924   -1.354074492355
               9 H      0.791347092280    0.884507183823   -2.309594983177
              10 H      0.789965176387    2.232985958752   -1.173054834092
              11 H     -0.651875659532   -1.715448738484   -0.264413511341
              12 H      0.802721411276   -2.369870962958    0.487670973897
              13 H      0.772801717364   -2.054734354702   -1.247222324339
              14 H      3.344721371944    1.064870517307    0.224950763669
              15 H      3.345204935431   -0.269423313866   -0.928484678385
              16 H      3.341901878839   -0.600830613723    0.803631053161
------------------------ !GEOMETRY! -------------------------
    Number of atoms:    17 
    Geometry Index:     7 
    Coordinates:
               0 Si     1.067252886971    0.066974836606    0.030500970734
               1 C      0.438119535021    0.674020664656    1.695734184949
               2 C      0.441970881333    1.208989931743   -1.326750896665
               3 C      0.439900368112   -1.679243537517   -0.276826848372
               4 C      2.948139055701    0.065200151927    0.032592242680
               5 H     -0.653542713391    0.675465513952    1.728068553716
               6 H      0.777350995240    1.691974633921    1.899167722677
               7 H      0.792835908534    0.037357361910    2.509096940835
               8 H     -0.649582964768    1.231282469513   -1.353732914142
               9 H      0.791411105207    0.884371057749   -2.309250434571
              10 H      0.790348701104    2.232596613890   -1.172726348316
              11 H     -0.651583077206   -1.715307767126   -0.263553069683
              12 H      0.803459536285   -2.369524362531    0.487387266801
              13 H      0.772323266774   -2.054233955608   -1.247246266076
              14 H      3.344390862492    1.064463455151    0.225651533819
              15 H      3.344847860023   -0.268863789314   -0.928565122143
              16 H      3.341357792567   -0.601453278922    0.803122483757
